<?xml version="1.0" encoding="UTF-8" standalone="no"?>
<svg width="64px" height="64px" viewBox="0 0 64 64" version="1.1" xmlns="http://www.w3.org/2000/svg" xmlns:xlink="http://www.w3.org/1999/xlink">
    <!-- Generator: Sketch 41.2 (35397) - http://www.bohemiancoding.com/sketch -->
    <title>Group 17</title>
    <desc>Created with Sketch.</desc>
    <defs></defs>
    <g id="Page-1" stroke="none" stroke-width="1" fill="none" fill-rule="evenodd">
        <g id="Group-17">
            <path d="M64,32 C64,49.67 49.673,64 32,64 C14.327,64 0,49.67 0,32 C0,14.33 14.327,0 32,0 C49.673,0 64,14.33 64,32" id="Fill-394" fill="#4C5665"></path>
            <path d="M32,60 C30.896,60 30,59.1 30,58 L30,53.9 L30,56 C30,57.1 30.895,58 32,58 C33.104,58 34,57.1 34,56 L34,58 C34,59.1 33.104,60 32,60" id="Fill-395" fill="#414A55"></path>
            <path d="M56,36 L51.901,36 C51.966,35.34 52,34.67 52,34 L56,34 C56.74,34 57.386,33.6 57.732,33 C57.902,33.29 58,33.64 58,34 C58,35.1 57.104,36 56,36 M47.494,36 L41.799,36 C41.931,35.35 42,34.68 42,34 L47.876,34 C47.79,34.68 47.662,35.35 47.494,36 M22.201,36 L16.506,36 C16.338,35.35 16.21,34.68 16.124,34 L22,34 C22,34.68 22.069,35.35 22.201,36 M12.099,36 L8,36 C6.896,36 6,35.1 6,34 C6,33.64 6.098,33.29 6.268,33 C6.614,33.6 7.26,34 8,34 L12,34 C12,34.67 12.034,35.34 12.099,36 M37.904,35.08 L37.415,34.59 C37.507,34.4 37.588,34.2 37.659,34 L38,34 C38,34.37 37.967,34.73 37.904,35.08 M26.096,35.07 C26.033,34.73 26,34.37 26,34 L26.341,34 C26.412,34.2 26.493,34.4 26.585,34.59 L26.096,35.07" id="Fill-396" fill="#414A55"></path>
            <path d="M48.971,52.97 C48.459,52.97 47.947,52.78 47.557,52.38 L44.657,49.49 C45.023,49.19 45.379,48.87 45.722,48.55 L47.556,50.38 C47.947,50.78 48.459,50.97 48.97,50.97 C49.482,50.97 49.994,50.78 50.384,50.38 C50.511,50.26 50.617,50.12 50.703,49.97 C51.146,50.73 51.04,51.73 50.385,52.38 C49.995,52.78 49.482,52.97 48.971,52.97 M40.636,45.46 L37.512,42.34 C37.909,42.08 38.287,41.79 38.641,41.47 L41.806,44.63 C41.429,44.93 41.039,45.2 40.636,45.46 M34.586,39.41 L34,38.83 L34,37.66 C34.201,37.59 34.396,37.51 34.587,37.42 L35.806,38.63 C35.434,38.94 35.025,39.2 34.586,39.41 M23.66,28.49 L19.365,24.19 C19.656,23.82 19.963,23.46 20.285,23.11 L24.53,27.36 C24.214,27.71 23.923,28.09 23.66,28.49 M15.65,20.48 L13.615,18.44 C12.961,17.79 12.855,16.79 13.297,16.03 C13.382,16.18 13.488,16.32 13.615,16.44 L16.514,19.34 C16.213,19.71 15.925,20.09 15.65,20.48" id="Fill-397" fill="#414A55"></path>
            <path d="M15.029,52.97 C14.518,52.97 14.005,52.78 13.615,52.38 C12.961,51.73 12.855,50.74 13.297,49.97 C13.382,50.12 13.488,50.26 13.615,50.38 C14.006,50.78 14.517,50.97 15.029,50.97 C15.541,50.97 16.053,50.78 16.443,50.38 L18.278,48.55 C18.622,48.87 18.977,49.19 19.343,49.49 L16.443,52.38 C16.053,52.78 15.541,52.97 15.029,52.97 M23.364,45.46 C22.961,45.2 22.571,44.93 22.194,44.63 L25.358,41.47 C25.713,41.79 26.091,42.08 26.488,42.34 L23.364,45.46 M29.414,39.41 C28.975,39.2 28.566,38.94 28.193,38.63 L29.413,37.41 C29.603,37.51 29.799,37.59 30,37.66 L30,38.83 L29.414,39.41 M40.34,28.49 C40.077,28.09 39.785,27.71 39.47,27.36 L43.715,23.11 C44.037,23.46 44.344,23.82 44.635,24.19 L40.34,28.49 M48.35,20.48 C48.075,20.09 47.787,19.71 47.486,19.34 L50.384,16.44 C50.511,16.32 50.617,16.18 50.703,16.03 C51.146,16.79 51.039,17.79 50.385,18.44 L48.35,20.48" id="Fill-398" fill="#414A55"></path>
            <path d="M30,8 L30,56 C30,57.1 30.895,58 32,58 C33.104,58 34,57.1 34,56 L34,8 C34,6.9 33.104,6 32,6 C30.895,6 30,6.9 30,8" id="Fill-399" fill="#D5925C"></path>
            <path d="M56,30 L8,30 C6.896,30 6,30.9 6,32 C6,33.1 6.896,34 8,34 L56,34 C57.104,34 58,33.1 58,32 C58,30.9 57.104,30 56,30" id="Fill-400" fill="#D5925C"></path>
            <path d="M50.384,47.56 L16.443,13.61 C15.662,12.83 14.396,12.83 13.615,13.61 C12.834,14.4 12.834,15.66 13.615,16.44 L47.556,50.38 C48.337,51.17 49.604,51.17 50.384,50.38 C51.166,49.6 51.166,48.34 50.384,47.56" id="Fill-401" fill="#D5925C"></path>
            <path d="M16.443,50.38 L50.384,16.44 C51.166,15.66 51.166,14.4 50.384,13.61 C49.604,12.83 48.337,12.83 47.556,13.61 L13.615,47.56 C12.834,48.34 12.834,49.6 13.615,50.38 C14.396,51.17 15.662,51.17 16.443,50.38" id="Fill-402" fill="#D5925C"></path>
            <path d="M30,53.9 C25.977,53.5 22.306,51.91 19.343,49.49 L20.479,48.35 C23.223,50.29 26.477,51.55 30,51.9 L30,53.9" id="Fill-403" fill="#414A55"></path>
            <path d="M19.343,49.49 C18.977,49.19 18.622,48.87 18.278,48.55 L19.342,47.49 C19.711,47.79 20.089,48.07 20.479,48.35 L19.343,49.49" id="Fill-404" fill="#3A4048"></path>
            <path d="M34,53.9 L34,51.9 C37.523,51.55 40.777,50.29 43.521,48.35 L44.657,49.49 C41.694,51.91 38.023,53.5 34,53.9" id="Fill-405" fill="#414A55"></path>
            <path d="M44.657,49.49 L43.521,48.35 C43.911,48.07 44.289,47.79 44.657,47.49 L45.722,48.55 C45.379,48.87 45.023,49.19 44.657,49.49" id="Fill-406" fill="#3A4048"></path>
            <path d="M48.35,45.52 L47.486,44.66 C49.503,42.19 50.942,39.24 51.6,36 L51.901,36 C51.551,39.52 50.287,42.78 48.35,45.52" id="Fill-407" fill="#414A55"></path>
            <path d="M51.901,36 L51.6,36 C51.733,35.34 51.834,34.68 51.901,34 L52,34 C52,34.67 51.966,35.34 51.901,36" id="Fill-408" fill="#3A4048"></path>
            <path d="M47.876,30 L47.494,30 C46.941,27.86 45.954,25.89 44.635,24.19 L45.464,23.36 C46.726,25.33 47.572,27.58 47.876,30" id="Fill-409" fill="#414A55"></path>
            <path d="M44.635,24.19 C44.344,23.82 44.037,23.46 43.715,23.11 L44.634,22.19 C44.928,22.57 45.205,22.96 45.464,23.36 L44.635,24.19" id="Fill-410" fill="#3A4048"></path>
            <path d="M32,54 C31.325,54 30.658,53.97 30,53.9 L30,51.9 C30.658,51.97 31.325,52 32,52 C32.675,52 33.342,51.97 34,51.9 L34,53.9 C33.342,53.97 32.675,54 32,54" id="Fill-411" fill="#AF7A51"></path>
            <path d="M52,34 L51.901,34 C51.934,33.67 51.959,33.34 51.975,33 C51.992,33.33 52,33.66 52,34 M47.969,33 C47.905,31.97 47.744,30.97 47.494,30 L47.876,30 C47.958,30.66 48,31.32 48,32 C48,32.34 47.99,32.67 47.969,33" id="Fill-412" fill="#AF7A51"></path>
            <path d="M45.722,48.55 L44.657,47.49 C45.691,46.64 46.64,45.69 47.486,44.66 L48.35,45.52 C47.576,46.62 46.695,47.63 45.722,48.55" id="Fill-413" fill="#AF7A51"></path>
            <path d="M15.65,45.52 C13.713,42.78 12.449,39.52 12.099,36 L12.4,36 C13.058,39.24 14.498,42.19 16.514,44.66 L15.65,45.52" id="Fill-414" fill="#414A55"></path>
            <path d="M12.4,36 L12.099,36 C12.034,35.34 12,34.67 12,34 L12.099,34 C12.166,34.68 12.267,35.34 12.4,36" id="Fill-415" fill="#3A4048"></path>
            <path d="M16.506,30 L16.124,30 C16.428,27.58 17.274,25.33 18.536,23.36 L19.365,24.19 C18.046,25.89 17.059,27.86 16.506,30" id="Fill-416" fill="#414A55"></path>
            <path d="M19.365,24.19 L18.536,23.36 C18.795,22.96 19.072,22.57 19.365,22.19 L20.285,23.11 C19.963,23.46 19.656,23.82 19.365,24.19" id="Fill-417" fill="#3A4048"></path>
            <path d="M23.364,20.54 L22.194,19.37 C24.407,17.64 27.083,16.49 30,16.12 L30,18.12 C27.58,18.43 25.326,19.27 23.364,20.54" id="Fill-418" fill="#414A55"></path>
            <path d="M40.635,20.54 C38.674,19.27 36.42,18.43 34,18.12 L34,16.12 C36.917,16.49 39.593,17.64 41.806,19.37 L40.635,20.54" id="Fill-419" fill="#414A55"></path>
            <path d="M34,18.12 C33.344,18.04 32.677,18 32,18 C31.323,18 30.656,18.04 30,18.12 L30,16.12 C30.656,16.04 31.323,16 32,16 C32.677,16 33.344,16.04 34,16.12 L34,18.12" id="Fill-420" fill="#AF7A51"></path>
            <path d="M12.099,34 L12,34 C12,33.66 12.009,33.33 12.025,33 C12.041,33.34 12.066,33.67 12.099,34 M16.031,33 C16.01,32.67 16,32.34 16,32 C16,31.32 16.042,30.66 16.124,30 L16.506,30 C16.256,30.97 16.095,31.97 16.031,33" id="Fill-421" fill="#AF7A51"></path>
            <path d="M20.285,23.11 L19.365,22.19 C20.187,21.14 21.138,20.19 22.194,19.37 L23.364,20.54 C22.232,21.26 21.198,22.13 20.285,23.11" id="Fill-422" fill="#AF7A51"></path>
            <path d="M18.278,48.55 C17.305,47.63 16.424,46.62 15.65,45.52 L16.514,44.66 C17.36,45.69 18.308,46.64 19.342,47.49 L18.278,48.55 M43.715,23.11 C42.802,22.13 41.767,21.26 40.635,20.54 L41.806,19.37 C42.862,20.19 43.813,21.14 44.634,22.19 L43.715,23.11" id="Fill-423" fill="#AF7A51"></path>
            <path d="M32,12 C20.954,12 12,20.95 12,32 C12,43.05 20.954,52 32,52 C43.046,52 52,43.05 52,32 C52,20.95 43.046,12 32,12 M32,16 C40.822,16 48,23.18 48,32 C48,40.82 40.822,48 32,48 C23.178,48 16,40.82 16,32 C16,23.18 23.178,16 32,16" id="Fill-424" fill="#F1CC84"></path>
            <path d="M38,32 C38,35.31 35.314,38 32,38 C28.686,38 26,35.31 26,32 C26,28.69 28.686,26 32,26 C35.314,26 38,28.69 38,32" id="Fill-425" fill="#4C5665"></path>
            <path d="M30,43.8 C28.725,43.54 27.538,43.04 26.488,42.34 L29.414,39.41 C29.604,39.51 29.8,39.59 30,39.66 L30,43.8 M34,43.8 L34,39.66 C34.2,39.59 34.396,39.51 34.586,39.41 L37.512,42.34 C36.462,43.04 35.275,43.54 34,43.8 M41.06,38.23 L38.828,36 L41.799,36 C41.64,36.78 41.39,37.53 41.06,38.23 M22.94,38.23 C22.61,37.53 22.36,36.78 22.201,36 L25.171,36 L22.94,38.23 M41.165,30 L38.829,30 L40.34,28.49 C40.656,28.97 40.933,29.47 41.165,30 M25.171,30 L22.835,30 C23.067,29.47 23.344,28.97 23.66,28.49 L25.171,30 M29.413,26.58 L27.769,24.94 C28.472,24.61 29.22,24.36 30,24.2 L30,26.34 C29.799,26.41 29.604,26.49 29.413,26.58 M34.586,26.58 C34.396,26.49 34.201,26.41 34,26.34 L34,24.2 C34.781,24.36 35.528,24.61 36.231,24.94 L34.586,26.58" id="Fill-426" fill="#414A55"></path>
            <path d="M41.799,36 L38.828,36 L37.904,35.08 C37.967,34.73 38,34.37 38,34 L42,34 C42,34.68 41.931,35.35 41.799,36 M25.171,36 L22.201,36 C22.069,35.35 22,34.68 22,34 L26,34 C26,34.37 26.033,34.73 26.096,35.07 L25.171,36" id="Fill-427" fill="#3A4048"></path>
            <path d="M37.512,42.34 L34.586,39.41 C35.025,39.2 35.434,38.94 35.806,38.63 L38.641,41.47 C38.287,41.79 37.909,42.08 37.512,42.34 M26.341,30 L25.171,30 L23.66,28.49 C23.923,28.09 24.214,27.71 24.53,27.36 L26.585,29.41 C26.494,29.6 26.412,29.8 26.341,30" id="Fill-428" fill="#3A4048"></path>
            <path d="M26.488,42.34 C26.091,42.08 25.713,41.79 25.358,41.47 L28.193,38.63 C28.566,38.94 28.975,39.2 29.414,39.41 L26.488,42.34 M38.829,30 L37.659,30 C37.588,29.8 37.506,29.6 37.415,29.41 L39.47,27.36 C39.785,27.71 40.077,28.09 40.34,28.49 L38.829,30" id="Fill-429" fill="#3A4048"></path>
            <path d="M32,44 C31.315,44 30.646,43.93 30,43.8 L30,39.66 C30.626,39.88 31.299,40 32,40 C32.701,40 33.374,39.88 34,39.66 L34,43.8 C33.354,43.93 32.685,44 32,44 M34,26.34 C33.374,26.12 32.701,26 32,26 C31.299,26 30.626,26.12 30,26.34 L30,24.2 C30.646,24.07 31.315,24 32,24 C32.685,24 33.354,24.07 34,24.2 L34,26.34" id="Fill-430" fill="#AF7A51"></path>
            <path d="M42,34 L38,34 C38,33.66 37.972,33.33 37.917,33 C37.972,32.68 38,32.34 38,32 C38,31.3 37.88,30.63 37.659,30 L41.165,30 C41.702,31.23 42,32.58 42,34 M26,34 L22,34 C22,32.58 22.298,31.23 22.835,30 L26.341,30 C26.12,30.63 26,31.3 26,32 C26,32.34 26.028,32.68 26.083,33 C26.028,33.33 26,33.66 26,34" id="Fill-431" fill="#AF7A51"></path>
            <path d="M38.641,41.47 L35.806,38.63 C36.882,37.75 37.645,36.5 37.904,35.08 L38.828,36 L41.06,38.23 C40.479,39.47 39.652,40.57 38.641,41.47 M26.585,29.41 L24.53,27.36 C25.429,26.35 26.53,25.52 27.769,24.94 L29.413,26.58 C28.178,27.18 27.176,28.18 26.585,29.41" id="Fill-432" fill="#AF7A51"></path>
            <path d="M25.358,41.47 C24.348,40.57 23.521,39.47 22.94,38.23 L25.171,36 L26.096,35.07 C26.355,36.5 27.118,37.75 28.193,38.63 L25.358,41.47 M37.415,29.41 C36.824,28.18 35.822,27.18 34.586,26.58 L36.231,24.94 C37.47,25.52 38.57,26.35 39.47,27.36 L37.415,29.41" id="Fill-433" fill="#AF7A51"></path>
            <path d="M26.083,33 C26.028,32.68 26,32.34 26,32 C26,31.3 26.12,30.63 26.341,30 C26.412,29.8 26.494,29.6 26.585,29.41 C27.176,28.18 28.178,27.18 29.413,26.58 C29.604,26.49 29.799,26.41 30,26.34 C30.626,26.12 31.299,26 32,26 C32.701,26 33.374,26.12 34,26.34 C34.201,26.41 34.396,26.49 34.586,26.58 C35.822,27.18 36.824,28.18 37.415,29.41 C37.506,29.6 37.588,29.8 37.659,30 C37.88,30.63 38,31.3 38,32 C38,32.34 37.972,32.68 37.917,33 C37.44,30.17 34.968,28 32,28 C29.032,28 26.56,30.17 26.083,33" id="Fill-434" fill="#414A55"></path>
            <path d="M40,32 L38,32 C37.999,33.66 37.332,35.15 36.243,36.24 C35.151,37.33 33.663,38 32,38 C30.337,38 28.849,37.33 27.757,36.24 C26.668,35.15 26.001,33.66 26,32 C26.001,30.34 26.668,28.85 27.757,27.76 C28.849,26.67 30.337,26 32,26 C33.663,26 35.151,26.67 36.243,27.76 C37.332,28.85 37.999,30.34 38,32 L42,32 C41.999,26.48 37.524,22 32,22 C26.476,22 22.001,26.48 22,32 C22.001,37.52 26.476,42 32,42 C37.524,42 41.999,37.52 42,32 L40,32" id="Fill-435" fill="#F1CC84"></path>
        </g>
    </g>
</svg>