<?xml version="1.0" encoding="UTF-8" standalone="no"?>
<svg width="64px" height="64px" viewBox="0 0 64 64" version="1.1" xmlns="http://www.w3.org/2000/svg" xmlns:xlink="http://www.w3.org/1999/xlink">
    <!-- Generator: Sketch 41.2 (35397) - http://www.bohemiancoding.com/sketch -->
    <title>Group 20</title>
    <desc>Created with Sketch.</desc>
    <defs></defs>
    <g id="Page-1" stroke="none" stroke-width="1" fill="none" fill-rule="evenodd">
        <g id="Group-20">
            <path d="M64,32 C64,49.67 49.673,64 32,64 C14.327,64 0,49.67 0,32 C0,14.33 14.327,0 32,0 C49.673,0 64,14.33 64,32" id="Fill-516" fill="#D5925C"></path>
            <path d="M32,57.5 C31.893,57.5 31.785,57.49 31.68,57.47 C13.192,53.42 9.389,41.92 9.454,32.99 C9.512,25.17 12.513,18.64 12.641,18.37 C12.814,17.99 13.132,17.71 13.521,17.58 C13.676,17.53 13.838,17.5 13.999,17.5 C14.24,17.5 14.48,17.56 14.698,17.67 C14.738,17.69 18.902,19.84 23.778,19.84 C26.576,19.84 29.065,19.13 31.176,17.75 C31.426,17.58 31.713,17.5 32,17.5 C32.287,17.5 32.574,17.58 32.824,17.75 C34.935,19.13 37.424,19.84 40.222,19.84 C45.128,19.84 49.261,17.69 49.302,17.67 C49.519,17.56 49.759,17.5 50,17.5 C50.162,17.5 50.324,17.53 50.481,17.58 C50.871,17.71 51.189,18 51.361,18.37 C51.488,18.64 54.465,25.17 54.545,32.98 C54.637,41.99 50.854,53.56 32.309,57.47 C32.207,57.49 32.103,57.5 32,57.5" id="Fill-517" fill="#AF7A51"></path>
            <path d="M10.954,30.5 C10.889,39.32 14.794,49.74 32,53.5 C49.262,49.86 53.136,39.38 53.045,30.5 L10.954,30.5" id="Fill-518" fill="#4C5665"></path>
            <path d="M10.954,30.5 L9.454,30.49 L9.454,30.71 C9.451,35.32 10.503,40.44 13.881,44.9 C17.255,49.37 22.897,53.05 31.679,54.97 C31.884,55.01 32.105,55.01 32.31,54.97 C36.705,54.04 40.308,52.67 43.241,50.97 C47.642,48.43 50.517,45.11 52.236,41.56 C53.96,38.02 54.546,34.27 54.546,30.8 C54.546,30.7 54.546,30.59 54.545,30.49 C54.537,29.66 53.869,29 53.045,29 L10.954,29 C10.13,29 9.461,29.66 9.454,30.49 L10.954,30.5 L10.954,32 L53.045,32 L53.045,30.5 L51.545,30.51 C51.546,30.61 51.546,30.71 51.546,30.8 C51.544,34.99 50.605,39.41 47.728,43.2 C46.286,45.1 44.35,46.86 41.736,48.38 C39.123,49.89 35.828,51.16 31.69,52.03 L32,53.5 L32.321,52.03 C24.036,50.21 19.155,46.89 16.273,43.09 C13.394,39.29 12.456,34.89 12.453,30.71 L12.454,30.51 L10.954,30.5 L10.954,32 L10.954,30.5" id="Fill-519" fill="#FFFFFF"></path>
            <path d="M50,16.5 C50,16.5 40,21.76 32,16.5 C24,21.76 14,16.5 14,16.5 C14,16.5 11.01,22.91 10.954,30.5 L53.045,30.5 C52.967,22.92 50,16.5 50,16.5" id="Fill-520" fill="#B95756"></path>
            <path d="M50,16.5 L49.302,15.17 L49.557,15.66 L49.304,15.17 L49.302,15.17 L49.557,15.66 L49.304,15.17 C49.283,15.19 45.044,17.35 40.222,17.34 C37.769,17.34 35.198,16.81 32.824,15.25 C32.325,14.92 31.675,14.92 31.176,15.25 C28.802,16.81 26.231,17.34 23.778,17.34 C21.331,17.34 19.029,16.79 17.357,16.24 C16.521,15.97 15.842,15.69 15.38,15.49 C15.149,15.39 14.971,15.31 14.855,15.25 L14.728,15.19 L14.701,15.17 L14.696,15.17 L14.433,15.68 L14.698,15.17 L14.696,15.17 L14.433,15.68 L14.698,15.17 C14.334,14.98 13.911,14.95 13.521,15.08 C13.13,15.21 12.815,15.49 12.64,15.87 C12.6,15.97 9.525,22.52 9.454,30.49 C9.451,30.89 9.607,31.27 9.89,31.56 C10.172,31.84 10.554,32 10.954,32 L53.045,32 C53.446,32 53.829,31.84 54.111,31.56 C54.393,31.27 54.549,30.89 54.545,30.48 C54.452,22.52 51.401,15.98 51.362,15.87 C51.189,15.5 50.872,15.21 50.481,15.08 C50.091,14.95 49.666,14.98 49.302,15.17 L50,16.5 L48.638,17.13 L48.643,17.14 C48.777,17.42 51.484,23.54 51.545,30.52 L53.045,30.5 L53.045,29 L10.954,29 L10.954,30.5 L12.454,30.51 C12.479,26.91 13.209,23.54 13.937,21.08 C14.3,19.85 14.661,18.85 14.929,18.17 C15.063,17.82 15.174,17.56 15.249,17.38 L15.335,17.19 L15.359,17.13 L14,16.5 L13.302,17.83 C13.417,17.88 18.009,20.32 23.778,20.34 C26.658,20.34 29.864,19.7 32.824,17.75 L32,16.5 L31.176,17.75 C34.135,19.7 37.342,20.34 40.222,20.34 C45.991,20.32 50.583,17.88 50.698,17.83 L50,16.5 L48.638,17.13 L50,16.5" id="Fill-521" fill="#FFFFFF"></path>
        </g>
    </g>
</svg>