<?xml version="1.0" encoding="UTF-8" standalone="no"?>
<svg width="64px" height="64px" viewBox="0 0 64 64" version="1.1" xmlns="http://www.w3.org/2000/svg" xmlns:xlink="http://www.w3.org/1999/xlink">
    <!-- Generator: Sketch 41.2 (35397) - http://www.bohemiancoding.com/sketch -->
    <title>Group 2</title>
    <desc>Created with Sketch.</desc>
    <defs></defs>
    <g id="Page-1" stroke="none" stroke-width="1" fill="none" fill-rule="evenodd">
        <g id="Group-2">
            <path d="M64,32 C64,49.67 49.673,64 32,64 C14.327,64 0,49.67 0,32 C0,14.33 14.327,0 32,0 C49.673,0 64,14.33 64,32" id="Fill-631" fill="#DEDFCB"></path>
            <path d="M42.5,45.41 C37.805,45.41 34,41.6 34,36.91 C34,36.59 34.022,36.28 34.064,35.96 C34.579,40.16 38.16,43.41 42.5,43.41 C46.84,43.41 50.421,40.16 50.936,35.96 C50.978,36.28 51,36.59 51,36.91 C51,41.6 47.194,45.41 42.5,45.41" id="Fill-632" fill="#B3B3A5"></path>
            <path d="M11.001,42.5 C10.488,42.5 9.988,42.24 9.708,41.76 C9.368,41.18 9.458,40.47 9.881,40 C10.17,40.32 10.581,40.5 11.001,40.5 C11.26,40.5 11.523,40.43 11.762,40.29 L38.946,24.26 C39.015,24.35 39.087,24.44 39.162,24.52 C38.419,25.4 37.637,26.39 36.912,27.46 L11.762,42.29 C11.523,42.43 11.26,42.5 11.001,42.5 M50.089,19.69 C49.299,19.29 48.553,19.04 47.859,19 L50.762,17.29 C50.899,17.21 51.018,17.11 51.119,17 C51.183,17.07 51.241,17.15 51.292,17.24 C51.713,17.95 51.476,18.87 50.762,19.29 L50.089,19.69" id="Fill-633" fill="#B3B3A5"></path>
            <path d="M11.762,40.29 L50.762,17.29 C51.476,16.87 51.713,15.95 51.292,15.24 C50.871,14.52 49.952,14.29 49.238,14.71 L10.238,37.71 C9.524,38.13 9.287,39.05 9.708,39.76 C10.129,40.48 11.048,40.71 11.762,40.29" id="Fill-634" fill="#D5925C"></path>
            <path d="M51,34.91 C51,39.6 47.194,43.41 42.5,43.41 C37.805,43.41 34,39.6 34,34.91 C34,28.73 42.5,21 42.5,21 C42.5,21 51,28.73 51,34.91" id="Fill-635" fill="#B95756"></path>
            <path d="M35.018,23.09 C34.783,23.04 34.542,22.97 34.297,22.9 C30.492,21.78 30.324,19.12 30.555,17.66 C30.787,18.99 31.685,20.48 34.297,21.26 C35.252,21.54 36.132,21.71 36.911,21.71 C37.08,21.71 37.244,21.7 37.403,21.69 L35.018,23.09" id="Fill-636" fill="#B3B3A5"></path>
            <path d="M36.911,23.36 C36.332,23.36 35.697,23.26 35.018,23.09 L37.403,21.69 C37.611,21.67 37.81,21.63 38,21.57 C38.009,22.12 38.114,22.64 38.298,23.11 C37.883,23.28 37.419,23.36 36.911,23.36" id="Fill-637" fill="#AF7A51"></path>
            <path d="M39.817,20 C40.376,18.88 39.817,16 35.817,17 C30.87,18.24 30.817,15 30.817,15 C30.817,15 28.905,19.66 34.297,21.26 C36.817,22 38.817,22 39.817,20" id="Fill-638" fill="#B95756"></path>
            <path d="M52.844,29.12 C52.844,29.12 53.652,25.99 48.554,25.87 C47.788,25.85 47.171,25.73 46.681,25.55 C46.398,25.19 46.115,24.85 45.837,24.52 C46.09,24.24 46.308,23.93 46.485,23.59 C47.004,23.82 47.681,23.97 48.554,23.99 C53.652,24.11 52.844,27.24 52.844,27.24 C52.844,27.24 53.46,26.45 53.714,25.3 C54.208,27.36 52.844,29.12 52.844,29.12" id="Fill-639" fill="#B3B3A5"></path>
            <path d="M46.681,25.55 C46.18,25.36 45.81,25.1 45.548,24.81 C45.649,24.72 45.745,24.62 45.837,24.52 C46.115,24.85 46.398,25.19 46.681,25.55" id="Fill-640" fill="#974D4C"></path>
            <path d="M45.494,20.03 C44.658,20.96 44.432,23.89 48.554,23.99 C53.652,24.11 52.844,27.24 52.844,27.24 C52.844,27.24 55.925,23.26 51.149,20.29 C48.917,18.9 46.989,18.37 45.494,20.03" id="Fill-641" fill="#B95756"></path>
            <path d="M45.011,23.57 C44.829,23.37 44.653,23.18 44.484,22.99 L45.109,22.63 C45.021,22.91 44.979,23.24 45.011,23.57 M39.93,20.2 C39.909,20.11 39.882,20.02 39.849,19.93 C40.066,19.43 40.076,18.64 39.704,17.97 C40.472,17.36 41.443,17 42.5,17 C43.231,17 43.921,17.17 44.531,17.48 L39.93,20.2" id="Fill-642" fill="#B3B3A5"></path>
            <path d="M39.162,24.52 C39.087,24.44 39.015,24.35 38.946,24.26 L39.849,23.73 C39.626,23.98 39.396,24.24 39.162,24.52 M44.484,22.99 C44.007,22.48 43.583,22.05 43.252,21.72 L45.163,20.59 C44.964,21.11 44.917,21.78 45.195,22.39 C45.163,22.47 45.135,22.54 45.109,22.63 L44.484,22.99" id="Fill-643" fill="#949388"></path>
            <path d="M38.946,24.26 C38.677,23.92 38.458,23.53 38.298,23.11 C38.928,22.86 39.443,22.39 39.817,21.64 C39.998,21.28 40.062,20.74 39.93,20.2 L44.531,17.48 C45.328,17.89 45.988,18.52 46.425,19.3 C46.099,19.47 45.788,19.71 45.494,20.03 C45.364,20.18 45.249,20.37 45.163,20.59 L43.252,21.72 C42.785,21.26 42.5,21 42.5,21 C42.5,21 41.325,22.07 39.849,23.73 L38.946,24.26" id="Fill-644" fill="#AF7A51"></path>
            <path d="M42.5,26 C41.176,26 39.986,25.43 39.162,24.52 C39.396,24.24 39.626,23.98 39.849,23.73 C41.325,22.07 42.5,21 42.5,21 C42.5,21 42.785,21.26 43.252,21.72 C43.583,22.05 44.007,22.48 44.484,22.99 C44.653,23.18 44.829,23.37 45.011,23.57 C45.051,24 45.212,24.43 45.548,24.81 C44.746,25.55 43.676,26 42.5,26" id="Fill-645" fill="#974D4C"></path>
            <path d="M39.587,20.4 C39.669,20.28 39.746,20.14 39.817,20 C39.828,19.98 39.839,19.96 39.849,19.93 C39.882,20.02 39.909,20.11 39.93,20.2 L39.587,20.4" id="Fill-646" fill="#949388"></path>
            <path d="M38.298,23.11 C38.114,22.64 38.009,22.12 38,21.57 C38.64,21.39 39.176,21.02 39.587,20.4 L39.93,20.2 C40.062,20.74 39.998,21.28 39.817,21.64 C39.443,22.39 38.928,22.86 38.298,23.11" id="Fill-647" fill="#906747"></path>
            <path d="M38,21.57 L38,21.5 C38,20.07 38.666,18.8 39.704,17.97 C40.076,18.64 40.066,19.43 39.849,19.93 C39.839,19.96 39.828,19.98 39.817,20 C39.746,20.14 39.669,20.28 39.587,20.4 C39.176,21.02 38.64,21.39 38,21.57" id="Fill-648" fill="#974D4C"></path>
            <path d="M45.837,24.52 C45.554,24.18 45.277,23.87 45.011,23.57 C44.979,23.24 45.021,22.91 45.109,22.63 L45.265,22.53 C45.492,22.95 45.88,23.33 46.485,23.59 C46.308,23.93 46.09,24.24 45.837,24.52" id="Fill-649" fill="#949388"></path>
            <path d="M45.109,22.63 C45.135,22.54 45.163,22.47 45.195,22.39 C45.217,22.44 45.24,22.49 45.265,22.53 L45.109,22.63" id="Fill-650" fill="#7C7B72"></path>
            <path d="M45.548,24.81 C45.212,24.43 45.051,24 45.011,23.57 C45.277,23.87 45.554,24.18 45.837,24.52 C45.745,24.62 45.649,24.72 45.548,24.81" id="Fill-651" fill="#7D4140"></path>
            <path d="M46.485,23.59 C45.88,23.33 45.492,22.95 45.265,22.53 C45.24,22.49 45.217,22.44 45.195,22.39 C44.917,21.78 44.964,21.11 45.163,20.59 C45.249,20.37 45.364,20.18 45.494,20.03 C45.788,19.71 46.099,19.47 46.425,19.3 C46.791,19.95 47,20.7 47,21.5 C47,22.26 46.814,22.97 46.485,23.59" id="Fill-652" fill="#974D4C"></path>
            <path d="M46.5,20 C46.5,22.21 44.709,24 42.5,24 C40.291,24 38.5,22.21 38.5,20 C38.5,17.79 40.291,16 42.5,16 C44.709,16 46.5,17.79 46.5,20" id="Fill-653" fill="#B95756"></path>
        </g>
    </g>
</svg>