<?xml version="1.0" encoding="UTF-8" standalone="no"?>
<svg width="64px" height="64px" viewBox="0 0 64 64" version="1.1" xmlns="http://www.w3.org/2000/svg" xmlns:xlink="http://www.w3.org/1999/xlink">
    <!-- Generator: Sketch 41.2 (35397) - http://www.bohemiancoding.com/sketch -->
    <title>Group 39</title>
    <desc>Created with Sketch.</desc>
    <defs></defs>
    <g id="Page-1" stroke="none" stroke-width="1" fill="none" fill-rule="evenodd">
        <g id="Group-39">
            <path d="M64,32 C64,49.67 49.673,64 32,64 C14.327,64 0,49.67 0,32 C0,14.33 14.327,0 32,0 C49.673,0 64,14.33 64,32" id="Fill-165" fill="#4C5665"></path>
            <path d="M44.165,26.58 C44.165,26.58 40.269,20 38.581,20 L29.414,20 C27.725,20 23.83,26.58 23.83,26.58 C23.83,29.67 24.67,31.17 26.357,31.17 L41.637,31.17 C43.325,31.17 44.165,29.67 44.165,26.58" id="Fill-166" fill="#F1CC84"></path>
            <path d="M20.829,38.29 C20.829,38.29 24.855,44.88 26.599,44.88 L42.271,44.88 C44.015,44.88 48.04,38.29 48.04,38.29 C48.04,35.21 47.172,33.71 45.428,33.71 L23.441,33.71 C21.698,33.71 20.829,35.21 20.829,38.29" id="Fill-167" fill="#F1CC84"></path>
            <path d="M15.961,35.99 C15.961,37.08 13.075,41.97 11.981,41.97 C10.887,41.97 10,41.08 10,39.99 L10,26.01 C10,24.91 10.887,24.03 11.981,24.03 C13.075,24.03 15.961,28.91 15.961,30.01 L15.961,35.99" id="Fill-168" fill="#D5925C"></path>
            <path d="M44.542,43.17 C46.252,41.22 48.04,38.29 48.04,38.29 C48.04,35.21 47.172,33.71 45.428,33.71 L23.441,33.71 C21.698,33.71 20.829,35.21 20.829,38.29 C20.829,38.29 22.151,40.45 23.608,42.3 C20.271,41.4 17.134,40.24 14.56,39.1 C15.338,37.82 15.961,36.5 15.961,35.99 L15.961,30.26 C18.309,29.3 21.018,28.36 23.865,27.61 C24.04,30 24.869,31.17 26.357,31.17 L41.637,31.17 C43.293,31.17 44.133,29.72 44.164,26.76 C51.35,28.07 56,30.99 56,35 C56,38.93 51.513,41.83 44.542,43.17" id="Fill-169" fill="#414A55"></path>
            <path d="M41.637,31.17 L26.357,31.17 C24.869,31.17 24.04,30 23.865,27.61 C27.506,26.65 31.373,26 35,26 C38.343,26 41.436,26.26 44.164,26.76 C44.133,29.72 43.293,31.17 41.637,31.17" id="Fill-170" fill="#C1A66E"></path>
            <path d="M10,36.77 C8.73,35.99 8,35.35 8,35 C8,34.62 8.73,33.97 10,33.19 L10,36.77" id="Fill-171" fill="#414A55"></path>
            <path d="M35,44 C31.288,44 27.324,43.31 23.608,42.3 C22.151,40.45 20.829,38.29 20.829,38.29 C20.829,35.21 21.698,33.71 23.441,33.71 L45.428,33.71 C47.172,33.71 48.04,35.21 48.04,38.29 C48.04,38.29 46.252,41.22 44.542,43.17 C41.723,43.71 38.499,44 35,44" id="Fill-172" fill="#C1A66E"></path>
            <path d="M14.56,39.1 C12.701,38.28 11.135,37.47 10,36.77 L10,33.19 C11.41,32.31 13.485,31.27 15.961,30.26 L15.961,35.99 C15.961,36.5 15.338,37.82 14.56,39.1" id="Fill-173" fill="#AF7A51"></path>
            <path d="M56,33 C56,27.48 47.15,24 35,24 C22.85,24 8,31.31 8,33 C8,34.58 22.85,42 35,42 C47.15,42 56,38.52 56,33" id="Fill-174" fill="#F1CC84"></path>
            <path d="M39,32 C39,33.66 37.657,35 36,35 C34.343,35 33,33.66 33,32 C33,30.34 34.343,29 36,29 C37.657,29 39,30.34 39,32" id="Fill-175" fill="#D5925C"></path>
            <path d="M49,32 C49,33.66 47.657,35 46,35 C44.343,35 43,33.66 43,32 C43,30.34 44.343,29 46,29 C47.657,29 49,30.34 49,32" id="Fill-176" fill="#D5925C"></path>
            <path d="M29,32 C29,33.66 27.657,35 26,35 C24.343,35 23,33.66 23,32 C23,30.34 24.343,29 26,29 C27.657,29 29,30.34 29,32" id="Fill-177" fill="#D5925C"></path>
        </g>
    </g>
</svg>