<?xml version="1.0" encoding="UTF-8" standalone="no"?>
<svg width="64px" height="64px" viewBox="0 0 64 64" version="1.1" xmlns="http://www.w3.org/2000/svg" xmlns:xlink="http://www.w3.org/1999/xlink">
    <!-- Generator: Sketch 41.2 (35397) - http://www.bohemiancoding.com/sketch -->
    <title>Group 36</title>
    <desc>Created with Sketch.</desc>
    <defs></defs>
    <g id="Page-1" stroke="none" stroke-width="1" fill="none" fill-rule="evenodd">
        <g id="Group-36">
            <path d="M64,32 C64,49.67 49.673,64 32,64 C14.327,64 0,49.67 0,32 C0,14.33 14.327,0 32,0 C49.673,0 64,14.33 64,32" id="Fill-522" fill="#B95756"></path>
            <path d="M41.025,45 L32.382,45 C32.748,44.37 33.06,43.7 33.309,43 L41.174,43 C41.06,43.48 41,43.98 41,44.5 C41,44.67 41.013,44.83 41.025,45 M52,39.82 C51.977,39.79 51.953,39.77 51.93,39.75 C51.976,39.51 52,39.26 52,39 L52,39.82 M33.428,28 L32.868,28 C31.834,24.31 30.868,20.83 30.384,19 L22,19 L22,17 L30.384,17 C30.509,17.47 30.666,18.05 30.848,18.72 L30.922,19 L30.924,19 C31.572,21.37 32.503,24.7 33.428,28 M18,27.7 L18,17 L18,27.7" id="Fill-523" fill="#974D4C"></path>
            <path d="M22,47 C17.589,47 14,43.41 14,39 C14,38.66 14.021,38.33 14.062,38 C14.556,41.94 17.927,45 22,45 C24.331,45 26.432,44 27.896,42.4 C28.233,42.61 28.604,42.77 28.998,42.87 C27.632,45.33 25.007,47 22,47" id="Fill-524" fill="#974D4C"></path>
            <path d="M47.5,47 C46.122,47 45,45.88 45,44.5 C45,44.14 45.074,43.81 45.209,43.5 C45.595,44.38 46.477,45 47.5,45 C48.523,45 49.405,44.38 49.791,43.5 C49.926,43.81 50,44.14 50,44.5 C50,45.88 48.879,47 47.5,47" id="Fill-525" fill="#974D4C"></path>
            <path d="M32,13 L20,13 C18.896,13 18,13.9 18,15 L18,35.44 L39.188,33.69 C39.188,33.69 34.187,16 34,15 C34,13.9 33.105,13 32,13 M30.384,17 C31.047,19.51 32.612,25.1 34.019,30.1 L22,31.09 L22,17 L30.384,17" id="Fill-526" fill="#73BBA2"></path>
            <path d="M52,39 C52,41.21 50.209,43 48,43 L30,43 C27.791,43 26,41.21 26,39 L26,32 C26,29.79 27.791,28 30,28 L48,28 C50.209,28 52,29.79 52,32 L52,39" id="Fill-527" fill="#73BBA2"></path>
            <path d="M22,29 C17.589,29 14,32.59 14,37 C14,41.41 17.589,45 22,45 C26.411,45 30,41.41 30,37 C30,32.59 26.411,29 22,29" id="Fill-528" fill="#F1CC84"></path>
            <path d="M47.5,40 C46.122,40 45,41.12 45,42.5 C45,43.88 46.122,45 47.5,45 C48.879,45 50,43.88 50,42.5 C50,41.12 48.879,40 47.5,40" id="Fill-529" fill="#F1CC84"></path>
            <path d="M22,51 C15.372,51 10,45.63 10,39 C10,33.78 13.342,29.35 18,27.7 L18,30.07 C15.611,31.46 14,34.04 14,37 C14,37.34 14.021,37.67 14.062,38 C14.021,38.33 14,38.66 14,39 C14,43.41 17.589,47 22,47 C25.007,47 27.632,45.33 28.998,42.87 C29.318,42.96 29.654,43 30,43 L33.309,43 C33.06,43.7 32.748,44.37 32.382,45 C30.306,48.58 26.439,51 22,51" id="Fill-530" fill="#974D4C"></path>
            <path d="M26.376,30.31 C25.117,29.48 23.614,29 22,29 L22,27 C24.16,27 26.182,27.58 27.93,28.58 C27.256,28.98 26.712,29.59 26.376,30.31" id="Fill-531" fill="#974D4C"></path>
            <path d="M18,30.07 L18,27.7 C19.253,27.25 20.595,27 22,27 L22,29 C20.544,29 19.178,29.39 18,30.07" id="Fill-532" fill="#629986"></path>
            <path d="M33.309,43 L30,43 C29.654,43 29.318,42.96 28.998,42.87 C29.636,41.73 30,40.4 30,39 C30,38.66 29.979,38.33 29.938,38 C29.979,37.67 30,37.34 30,37 C30,34.2 28.557,31.74 26.376,30.31 C26.712,29.59 27.256,28.98 27.93,28.58 C28.645,28.99 29.313,29.47 29.927,30.01 C32.419,32.21 34,35.41 34,39 C34,40.4 33.755,41.75 33.309,43" id="Fill-533" fill="#629986"></path>
            <path d="M29.938,38 C29.444,34.06 26.072,31 22,31 C17.927,31 14.556,34.06 14.062,38 C14.021,37.67 14,37.34 14,37 C14,34.04 15.611,31.46 18,30.07 C19.178,29.39 20.544,29 22,29 C23.614,29 25.117,29.48 26.376,30.31 C28.557,31.74 30,34.2 30,37 C30,37.34 29.979,37.67 29.938,38" id="Fill-534" fill="#C1A66E"></path>
            <path d="M47.5,51 C44.079,51 41.281,48.36 41.025,45 C41.013,44.83 41,44.67 41,44.5 C41,43.98 41.06,43.48 41.174,43 L45.05,43 C45.086,43.17 45.139,43.34 45.209,43.5 C45.074,43.81 45,44.14 45,44.5 C45,45.88 46.122,47 47.5,47 C48.879,47 50,45.88 50,44.5 C50,44.14 49.926,43.81 49.791,43.5 C49.926,43.19 50,42.86 50,42.5 L50,42.46 C50.988,41.89 51.71,40.91 51.93,39.75 C51.953,39.77 51.977,39.79 52,39.82 C53.231,41 54,42.66 54,44.5 C54,48.09 51.09,51 47.5,51" id="Fill-535" fill="#974D4C"></path>
            <path d="M45.05,43 L41.174,43 C41.852,40.13 44.426,38 47.5,38 C49.214,38 50.769,38.67 51.93,39.75 C51.71,40.91 50.988,41.89 50,42.46 C49.981,41.1 48.867,40 47.5,40 C46.122,40 45,41.12 45,42.5 C45,42.67 45.017,42.84 45.05,43" id="Fill-536" fill="#629986"></path>
            <path d="M49.791,43.5 C49.405,42.62 48.523,42 47.5,42 C46.477,42 45.595,42.62 45.209,43.5 C45.139,43.34 45.086,43.17 45.05,43 C45.017,42.84 45,42.67 45,42.5 C45,41.12 46.122,40 47.5,40 C48.867,40 49.981,41.1 50,42.46 L50,42.5 C50,42.86 49.926,43.19 49.791,43.5" id="Fill-537" fill="#C1A66E"></path>
            <path d="M22,45 C17.589,45 14,41.41 14,37 C14,32.59 17.589,29 22,29 C26.411,29 30,32.59 30,37 C30,41.41 26.411,45 22,45 Z M22,25 C15.373,25 10,30.37 10,37 C10,43.63 15.373,49 22,49 C28.627,49 34,43.63 34,37 C34,30.37 28.627,25 22,25 L22,25 Z" id="Fill-538" fill="#4C5665"></path>
            <path d="M47.5,45 C46.122,45 45,43.88 45,42.5 C45,41.12 46.122,40 47.5,40 C48.878,40 50,41.12 50,42.5 C50,43.88 48.878,45 47.5,45 Z M47.5,36 C43.91,36 41,38.91 41,42.5 C41,46.09 43.91,49 47.5,49 C51.09,49 54,46.09 54,42.5 C54,38.91 51.09,36 47.5,36 L47.5,36 Z" id="Fill-539" fill="#4C5665"></path>
            <path d="M30.924,19 L30.922,19 L30.848,18.72 C30.873,18.81 30.898,18.91 30.924,19" id="Fill-540" fill="#7D4140"></path>
            <path d="M34.998,18.73 C34.446,16.73 34.05,15.27 34,15 C35.105,15 36,15.9 36,17 C36,17.74 35.597,18.39 34.998,18.73" id="Fill-541" fill="#974D4C"></path>
            <path d="M34,19 L30.924,19 C30.898,18.91 30.873,18.81 30.848,18.72 L30.391,17 L34,15 C34.05,15.27 34.446,16.73 34.998,18.73 C34.704,18.9 34.363,19 34,19" id="Fill-542" fill="#629986"></path>
            <path d="M36,15 C36,16.1 35.105,17 34,17 L20,17 C18.895,17 18,16.1 18,15 C18,13.9 18.895,13 20,13 L34,13 C35.105,13 36,13.9 36,15" id="Fill-543" fill="#73BBA2"></path>
        </g>
    </g>
</svg>