<?xml version="1.0" encoding="UTF-8" standalone="no"?>
<svg width="18px" height="18px" viewBox="0 0 18 18" version="1.1" xmlns="http://www.w3.org/2000/svg" xmlns:xlink="http://www.w3.org/1999/xlink">
    <desc>Created with Sketch.</desc>
    <defs></defs>
    <g id="Symbols" stroke="none" stroke-width="1" fill="none" fill-rule="evenodd">
        <g id="header-/-Profile-group" transform="translate(-193.000000, -26.000000)" fill="#a8407f">
            <g id="Group-12">
                <path d="M206,30 L206,28 L204,26 L200,26 L198,28 L198,30 L206,30 Z M209,30 L195,30 C193.9,30 193,30.9 193,32 L193,42 C193,43.1 193.9,44 195,44 L209,44 C210.1,44 211,43.1 211,42 L211,32 C211,30.9 210.1,30 209,30 Z M204,30 L200,30 L200,28 L204,28 L204,30 Z M209,42 L195,42 L195,32 L209,32 L209,42 Z" id="Combined-Shape"></path>
            </g>
        </g>
    </g>
</svg>