<?xml version="1.0" encoding="UTF-8"?>
<svg width="31px" height="45px" viewBox="0 0 31 45" version="1.1" xmlns="http://www.w3.org/2000/svg" xmlns:xlink="http://www.w3.org/1999/xlink">
    <!-- Generator: Sketch 43.2 (39069) - http://www.bohemiancoding.com/sketch -->
    <title>Group</title>
    <desc>Created with Sketch.</desc>
    <defs></defs>
    <g id="Jobs" stroke="none" stroke-width="1" fill="none" fill-rule="evenodd">
        <g id="Blank-Screen---Home---Desktop" transform="translate(-625.000000, -384.000000)">
            <g id="Group" transform="translate(625.000000, 384.000000)">
                <path d="M30.1014114,40.2088671 L26.4757785,18.8651962 L23.3263481,31.582538 L23.3263481,42.3853861 C23.3263481,42.9213987 23.0216013,43.4408924 22.8547025,43.9296266 L27.9590696,43.0706392 C29.6622342,42.749943 30.360019,41.6836139 30.1014114,40.2088671" id="Fill-1" fill="#A8417F"></path>
                <path d="M7.30714557,31.2261835 L4.35138608,18.7953608 L0.0553101266,40.2193481 C-0.23006962,41.6866899 0.604993671,42.6772595 2.26714557,43.0702975 L7.52758861,43.9298544 C7.35955063,43.439981 7.30714557,42.921057 7.30714557,42.3856139 L7.30714557,31.2261835 Z" id="Fill-3" fill="#A8417F"></path>
                <path d="M23.0017785,11.0285886 L8.40298101,11.0285886 L8.3830443,11.0285886 C6.47823418,11.0285886 5.45747468,12.508462 5.86190506,14.3665633 L9.77120886,30.9396646 L9.77120886,42.3856139 C9.77120886,43.8193481 10.9150063,44.9933354 12.2365253,44.9933354 C13.5563354,44.9933354 14.7007025,43.8193481 14.7007025,42.3856139 L14.7007025,31.9871962 L15.9327911,31.9871962 L15.9327911,42.3856139 C15.9327911,43.8193481 17.0765886,44.9933354 18.3969684,44.9933354 C19.7184873,44.9933354 20.8617152,43.8193481 20.8617152,42.3856139 L20.8617152,31.2620696 L25.4084241,14.3665633 C25.7752595,12.4890949 24.9122848,11.0285886 23.0017785,11.0285886" id="Fill-5" fill="#6DA3D7"></path>
                <path d="M20.6342658,4.28274684 C20.6342658,1.91711392 18.7180633,-0.000227848101 16.3535696,-0.000227848101 C13.9896456,-0.000227848101 12.073443,1.91711392 12.073443,4.28274684 C12.073443,6.64724051 13.9896456,8.5651519 16.3535696,8.5651519 C18.7180633,8.5651519 20.6342658,6.64724051 20.6342658,4.28274684" id="Fill-7" fill="#6DA3D7"></path>
            </g>
        </g>
    </g>
</svg>