<?xml version="1.0" encoding="UTF-8"?>
<svg width="22px" height="13px" viewBox="0 0 22 13" version="1.1" xmlns="http://www.w3.org/2000/svg" xmlns:xlink="http://www.w3.org/1999/xlink">
    <!-- Generator: Sketch 44.1 (41455) - http://www.bohemiancoding.com/sketch -->
    <title>Fill 1</title>
    <desc>Created with Sketch.</desc>
    <defs></defs>
    <g id="Dashboard" stroke="none" stroke-width="1" fill="none" fill-rule="evenodd">
        <path d="M17.0938254,11.1585915 C15.2443215,11.1585915 13.7447088,9.65952857 13.7447088,7.80974974 C13.7447088,6.213113 14.8630966,4.87786403 16.3588613,4.5430898 L16.7796654,4.47629986 C16.883286,4.46667991 16.9877311,4.4611828 17.0938254,4.4611828 C18.9433294,4.4611828 20.4429421,5.96052062 20.4429421,7.8100246 C20.4429421,9.65980343 18.9433294,11.1585915 17.0938254,11.1585915 L17.0938254,11.1585915 Z M8.91494449,4.93998142 C8.90972224,4.94795224 8.90449998,4.95674762 8.89982743,4.96499329 C8.89350575,4.95647276 8.88773378,4.94795224 8.8814121,4.93998142 L8.91494449,4.93998142 Z M12.3305762,6.26725958 C12.3305762,7.00222371 11.7349639,7.597836 11.0002747,7.597836 C10.3573872,7.597836 9.82114372,7.14212526 9.69690895,6.5363433 C9.67931818,6.45031347 9.67024795,6.36153508 9.67024795,6.2708327 C9.67024795,5.53559371 10.2658602,4.93998142 11.0005495,4.93998142 L11.0008244,4.93998142 C11.643437,4.93998142 12.1796804,5.39596702 12.3039152,6.00174897 C12.3212311,6.08805366 12.3305762,6.17628234 12.3305762,6.26725958 L12.3305762,6.26725958 Z M13.1188624,4.93695801 C13.1125407,4.94575339 13.1056693,4.95454877 13.0996225,4.96334416 C13.0938505,4.95454877 13.0883534,4.94575339 13.0823066,4.93695801 L13.1188624,4.93695801 Z M4.90672388,11.1621647 C3.0572199,11.1621647 1.55788208,9.66282684 1.55788208,7.81332287 C1.55788208,5.96381889 3.0572199,4.46448107 4.90672388,4.46448107 C5.01281818,4.46448107 5.11726335,4.46997818 5.22088394,4.47932328 L5.64196287,4.54583835 C7.13745271,4.8811623 8.25584054,6.21641127 8.25584054,7.81304801 C8.25584054,9.66282684 6.75650272,11.1621647 4.90672388,11.1621647 L4.90672388,11.1621647 Z M20.5025858,4.28445059 C20.3797253,4.16543807 20.2499934,4.05247238 20.1153141,3.94720265 L18.2663598,2.3791509 C17.5544836,1.87424099 16.7035303,1.55348439 15.7824889,1.48834359 L15.8800627,1.58619222 L14.7570023,0.456535311 L14.7501309,0.458459301 C14.4373451,0.1737088 14.0214885,1.77635684e-15 13.5649532,1.77635684e-15 C12.7821641,1.77635684e-15 12.1189373,0.51150645 11.8902574,1.21788559 C11.6648757,1.07468577 11.4023885,0.985632525 11.1198369,0.968591472 C11.0736611,0.964743492 11.0266608,0.962269791 10.9796605,0.962269791 C10.6589039,0.962269791 10.3601357,1.05572073 10.1080931,1.21568674 C9.877764,0.512056161 9.21591148,0.00329826835 8.43504645,0.00329826835 C7.97851114,0.00329826835 7.56265447,0.177007068 7.25014354,0.462032425 L7.2429973,0.459833579 L6.11993692,1.58949049 L6.2175107,1.49164186 C5.29674411,1.55678266 4.44579088,1.8772644 3.73446434,2.38217432 L1.88496036,3.95022606 C1.75000622,4.0560455 1.62027433,4.16873634 1.49741383,4.287474 C0.574173549,5.1802053 0,6.43107357 0,7.81332287 C0,10.5187275 2.20076956,12.7197719 4.90617417,12.7197719 C7.407361,12.7197719 9.47674954,10.8386595 9.77551768,8.41718083 C10.1366781,8.62414717 10.5547336,8.74315968 11.0002747,8.74315968 C11.4455409,8.74315968 11.8633215,8.62414717 12.2244819,8.41718083 C12.5246243,10.8370104 14.5934632,12.7161988 17.0932757,12.7161988 C19.7986803,12.7161988 21.9999996,10.5148795 21.9999996,7.80947489 C22.0005493,6.4277753 21.4258261,5.17690703 20.5025858,4.28445059 L20.5025858,4.28445059 Z" id="Fill-1" fill="#FFFFFF"></path>
    </g>
</svg>