<?xml version="1.0" encoding="UTF-8" standalone="no"?>
<svg width="47px" height="52px" viewBox="0 0 47 52" version="1.1" xmlns="http://www.w3.org/2000/svg" xmlns:xlink="http://www.w3.org/1999/xlink">
    <!-- Generator: Sketch 41.2 (35397) - http://www.bohemiancoding.com/sketch -->
    <title>Group 18</title>
    <desc>Created with Sketch.</desc>
    <defs></defs>
    <g id="Home" stroke="none" stroke-width="1" fill="none" fill-rule="evenodd">
        <g id="HOME---DESKTOP-1280" transform="translate(-998.000000, -1434.000000)">
            <g id="Group-18" transform="translate(998.000000, 1434.000000)">
                <g id="Group-12">
                    <g id="Page-1-Copy-4">
                        <path d="M35.2319232,9.22634493 C33.1263435,9.22634493 31.4198652,7.51844638 31.4198652,5.41215652 C31.4198652,3.30657681 33.1263435,1.60009855 35.2319232,1.60009855 C37.3396333,1.60009855 39.0454014,3.30657681 39.0454014,5.41215652 C39.0454014,7.51844638 37.3396333,9.22634493 35.2319232,9.22634493" id="Fill-1" fill="#AEAEAE"></path>
                        <g id="Group-5" transform="translate(30.536232, 10.099468)" fill="#AEAEAE">
                            <path d="M10.8373087,1.02395797 L8.47252609,1.03318986 L6.42872899,8.16233478 L5.32516377,3.81340725 C7.55714928,0.653972464 5.05104783,0.59716087 4.68035217,0.59716087 C4.65052609,0.59716087 4.60294638,0.598581159 4.54826522,0.603552174 C4.53477246,0.603552174 4.52341014,0.604262319 4.50991739,0.604972464 C4.38493188,0.617044928 4.22017826,0.6419 4.04264203,0.69232029 C4.03127971,0.697291304 4.02062754,0.700131884 4.00855507,0.703682609 C3.82604783,0.760494203 3.64354058,0.848552174 3.48659855,0.981349275 L3.46600435,1.00052319 C3.46387391,1.00194348 3.46245362,1.0054942 3.46103333,1.00691449 C4.21236667,2.22126232 4.46659855,3.77008841 4.17117826,5.27772609 L4.13993188,5.56675507 L0.179453623,21.4825232 L0.0637,30.0355087 C0.369062319,30.9991754 1.37888841,31.6375957 2.37025072,31.6375957 C3.54483043,31.6375957 4.71514928,30.5929725 4.71514928,29.3147116 L4.71514928,19.0211609 L5.4252942,19.0211609 L5.4252942,29.3147116 C5.4252942,30.5929725 6.70994638,31.6375957 7.88594638,31.6375957 C9.06194638,31.6375957 10.3963087,30.5929725 10.3963087,29.3147116 L10.3963087,18.7513058 L13.8327,4.03497246 C14.1934536,2.37394348 12.5402362,1.01614638 10.8373087,1.02395797" id="Fill-3"></path>
                        </g>
                        <path d="M9.36922609,9.22634493 C7.26222609,9.22634493 5.55574783,7.51844638 5.55574783,5.41215652 C5.55574783,3.30657681 7.26222609,1.60009855 9.36922609,1.60009855 C11.4755159,1.60009855 13.1812841,3.30657681 13.1812841,5.41215652 C13.1812841,7.51844638 11.4755159,9.22634493 9.36922609,9.22634493" id="Fill-6" fill="#AEAEAE"></path>
                        <g id="Group-10" transform="translate(0.000000, 10.099468)" fill="#AEAEAE">
                            <path d="M3.22824783,1.02395797 L5.59232029,1.03318986 L7.63611739,8.16233478 L8.73968261,3.81340725 C6.5076971,0.653972464 9.0145087,0.59716087 9.38520435,0.59716087 C9.41503043,0.59716087 9.4619,0.598581159 9.51658116,0.603552174 C9.53007391,0.603552174 9.54143623,0.604262319 9.55492899,0.604972464 C9.68062464,0.617044928 9.84466812,0.6419 10.0222043,0.69232029 C10.0335667,0.697291304 10.044929,0.700131884 10.0570014,0.703682609 C10.2387986,0.760494203 10.4220159,0.848552174 10.5782478,0.981349275 C10.5846391,0.98774058 10.5917406,0.994131884 10.5995522,1.00052319 C10.6009725,1.00194348 10.6023928,1.0054942 10.603813,1.00691449 C9.85318986,2.22126232 9.59824783,3.77008841 9.89366812,5.27772609 L9.92491449,5.56675507 L13.8853928,21.4825232 L14.0011464,30.0355087 C13.6964942,30.9991754 12.5006101,31.6375957 11.5071174,31.6375957 C10.3325377,31.6375957 8.97616087,30.5929725 8.97616087,29.3147116 L8.97616087,19.0211609 L8.26601594,19.0211609 L8.26601594,29.3147116 C8.26601594,30.5929725 6.97994348,31.6375957 5.80536377,31.6375957 C4.62936377,31.6375957 3.29500145,30.5929725 3.29500145,29.3147116 L3.29500145,18.7513058 L0.0453782609,4.03497246 C-0.313955072,2.37394348 1.52461014,1.01614638 3.22824783,1.02395797" id="Fill-8"></path>
                        </g>
                        <path d="M22.5679087,8.79947681 C24.9980246,8.79947681 26.9665464,6.82882464 26.9665464,4.3987087 C26.9665464,1.96859275 24.9980246,7.10144927e-05 22.5679087,7.10144927e-05 C20.1363725,7.10144927e-05 18.1678507,1.96859275 18.1678507,4.3987087 C18.1678507,6.82882464 20.1363725,8.79947681 22.5679087,8.79947681" id="Fill-11" fill="#A24684"></path>
                        <g id="Group-15" transform="translate(11.362319, 10.099468)" fill="#A24684">
                            <path d="M18.2453275,0.942433333 L15.9529797,0.934621739 L13.4482986,9.2845058 L11.9648058,4.2375058 C14.5405014,0.591621739 11.652342,0.397042029 11.2241246,0.397042029 C10.7966174,0.397042029 7.90348696,0.463085507 10.4784725,4.10825942 L9.20589275,9.12685362 L6.8467913,0.900534783 L4.11841449,0.889882609 C2.15273333,0.880650725 0.290733333,2.44723043 0.706878261,4.36462174 L4.71493623,21.3456072 L4.71493623,33.5373754 C4.71493623,35.0116362 6.26305217,36.2174623 7.62084928,36.2174623 C8.97722609,36.2174623 10.3960957,35.0116362 10.3960957,33.5373754 L10.3960957,21.1517377 L11.1062406,21.1517377 L11.1062406,33.5373754 C11.1062406,35.0116362 12.5116174,36.2174623 13.8679942,36.2174623 C15.2265014,36.2174623 16.5558928,35.187042 16.5558928,33.7127812 L16.7298783,21.6531 L21.0596319,4.27798406 C21.4360087,2.34852029 20.2088783,0.950955072 18.2453275,0.942433333" id="Fill-13"></path>
                        </g>
                    </g>
                    <g id="Group-14" transform="translate(24.000000, 29.000000)">
                        <ellipse id="Oval-2" fill="#FFFFFF" cx="11.7536232" cy="11.5652174" rx="11" ry="11"></ellipse>
                        <g id="cancel-copy-3" transform="translate(2.594203, 2.405797)" fill="#A8407F">
                            <path d="M9,0 C4.05,0 0,4.05 0,9 C0,13.95 4.05,18 9,18 C13.95,18 18,13.95 18,9 C18,4.05 13.95,0 9,0 L9,0 Z M8.12845591,12.7774667 C7.29856461,13.508741 6.17523968,13.3323707 5.61725559,12.3798045 L3.74218806,9.17877045 C3.45382639,8.68961535 3.61780769,8.06102036 4.10975159,7.77210093 C4.59667565,7.49154789 5.22527063,7.65050936 5.5136323,8.14133774 L6.63205687,10.0503463 C6.91077049,10.526075 7.46755107,10.620024 7.88584772,10.2512055 L12.6914396,6.01404292 C13.1164523,5.64257508 13.7667999,5.68273376 14.1438454,6.106631 C14.5186598,6.53275928 14.4773856,7.18087584 14.0512573,7.55847904 L8.12845591,12.7774667 Z" id="Shape"></path>
                        </g>
                    </g>
                </g>
            </g>
        </g>
    </g>
</svg>