<?xml version="1.0" encoding="UTF-8"?>
<svg width="58px" height="50px" viewBox="0 0 58 50" version="1.1" xmlns="http://www.w3.org/2000/svg" xmlns:xlink="http://www.w3.org/1999/xlink">
    <!-- Generator: Sketch 43.2 (39069) - http://www.bohemiancoding.com/sketch -->
    <title>Page 1</title>
    <desc>Created with Sketch.</desc>
    <defs>
        <polygon id="path-1" points="21.61555 0.710833333 0.825078383 0.710833333 0.825078383 29.4775 21.61555 29.4775 21.61555 0.710833333"></polygon>
        <polygon id="path-3" points="20.7940798 0.710833333 0.00023699757 0.710833333 0.00023699757 29.4775 20.7940798 29.4775 20.7940798 0.710833333"></polygon>
    </defs>
    <g id="Jobs" stroke="none" stroke-width="1" fill="none" fill-rule="evenodd">
        <g id="Blank-Screen---Live-Feed---Desktop" transform="translate(-611.000000, -386.000000)">
            <g id="Page-1" transform="translate(611.000000, 386.000000)">
                <path d="M42.3763333,26.0425 C37.1471667,26.0425 32.7146667,29.5158333 31.2596667,34.2766667 C30.1513333,33.7033333 29.0038333,33.4341667 27.858,33.5183333 C27.1655,33.5641667 26.4971667,33.7333333 25.8521667,34.0083333 C24.3138333,29.3875 19.958,26.0425 14.8271667,26.0425 C8.418,26.0425 3.203,31.2575 3.203,37.6666667 C3.203,44.075 8.418,49.2891667 14.8271667,49.2891667 C21.2371667,49.2891667 26.4505,44.075 26.4505,37.6666667 C26.4505,37.6525 26.4488333,37.6375 26.4488333,37.6225 C26.9888333,37.2216667 27.538,36.995 28.088,36.9575 C28.9405,36.905 29.8455,37.2833333 30.7746667,38.09 C31.0005,44.3016667 36.1096667,49.2891667 42.3763333,49.2891667 C48.7855,49.2891667 54.0005,44.075 54.0005,37.6666667 C54.0005,31.2575 48.7855,26.0425 42.3763333,26.0425 M14.8271667,45.8416667 C10.3188333,45.8416667 6.65216667,42.1733333 6.65216667,37.6666667 C6.65216667,33.1575 10.3188333,29.4908333 14.8271667,29.4908333 C19.3346667,29.4908333 23.0013333,33.1575 23.0013333,37.6666667 C23.0013333,42.1733333 19.3346667,45.8416667 14.8271667,45.8416667 M42.3763333,45.8416667 C37.8696667,45.8416667 34.2021667,42.1733333 34.2021667,37.6666667 C34.2021667,33.1575 37.8696667,29.4908333 42.3763333,29.4908333 C46.8846667,29.4908333 50.5521667,33.1575 50.5521667,37.6666667 C50.5521667,42.1733333 46.8846667,45.8416667 42.3763333,45.8416667" id="Fill-1" fill="#6DA3D7"></path>
                <g id="Group-5" transform="translate(35.833333, 0.122917)">
                    <mask id="mask-2" fill="white">
                        <use xlink:href="#path-1"></use>
                    </mask>
                    <g id="Clip-4"></g>
                    <path d="M19.9511667,29.4775 C19.3753333,29.4775 18.8161667,29.1791667 18.5061667,28.6441667 L4.652,4.64 C4.54283333,4.43166667 4.34533333,4.16833333 4.21116667,4.04583333 C3.78283333,4.07083333 3.327,4.235 3.172,4.30333333 C2.33283333,4.6725 1.35033333,4.30166667 0.973666667,3.46666667 C0.597,2.63166667 0.960333333,1.65166667 1.79366667,1.27 C1.92616667,1.2075 3.13616667,0.669166667 4.46283333,0.7125 C6.272,0.765833333 7.3495,2.6075 7.60283333,3.09416667 L21.392,26.9791667 C21.852,27.775 21.5795,28.7941667 20.782,29.2541667 C20.5195,29.4058333 20.2328333,29.4775 19.9511667,29.4775" id="Fill-3" fill="#A8417F" mask="url(#mask-2)"></path>
                </g>
                <g id="Group-8" transform="translate(0.000000, 0.122917)">
                    <mask id="mask-4" fill="white">
                        <use xlink:href="#path-3"></use>
                    </mask>
                    <g id="Clip-7"></g>
                    <path d="M1.66425,29.4775 C1.38175,29.4775 1.09508333,29.4058333 0.833416667,29.2541667 C0.0359166667,28.7941667 -0.23575,27.775 0.223416667,26.9791667 L14.0125833,3.09416667 C14.2659167,2.6075 15.3450833,0.765833333 17.1534167,0.7125 C18.4834167,0.669166667 19.68925,1.20916667 19.8225833,1.27 C20.6584167,1.65333333 21.0250833,2.64333333 20.6425833,3.47916667 C20.2584167,4.315 19.2709167,4.6825 18.4325833,4.29833333 C18.28675,4.23416667 17.83175,4.07083333 17.4050833,4.04583333 C17.27175,4.17 17.07175,4.43333333 16.95925,4.65 L16.91925,4.725 L3.10841667,28.6441667 C2.80091667,29.1791667 2.24008333,29.4775 1.66425,29.4775" id="Fill-6" fill="#A8417F" mask="url(#mask-4)"></path>
                </g>
            </g>
        </g>
    </g>
</svg>