<?xml version="1.0" encoding="UTF-8"?>
<svg width="18px" height="18px" viewBox="0 0 18 18" version="1.1" xmlns="http://www.w3.org/2000/svg" xmlns:xlink="http://www.w3.org/1999/xlink">
    <!-- Generator: Sketch 43.1 (39012) - http://www.bohemiancoding.com/sketch -->
    <title>Shape Copy 5</title>
    <desc>Created with Sketch.</desc>
    <defs></defs>
    <g id="Header" stroke="none" stroke-width="1" fill="none" fill-rule="evenodd">
        <g id="CREATE-A-JOB-2---DESKTOP-1280-" transform="translate(-609.000000, -2093.000000)" fill="#939598">
            <g id="Group-19" transform="translate(573.000000, 2093.000000)">
                <polygon id="Shape-Copy-5" points="50.4 12.36 54 9 50.4 5.64 50.4 7.8 46.18 7.8 46.18 3.6 48.34 3.6 45 0 41.64 3.6 43.8 3.6 43.8 7.82 39.6 7.82 39.6 5.64 36 9 39.6 12.36 39.6 10.18 43.82 10.18 43.82 14.4 41.64 14.4 45 18 48.36 14.4 46.18 14.4 46.18 10.18 50.4 10.18"></polygon>
            </g>
        </g>
    </g>
</svg>