<svg width="35px" height="35px" viewBox="0 0 35 35" version="1.1"  xmlns="http://www.w3.org/2000/svg">
    <defs>
        <style>
            .cls-1 {fill: #a8407f;}

            .cls-1,
            .cls-2,
            .cls-3 {
                fill-rule: evenodd;
            }

            .cls-2 {
                fill: #fff;
            }

            .cls-3 {
                fill: #6da3d7;
            }
        </style>
    </defs>
    <title>Asset 1</title>
    <g id="Layer_2" data-name="Layer 2">
        <g id="Layer_1-2" data-name="Layer 1">
            <path class="cls-1" d="M48,48H16.12v-.09c.26-.29.3-.68.52-1s.46-.71.66-1c.08-.13,0-.24.09-.37,1-1.68,1.89-3.56,2.91-5.25.08-.13,0-.24.09-.37.2-.33.46-.71.66-1,.08-.13,0-.24.09-.37C22.73,35.85,24,33,25.56,30.38c.08-.13,0-.24.09-.37.2-.33.46-.71.66-1,.08-.13,0-.24.09-.37.76-1.23,1.41-2.61,2.16-3.84.08-.13,0-.24.09-.37.2-.33.46-.71.66-1,.08-.13,0-.24.09-.37.94-1.53,1.83-3.2,2.63-4.83h.09a2.5,2.5,0,0,0,.38.7c.35.66.69,1.3,1,1.92.84,1.52,1.56,3.09,2.44,4.55.08.13,0,.24.09.38.48.78.94,1.66,1.41,2.44.08.13,0,.24.09.38,1.87,3,3.31,6.42,5.17,9.47.08.13,0,.24.09.38.48.78.94,1.66,1.41,2.44.08.13,0,.24.09.38.93,1.51,1.67,3.14,2.54,4.73.09.16.28.36.38.52v.19h.09c.14.24.15.46.28.7S48,47.68,48,48Z"
            />
            <path class="cls-2" d="M31.61,26c-.13.14-.35.08-.52.19a2.63,2.63,0,0,0-1,1.27v9.09c0,1.27-.16,2.07.47,2.77a3.58,3.58,0,0,0,.28.38,2.48,2.48,0,0,0,1.69.38A2.42,2.42,0,0,0,34,38.77a8.61,8.61,0,0,0,.09-2.58V30.52c0-1.39.19-3.15-.47-3.89A2.42,2.42,0,0,0,31.61,26Z"
            />
            <path class="cls-2" d="M31.47,42v.09c-.86,0-1.41,1-1.41,2v.52a2.12,2.12,0,0,0,1.22,1.27,1.81,1.81,0,0,0,1.22.19c.85-.31,2-1.24,1.5-2.53-.07-.18,0-.31-.09-.47C33.45,42.25,32.79,42,31.47,42Z"
            />
            <path class="cls-3" d="M15.83,0a8.13,8.13,0,0,1,7.37,4.41,6.8,6.8,0,0,1,.28.84,8.13,8.13,0,0,1,.09,5.44,9,9,0,0,1-4.23,4.59,11.22,11.22,0,0,1-2.35.66h-.75a6.52,6.52,0,0,1-3.1-.56c-.19-.1-.47-.08-.66-.19a8.65,8.65,0,0,1-.94-.66l-.28-.09a10.92,10.92,0,0,1-2.44-2.91A9.93,9.93,0,0,1,8.37,10a5.76,5.76,0,0,1-.19-3.09V6.42c.15-.43.31-.93.47-1.31V4.88A9.31,9.31,0,0,1,13.06.56h.23c.44-.18,1-.3,1.5-.47S15.59.19,15.83,0Z"
            />
            <path class="cls-3" d="M0,39.94V30.7c0-1.91-.09-4,.47-5.39a8.94,8.94,0,0,1,4.41-4.69h.23c.38-.16.89-.32,1.31-.47H7a4.81,4.81,0,0,1,1.27-.09H23.16a8,8,0,0,1,3.71.56c.38.21,1.08.18,1.13.7-.39.35-.47,1-.75,1.45-.48.77-.94,1.66-1.41,2.44-.08.13,0,.24-.09.38-1.87,3-3.31,6.43-5.17,9.47-.08.13,0,.24-.09.38-.58,1-1.16,2-1.69,3a15.24,15.24,0,0,1-.75,1.5Z"
            />
        </g>
    </g>
</svg>