<svg xmlns="http://www.w3.org/2000/svg" xmlns:xlink="http://www.w3.org/1999/xlink" preserveAspectRatio="xMidYMid" width="36" height="60" viewBox="0 0 36 60">
  <defs>
    <style>
      .cls-1 {
        fill: #6da3d7;
        fill-rule: evenodd;
      }
    </style>
  </defs>
  <path d="M36.000,54.960 L10.360,29.999 L36.000,5.039 L30.820,-0.001 L0.000,29.999 L30.820,60.000 L36.000,54.960 Z" class="cls-1"/>
</svg>
