<?xml version="1.0" encoding="UTF-8" standalone="no"?>
<svg width="14px" height="18px" viewBox="0 0 14 18" version="1.1" xmlns="http://www.w3.org/2000/svg" xmlns:xlink="http://www.w3.org/1999/xlink">
    <!-- Generator: Sketch 41.2 (35397) - http://www.bohemiancoding.com/sketch -->
    <title>Shape</title>
    <desc>Created with Sketch.</desc>
    <defs></defs>
    <g id="Job-Detail" stroke="none" stroke-width="1" fill="none" fill-rule="evenodd">
        <path d="M11,14 L11,7 L9,7 L9,14 L6,14 L10,18 L14,14 L11,14 L11,14 Z M4,0 L0,4 L3,4 L3,11 L5,11 L5,4 L8,4 L4,0 L4,0 Z" id="Shape" fill="#AEAEAE"></path>
    </g>
</svg>