<?xml version="1.0" encoding="UTF-8" standalone="no"?>
<svg width="25px" height="26px" viewBox="0 0 25 26" version="1.1" xmlns="http://www.w3.org/2000/svg" xmlns:xlink="http://www.w3.org/1999/xlink">
    <title>Action Pending</title>
    <desc>Created with Sketch.</desc>
    <defs></defs>
    <g id="Symbols" stroke="none" stroke-width="1" fill="none" fill-rule="evenodd">
        <g id="rhs-/-open" transform="translate(-14.000000, -715.000000)">
            <g id="Group-6">
                <g id="Group-4" transform="translate(14.000000, 715.000000)">
                    <g id="content-paste-copy" fill="#AEAEAE">
                        <path d="M13.6296296,1.7037037 L10.0518519,1.7037037 C9.71111111,0.681481481 8.77407407,0 7.66666667,0 C6.55925926,0 5.62222222,0.681481481 5.28148148,1.7037037 L1.7037037,1.7037037 C0.766666667,1.7037037 0,2.47037037 0,3.40740741 L0,17.037037 C0,17.9740741 0.766666667,18.7407407 1.7037037,18.7407407 L13.6296296,18.7407407 C14.5666667,18.7407407 15.3333333,17.9740741 15.3333333,17.037037 L15.3333333,3.40740741 C15.3333333,2.47037037 14.5666667,1.7037037 13.6296296,1.7037037 L13.6296296,1.7037037 Z M7.66666667,1.7037037 C8.17777778,1.7037037 8.51851852,2.04444444 8.51851852,2.55555556 C8.51851852,3.06666667 8.17777778,3.40740741 7.66666667,3.40740741 C7.15555556,3.40740741 6.81481481,3.06666667 6.81481481,2.55555556 C6.81481481,2.04444444 7.15555556,1.7037037 7.66666667,1.7037037 L7.66666667,1.7037037 Z" id="Shape"></path>
                    </g>
                    <g id="Group-2" transform="translate(7.000000, 8.000000)">
                        <circle id="Oval" fill="#494949" cx="9" cy="9" r="9"></circle>
                        <path d="M9.17348928,2 C5.22807018,2 2,5.22807018 2,9.17348928 C2,13.1189084 5.22807018,16.3469786 9.17348928,16.3469786 C13.1189084,16.3469786 16.3469786,13.1189084 16.3469786,9.17348928 C16.3469786,5.22807018 13.1189084,2 9.17348928,2 L9.17348928,2 Z M9.17348928,14.9122807 C6.017154,14.9122807 3.43469786,12.3298246 3.43469786,9.17348928 C3.43469786,6.017154 6.017154,3.43469786 9.17348928,3.43469786 C12.3298246,3.43469786 14.9122807,6.017154 14.9122807,9.17348928 C14.9122807,12.3298246 12.3298246,14.9122807 9.17348928,14.9122807 L9.17348928,14.9122807 Z" id="ShapeShapeActionPending" fill="#AEAEAE"></path>
                        <polygon id="ShapeActionPending" fill="#AEAEAE" points="9.53216374 5.58674464 8.45614035 5.58674464 8.45614035 9.89083821 12.1863548 12.1863548 12.7602339 11.2538012 9.53216374 9.31695906"></polygon>
                    </g>
                </g>
            </g>
        </g>
    </g>
</svg>