<?xml version="1.0" encoding="UTF-8"?>
<svg width="20px" height="18px" viewBox="0 0 20 18" version="1.1" xmlns="http://www.w3.org/2000/svg" xmlns:xlink="http://www.w3.org/1999/xlink">
    <!-- Generator: Sketch 44.1 (41455) - http://www.bohemiancoding.com/sketch -->
    <title>Page 1</title>
    <desc>Created with Sketch.</desc>
    <defs>
        <polygon id="path-1" points="15.9133846 17.7691385 15.9133846 0.122676923 0.219369231 0.122676923 0.219369231 17.7691385 15.9133846 17.7691385"></polygon>
    </defs>
    <g id="Dashboard" stroke="none" stroke-width="1" fill="none" fill-rule="evenodd">
        <g id="Page-1" transform="translate(2.000000, 0.000000)">
            <g id="Group-3" transform="translate(2.076923, 0.108162)">
                <mask id="mask-2" fill="white">
                    <use xlink:href="#path-1"></use>
                </mask>
                <g id="Clip-2"></g>
                <path d="M3.95598462,15.6100615 L9.71321538,16.6081385 L9.71321538,13.6554462 L13.1276769,13.4507538 L13.0935231,9.70698462 L14.7419077,9.70698462 C14.6073692,9.25236923 14.0214462,7.27098462 13.5407538,5.62029231 C13.2419077,4.59198462 12.5348308,3.54567692 11.6006769,2.74929231 C10.8093692,2.07406154 9.47944615,1.26913846 7.63721538,1.26913846 C6.48475385,1.26913846 5.27690769,1.64021538 4.23567692,2.31383077 C3.89944615,2.53144615 3.57983077,2.78044615 3.28606154,3.0546 C2.06575385,4.19183077 1.36583077,5.67936923 1.36583077,7.13575385 C1.36583077,7.69329231 1.43713846,8.25452308 1.57744615,8.80398462 C1.78767692,9.6246 2.14744615,10.4119846 2.64752308,11.1437538 C3.09590769,11.8007538 3.54313846,12.2472923 3.76998462,12.4549846 L3.95598462,12.6252923 L3.95598462,15.6100615 Z M9.78798462,17.7691385 C9.72729231,17.7691385 9.66544615,17.7638308 9.60475385,17.7532154 L3.69729231,16.7292923 C3.18244615,16.6395231 2.80929231,16.1957538 2.80929231,15.6735231 L2.80929231,13.1235231 C2.52544615,12.8438308 2.11144615,12.3924462 1.70067692,11.7903692 C1.12490769,10.9480615 0.709984615,10.0388308 0.466523077,9.08806154 C0.302446154,8.44583077 0.219369231,7.78883077 0.219369231,7.13575385 C0.219369231,5.36229231 1.05198462,3.56898462 2.50398462,2.21575385 C2.84713846,1.89590769 3.22029231,1.60490769 3.61283077,1.35106154 C4.83706154,0.558830769 6.26644615,0.122676923 7.63721538,0.122676923 C9.8286,0.122676923 11.4068308,1.07644615 12.3449077,1.87675385 C13.4447538,2.8146 14.2822154,4.06236923 14.6419846,5.29998462 C15.1900615,7.18213846 15.8650615,9.46098462 15.8696769,9.47621538 C15.9654462,9.80113846 15.9022154,10.1539846 15.7012154,10.4230615 C15.5002154,10.6926 15.1792154,10.8536769 14.8427538,10.8536769 L14.2508308,10.8536769 L14.2750615,13.5116769 C14.2803692,14.0830615 13.8377538,14.5572923 13.2672923,14.5912154 L10.8599077,14.7354462 L10.8599077,16.6983692 C10.8599077,17.0154462 10.7207538,17.3142923 10.4779846,17.5182923 C10.2848308,17.6802923 10.0397538,17.7691385 9.78798462,17.7691385 L9.78798462,17.7691385 Z" id="Fill-1" fill="#FFFFFF" mask="url(#mask-2)"></path>
            </g>
            <path d="M13.5987462,6.65679231 C13.6527462,6.49617692 13.6829769,6.32448462 13.6829769,6.14563846 C13.6829769,5.25879231 12.9641308,4.53971538 12.0768231,4.53971538 C11.8924385,4.53971538 11.7165923,4.57225385 11.5520538,4.62902308 C11.2536692,3.82271538 10.4799,3.24671538 9.56974615,3.24671538 C8.40136154,3.24671538 7.45451538,4.19402308 7.45451538,5.36217692 C7.45451538,5.56640769 7.48474615,5.76325385 7.53897692,5.95017692 C7.53666923,5.95017692 7.53459231,5.94994615 7.53274615,5.94994615 C6.64543846,5.94994615 5.92659231,6.66879231 5.92659231,7.55586923 C5.92659231,8.37671538 6.54228462,9.05217692 7.33682308,9.14886923 L7.33682308,9.16225385 L7.53274615,9.16225385 L13.3695923,9.16225385 L13.3695923,9.14563846 C13.4335154,9.15556154 13.4985923,9.16225385 13.5655154,9.16225385 C14.2575923,9.16225385 14.8190538,8.60079231 14.8190538,7.90871538 C14.8190538,7.22725385 14.2751308,6.67456154 13.5987462,6.65679231" id="Fill-4" fill="#FFFFFF"></path>
            <path d="M1.3533,3.6 L6.04945385,3.6" id="Stroke-10" stroke="#820052" stroke-width="3" stroke-linecap="round"></path>
            <path d="M1.3533,7.92 L4.47837692,7.92" id="Stroke-12" stroke="#820052" stroke-width="3" stroke-linecap="round"></path>
            <path d="M0,5.76 L4.23392308,5.76" id="Stroke-14" stroke="#820052" stroke-width="3" stroke-linecap="round"></path>
            <path d="M1.3533,3.6 L5.81799231,3.6" id="Stroke-16" stroke="#FFFFFF" stroke-linecap="round"></path>
            <path d="M1.3533,7.92 L4.47837692,7.92" id="Stroke-18" stroke="#FFFFFF" stroke-linecap="round"></path>
            <path d="M0.129346154,5.76 L4.46457692,5.76" id="Stroke-20" stroke="#FFFFFF" stroke-linecap="round"></path>
        </g>
    </g>
</svg>