<?xml version="1.0" encoding="UTF-8"?>
<svg width="20px" height="17px" viewBox="0 0 20 17" version="1.1" xmlns="http://www.w3.org/2000/svg" xmlns:xlink="http://www.w3.org/1999/xlink">
    <!-- Generator: Sketch 44.1 (41455) - http://www.bohemiancoding.com/sketch -->
    <title>Group-88</title>
    <desc>Created with Sketch.</desc>
    <defs>
        <path d="M18.3706888,0.27856766 C18.2877088,0.17609575 18.1495945,0.15437616 18.0480508,0.15437616 C17.987533,0.15437616 17.9218173,0.162172936 17.8536883,0.1768383 L14.0941573,0.991601368 C13.8559844,1.04357987 13.7492428,1.13732682 13.7301221,1.2015574 C13.7104445,1.26615926 13.7503566,1.40278847 13.9229995,1.57468881 L14.8250122,2.47558769 L13.5262921,3.77467904 L9.64386906,7.6571021 L9.14784563,8.15275428 L7.36980947,6.37453249 C7.2131314,6.21804005 6.95899364,6.21804005 6.80287249,6.37453249 L6.65083538,6.52656961 L6.0660772,7.11132778 L1.25138251,11.9260225 L0.117322912,13.0600821 C0.0256179775,13.1519726 -0.0120664387,13.2770923 0.00389838787,13.3962716 C-0.00965315094,13.4707123 0.0120664387,13.5501651 0.0701709821,13.6075271 L0.740136787,14.2780498 C0.764084027,14.3018114 0.792115291,14.3192614 0.821446018,14.3311422 L0.85411822,14.3638144 C1.01061065,14.5199355 1.2641915,14.5199355 1.42068393,14.3638144 L6.8197655,8.9649184 L7.0859697,8.69852856 L8.05648266,9.66959844 C8.06854911,9.68147923 8.08117245,9.69224622 8.09435272,9.70245629 C8.10437712,9.71545089 8.11495849,9.72825991 8.12721057,9.74014069 L8.86437712,10.4771216 C9.0210552,10.6336141 9.27445043,10.6336141 9.43112847,10.4771216 L10.9474157,8.96102004 L14.8294675,5.07878261 L16.1296727,3.77876307 L17.0290865,4.67761995 C17.212682,4.8601016 17.3359453,4.87421007 17.3691744,4.87421007 C17.4903957,4.87421007 17.5759746,4.6759492 17.6132877,4.50571959 L18.4293503,0.752314608 C18.4737176,0.548670248 18.4529262,0.380482659 18.3706888,0.27856766" id="path-1"></path>
        <filter x="-2.7%" y="-3.5%" width="110.8%" height="114.0%" filterUnits="objectBoundingBox" id="filter-2">
            <feOffset dx="1" dy="1" in="SourceAlpha" result="shadowOffsetOuter1"></feOffset>
            <feColorMatrix values="0 0 0 0 0.505882353   0 0 0 0 0   0 0 0 0 0.321568627  0 0 0 1 0" type="matrix" in="shadowOffsetOuter1"></feColorMatrix>
        </filter>
    </defs>
    <g id="Dashboard" stroke="none" stroke-width="1" fill="none" fill-rule="evenodd">
        <g id="Group-88">
            <path d="M15.729797,15.1022804 C15.7311141,15.1188022 15.7319043,15.1358808 15.7319043,15.1529595 L15.7319043,15.9545422 C15.7319043,16.1726664 15.6070524,16.3492076 15.4523046,16.3492076 L14.0115039,16.3492076 C13.9823981,16.3492076 13.9544777,16.3430816 13.9281376,16.3313864 C13.8144803,16.2816356 13.7319043,16.1318261 13.7319043,15.9545422 L13.7319043,15.2706536 L13.7319043,7.90251492 L13.7453377,7.8832086 C13.7483668,7.87931021 13.7512642,7.87466929 13.7540299,7.87058526 C13.7589028,7.8633454 13.7637757,7.85610553 13.7681218,7.84886567 L13.7681218,7.84942256 L13.7681218,7.84886567 C13.7664097,7.85183584 13.7643025,7.85517734 13.7624587,7.85833318 C13.7612734,7.85963263 13.7602198,7.86186028 13.7591662,7.8633454 C13.7697022,7.84830874 13.8168509,7.78185052 13.8730869,7.70239766 L15.1090938,5.96000389 L15.1109376,5.96260284 L15.7133345,5.11331117 L15.7154417,5.110341 L15.7182074,5.10662824 L15.7254509,11.3561153 L15.729797,15.1022804 Z" id="Fill-87" fill="#FFFFFF"></path>
            <path d="M10.0688491,11.5356454 L10.0688491,15.152978 L10.0688491,15.9545608 C10.0688491,16.1726849 10.1943181,16.3492262 10.3488833,16.3492262 L11.7890781,16.3492262 C11.9436433,16.3492262 12.0688491,16.1726849 12.0688491,15.9545608 L12.0688491,15.152978 L12.0688491,8.74532778 L10.2015592,11.3780391 C10.1600873,11.4365149 10.1158506,11.4888647 10.0688491,11.5356454" id="Fill-89" fill="#FFFFFF"></path>
            <path d="M6.88702907,10.2465227 L6.4069448,10.9242853 L6.4069448,15.1529223 L6.4069448,15.9546908 C6.4069448,16.1722579 6.53190364,16.3487992 6.6864892,16.3487992 L8.12687371,16.3487992 C8.2817226,16.3487992 8.4069448,16.1722579 8.4069448,15.9546908 L8.4069448,15.1529223 L8.4069448,15.1523654 L8.4069448,11.8003087 C8.13582755,11.7977098 7.8815646,11.6482716 7.6899786,11.3783546 L6.88702907,10.2465227 Z" id="Fill-91" fill="#FFFFFF"></path>
            <path d="M3.36164425,13.7151597 L3.30713111,13.7879297 C3.29936233,13.7981397 3.26552205,13.8449204 3.20890213,13.9249302 L2.74422374,14.5804162 L2.74422374,15.1529223 L2.74422374,15.9545051 C2.74422374,16.1726292 2.8691826,16.3491705 3.02376815,16.3491705 L4.46415265,16.3491705 C4.61900154,16.3491705 4.74422374,16.1726292 4.74422374,15.9545051 L4.74422374,15.1529223 L4.74422374,11.766894 L3.45263115,13.5878124 C3.41721079,13.6379346 3.38508226,13.6826732 3.36164425,13.7151597" id="Fill-93" fill="#FFFFFF"></path>
            <g id="Fill-95">
                <use fill="black" fill-opacity="1" filter="url(#filter-2)" xlink:href="#path-1"></use>
                <use fill="#FFFFFF" fill-rule="evenodd" xlink:href="#path-1"></use>
            </g>
        </g>
    </g>
</svg>