<?xml version="1.0" encoding="UTF-8" standalone="no"?>
<svg width="20px" height="19px" viewBox="0 0 20 19" version="1.1" xmlns="http://www.w3.org/2000/svg" xmlns:xlink="http://www.w3.org/1999/xlink">
    <!-- Generator: Sketch 41.2 (35397) - http://www.bohemiancoding.com/sketch -->
    <title>Shape</title>
    <desc>Created with Sketch.</desc>
    <defs></defs>
    <g id="Jobs" stroke="none" stroke-width="1" fill="none" fill-rule="evenodd">
        <g id="JOBS-LANDING--PAGE---PL,HM,R----DESKTOP-1280" transform="translate(-607.000000, -672.000000)" fill="#FFFFFF">
            <g id="Group-8" transform="translate(358.000000, 452.000000)">
                <g id="thumb-down-copy-10" transform="translate(16.000000, 220.260000)">
                    <path d="M245.6,0 L237.5,0 C236.78,0 236.15,0.4485 235.88,1.0764 L233.18,7.4451 C233.09,7.6245 233,7.8039 233,8.073 L233,9.7773 L233,9.867 C233,10.8537 233.81,11.661 234.8,11.661 L240.47,11.661 L239.57,15.7872 L239.57,16.0563 C239.57,16.4151 239.75,16.7739 239.93,17.043 L240.92,17.94 L246.86,12.0198 C247.22,11.661 247.4,11.2125 247.4,10.764 L247.4,1.794 C247.4,0.8073 246.59,0 245.6,0 L245.6,0 Z M249.2,0 L249.2,10.764 L252.8,10.764 L252.8,0 L249.2,0 L249.2,0 Z" id="Shape" transform="translate(242.900000, 8.970000) scale(-1, -1) translate(-242.900000, -8.970000) "></path>
                </g>
            </g>
        </g>
    </g>
</svg>