<?xml version="1.0" encoding="UTF-8"?>
<svg width="35px" height="35px" viewBox="0 0 35 35" version="1.1" xmlns="http://www.w3.org/2000/svg" xmlns:xlink="http://www.w3.org/1999/xlink">
    <!-- Generator: Sketch 43.2 (39069) - http://www.bohemiancoding.com/sketch -->
    <title>Group 29</title>
    <desc>Created with Sketch.</desc>
    <defs>
        <circle id="path-1" cx="17.5" cy="17.5" r="17.5"></circle>
    </defs>
    <g id="Jobs" stroke="none" stroke-width="1" fill="none" fill-rule="evenodd">
        <g id="Blank-Screen---Candidates-Tagged-Candidates---Desktop" transform="translate(-481.000000, -669.000000)">
            <g id="Group-29" transform="translate(481.000000, 669.000000)">
                <mask id="mask-2" fill="white">
                    <use xlink:href="#path-1"></use>
                </mask>
                <use id="Mask" fill="#F5F5F5" xlink:href="#path-1"></use>
                <path d="M5.15874859,35 C4.82271937,35 4.55,34.7272806 4.55,34.3912514 C4.55,30.7241499 9.65131316,27.9275589 13.2380598,27.7096269 L14.3216323,24.4589095 C14.4275546,24.1411427 14.7696713,23.9694756 15.0910905,24.0741804 C15.4100748,24.1837551 15.5817419,24.5258718 15.4758196,24.8472911 L14.2583225,28.4997826 C14.1755327,28.7469345 13.9429907,28.9149491 13.6812288,28.9149491 C10.6289634,28.9149491 5.76749717,31.4242108 5.76749717,34.3936864 C5.76749717,34.7272806 5.49477781,35 5.15874859,35 Z" id="Combined-Shape" fill="#939598" mask="url(#mask-2)"></path>
                <path d="M29.5086921,35 C29.1738803,35 28.8999435,34.7272806 28.8999435,34.3912514 C28.8999435,31.4217758 24.0384773,28.9125141 20.9862118,28.9125141 C20.72445,28.9125141 20.491908,28.7444995 20.4079007,28.4961301 L19.1904035,24.8436386 C19.0856988,24.5246543 19.2573659,24.1801026 19.5751326,24.0729629 C19.8965519,23.9646056 20.2386686,24.1411427 20.3458083,24.455257 L21.4293808,27.7059744 C25.0136925,27.9275589 30.1174406,30.7241499 30.1174406,34.3875989 C30.1174406,34.7272806 29.8435038,35 29.5086921,35 L29.5086921,35 Z" id="Shape" fill="#939598" mask="url(#mask-2)"></path>
                <path d="M17.3337203,25.2600226 C10.2064919,25.2600226 7.65948778,21.2751544 7.0495217,20.0540047 C6.95699191,19.8713801 6.96551439,19.6473606 7.07387164,19.4708235 C7.6509653,18.5065658 9.2008392,15.7842421 9.43825115,14.7737195 C10.6046134,9.83311592 13.4827768,7 17.3361553,7 C21.1895339,7 24.0676972,9.83311592 25.2340595,14.7737195 C25.4714714,15.7854596 27.0213453,18.5077833 27.5972215,19.4708235 C27.7043612,19.6485781 27.7116662,19.8701626 27.6215714,20.0540047 C27.0079529,21.2751544 24.4609488,25.2600226 17.3337203,25.2600226 Z M8.29258631,19.7958953 C9.03891208,21.0900948 11.4008566,24.0425254 17.3337203,24.0425254 C23.2665841,24.0425254 25.6285286,21.0864423 26.3748543,19.7958953 C25.8306331,18.8681624 24.3270241,16.242021 24.0469997,15.0525263 C23.5612184,12.9973911 21.9358596,8.21627968 17.3337203,8.21627968 C12.731581,8.21627968 11.1062223,12.9973911 10.6216584,15.0525263 C10.3404166,16.242021 8.83680755,18.8681624 8.29258631,19.7958953 L8.29258631,19.7958953 Z" id="Combined-Shape" fill="#939598" mask="url(#mask-2)"></path>
            </g>
        </g>
    </g>
</svg>