<?xml version="1.0" encoding="UTF-8" standalone="no"?>
<svg width="38px" height="28px" viewBox="0 0 38 28" version="1.1" xmlns="http://www.w3.org/2000/svg" xmlns:xlink="http://www.w3.org/1999/xlink">
    <!-- Generator: Sketch 41.2 (35397) - http://www.bohemiancoding.com/sketch -->
    <title>Page 1 Copy</title>
    <desc>Created with Sketch.</desc>
    <defs></defs>
    <g id="Header" stroke="none" stroke-width="1" fill="none" fill-rule="evenodd">
        <g id="Page-1-Copy" transform="translate(-1.000000, 0.000000)">
            <g id="Group-3" transform="translate(0.000000, 0.481179)">
                <polygon id="Clip-2" points="0.644067797 0.166392558 37.6547797 0.166392558 37.6547797 27.1925581 0.644067797 27.1925581 0.644067797 0.166716145 37.6547956 0.166716145 37.6547956 27.1926391 0.64367578 27.1926391 0.64367578 0.166716145"></polygon>
                <path d="M4.89874117,0.440908041 C2.91887676,0.656506181 1.35443608,2.25827734 1.12385981,4.27376385 C0.944164898,5.83992572 0.973147949,21.3247927 1.12643608,22.7821843 C1.33382591,24.773068 2.91887676,26.3741918 4.93030049,26.5846104 C13.4139615,27.173135 25.588131,27.173135 34.1065717,26.5839629 C36.0832157,26.3741918 37.6740632,24.7750104 37.8846734,22.7549918 C38.0759615,21.0871815 38.0289446,5.76223269 37.8846734,4.24527641 C37.6753513,2.25504013 36.0851479,0.655858739 34.0763005,0.438965715 C25.588131,-0.146321726 13.4133174,-0.146969168 4.89874117,0.440908041" id="Fill-1" fill="#6DA3D7"></path>
            </g>
            <path d="M31.0329527,6.19029756 C31.1429145,7.32939954 31.1801897,20.3322736 31.0335739,21.583787 C30.8763969,23.0994671 29.6823484,24.3010198 28.1956897,24.4596448 C21.7961613,24.9024207 13.3284813,24.9024207 6.95318181,24.4608938 C5.44043047,24.3010198 4.251352,23.0994671 4.09355371,21.6043957 C3.98048564,20.5102583 3.95812053,7.38935228 4.0923112,6.2096573 C4.26874709,4.69709974 5.44043047,3.49367347 6.92957419,3.33130148 C13.3284813,2.88977456 21.7967826,2.88977456 28.1739458,3.33005247 C29.6823484,3.49367347 30.8788819,4.69272819 31.0329527,6.19029756 Z" id="Fill-4" fill="#FEFEFE"></path>
            <path d="M36.3911186,14.808355 C36.3911186,15.5522657 35.7895593,16.1576238 35.0508136,16.1576238 C34.3101356,16.1576238 33.7111525,15.5522657 33.7111525,14.808355 C33.7111525,14.0644443 34.3101356,13.4590861 35.0508136,13.4590861 C35.7895593,13.4590861 36.3911186,14.0637968 36.3911186,14.808355" id="Fill-6" fill="#FEFEFE"></path>
        </g>
    </g>
</svg>