<?xml version="1.0" encoding="UTF-8" standalone="no"?>
<svg width="64px" height="64px" viewBox="0 0 64 64" version="1.1" xmlns="http://www.w3.org/2000/svg" xmlns:xlink="http://www.w3.org/1999/xlink">
    <!-- Generator: Sketch 41.2 (35397) - http://www.bohemiancoding.com/sketch -->
    <title>Group 22</title>
    <desc>Created with Sketch.</desc>
    <defs></defs>
    <g id="Page-1" stroke="none" stroke-width="1" fill="none" fill-rule="evenodd">
        <g id="Group-22">
            <path d="M64,32 C64,49.67 49.673,64 32,64 C14.327,64 0,49.67 0,32 C0,14.33 14.327,0 32,0 C49.673,0 64,14.33 64,32" id="Fill-466" fill="#D5925C"></path>
            <path d="M35.066,24.08 C32.281,24.08 30.024,21.83 30.024,19.04 C30.024,16.26 32.281,14 35.066,14 C37.85,14 40.107,16.26 40.107,19.04 C40.107,21.83 37.85,24.08 35.066,24.08" id="Fill-467" fill="#AF7A51"></path>
            <path d="M18.502,53.95 C17.544,53.95 16.63,53.4 16.216,52.47 C15.655,51.2 16.224,49.73 17.486,49.17 C28.142,44.43 27.583,39.03 27.572,38.98 C27.451,38.37 27.561,37.75 27.866,37.23 C28.077,37.98 28.345,38.77 28.679,39.6 C29.148,40.77 30.275,41.49 31.465,41.49 C31.836,41.49 32.214,41.42 32.579,41.27 C34.108,40.66 34.857,38.93 34.26,37.4 C38.287,39.26 44.349,43.3 45.463,51.1 C45.658,52.46 44.708,53.73 43.341,53.93 C43.223,53.94 43.105,53.95 42.989,53.95 C41.764,53.95 40.691,53.05 40.513,51.8 C39.731,46.33 35.154,43.34 32.126,41.94 C31.162,45.19 28.193,49.88 19.516,53.74 C19.186,53.88 18.841,53.95 18.502,53.95" id="Fill-468" fill="#AF7A51"></path>
            <path d="M21.382,39.55 C20.001,39.55 18.882,38.43 18.882,37.05 C18.882,29.67 25.901,26.56 29.613,25.94 C29.752,25.92 29.89,25.9 30.028,25.9 C30.753,25.9 31.448,26.22 31.926,26.78 C32.092,26.97 35.348,30.65 39.734,30.65 C40.885,30.65 42.112,30.4 43.383,29.76 C43.742,29.58 44.123,29.5 44.499,29.5 C45.416,29.5 46.298,30.01 46.736,30.88 C47.354,32.12 46.854,33.62 45.619,34.24 C43.61,35.24 41.643,35.65 39.785,35.65 C37.393,35.65 35.182,34.97 33.294,34.02 C32.914,31.47 33.693,30.41 33.704,30.4 L33.586,30.53 L29.343,26.28 C29.059,26.57 27.386,28.39 27.204,32.03 C25.55,32.94 23.881,34.49 23.881,37.05 C23.881,38.43 22.762,39.55 21.382,39.55" id="Fill-469" fill="#AF7A51"></path>
            <path d="M34.26,37.4 C32.29,36.49 30.807,36.11 30.63,36.06 C30.429,36.01 30.225,35.99 30.023,35.99 C29.388,35.99 28.769,36.23 28.299,36.68 C28.127,36.84 27.982,37.03 27.866,37.23 C27.293,35.2 27.132,33.47 27.204,32.03 C27.929,31.63 28.652,31.36 29.23,31.18 C30.284,32.16 31.669,33.19 33.294,34.02 C33.431,34.93 33.72,36.05 34.25,37.37 C34.254,37.38 34.257,37.39 34.26,37.4" id="Fill-470" fill="#AF7A51"></path>
            <path d="M31.465,41.49 C30.275,41.49 29.148,40.77 28.679,39.6 C28.345,38.77 28.077,37.98 27.866,37.23 C27.982,37.03 28.127,36.84 28.299,36.68 C28.769,36.23 29.388,35.99 30.023,35.99 C30.225,35.99 30.429,36.01 30.63,36.06 C30.807,36.11 32.29,36.49 34.26,37.4 C34.857,38.93 34.108,40.66 32.579,41.27 C32.214,41.42 31.836,41.49 31.465,41.49" id="Fill-471" fill="#906747"></path>
            <path d="M33.294,34.02 C31.669,33.19 30.284,32.16 29.23,31.18 C28.652,31.36 27.929,31.63 27.204,32.03 C27.386,28.39 29.059,26.57 29.343,26.28 L33.586,30.53 L33.704,30.4 C33.693,30.41 32.914,31.47 33.294,34.02" id="Fill-472" fill="#906747"></path>
            <path d="M40.107,16.04 C40.107,18.83 37.85,21.08 35.065,21.08 C32.281,21.08 30.024,18.83 30.024,16.04 C30.024,13.26 32.281,11 35.065,11 C37.85,11 40.107,13.26 40.107,16.04" id="Fill-473" fill="#FFFFFF"></path>
            <path d="M19.516,50.74 C25.128,48.24 28.434,45.38 30.314,42.68 C32.2,39.98 32.58,37.52 32.572,36.15 C32.571,35.54 32.503,35.14 32.475,35 L30.024,35.49 L29.418,37.91 L29.691,36.82 L29.411,37.91 L29.418,37.91 L29.691,36.82 L29.411,37.91 C29.423,37.91 32.084,38.62 34.734,40.37 C36.061,41.24 37.379,42.37 38.414,43.75 C39.449,45.14 40.218,46.77 40.513,48.8 C40.708,50.17 41.974,51.12 43.341,50.93 C44.708,50.73 45.658,49.46 45.463,48.1 C45.042,45.13 43.85,42.63 42.345,40.66 C40.08,37.69 37.174,35.84 34.853,34.69 C32.526,33.54 30.751,33.09 30.63,33.06 C29.795,32.85 28.922,33.08 28.299,33.68 C27.676,34.27 27.404,35.13 27.573,35.98 L29.044,35.68 L27.561,35.91 L27.573,35.98 L29.044,35.68 L27.561,35.91 C27.563,35.93 27.572,36.02 27.572,36.15 C27.563,36.69 27.461,38.02 26.213,39.82 C24.959,41.61 22.48,43.94 17.485,46.17 C16.224,46.73 15.655,48.2 16.216,49.47 C16.777,50.73 18.254,51.3 19.516,50.74" id="Fill-474" fill="#FFFFFF"></path>
            <path d="M43.383,26.76 C42.051,27.43 40.863,27.66 39.742,27.66 C38.679,27.66 37.667,27.44 36.722,27.08 C35.307,26.55 34.062,25.7 33.199,24.98 C32.768,24.63 32.432,24.31 32.212,24.08 C32.103,23.97 32.023,23.89 31.974,23.83 L31.925,23.78 L31.868,23.83 L31.926,23.78 L31.925,23.78 L31.868,23.83 L31.926,23.78 C31.357,23.11 30.478,22.79 29.613,22.94 C29.445,22.97 27.052,23.36 24.443,24.87 C23.143,25.63 21.771,26.69 20.689,28.22 C19.606,29.73 18.872,31.74 18.881,34.05 C18.881,35.43 20.001,36.55 21.381,36.55 C22.762,36.55 23.881,35.43 23.881,34.05 C23.891,32.75 24.237,31.88 24.774,31.1 C25.572,29.95 26.981,29.07 28.251,28.55 C28.88,28.29 29.457,28.11 29.862,28 C30.064,27.95 30.223,27.91 30.324,27.89 L30.429,27.87 L30.445,27.87 L30.264,26.85 L30.435,27.87 L30.445,27.87 L30.264,26.85 L30.435,27.87 L30.024,25.4 L28.122,27.03 C28.217,27.13 29.357,28.47 31.339,29.84 C32.332,30.53 33.539,31.22 34.949,31.76 C36.357,32.29 37.974,32.66 39.742,32.66 C41.601,32.67 43.615,32.24 45.619,31.24 C46.853,30.62 47.354,29.12 46.737,27.88 C46.119,26.65 44.618,26.15 43.383,26.76" id="Fill-475" fill="#FFFFFF"></path>
            <path d="M29.343,23.28 C29.138,23.49 28.593,24.09 28.1,25.16 C27.606,26.22 27.181,27.75 27.184,29.67 C27.183,31.6 27.599,33.9 28.679,36.6 C29.294,38.14 31.04,38.89 32.578,38.27 C34.117,37.66 34.865,35.91 34.25,34.37 C33.409,32.27 33.185,30.73 33.184,29.67 C33.187,28.61 33.402,28 33.548,27.67 C33.622,27.51 33.682,27.43 33.699,27.4 L33.703,27.4 L32.553,26.49 L33.586,27.53 L33.703,27.4 L32.553,26.49 L33.586,27.53 C34.757,26.35 34.757,24.45 33.586,23.28 C32.414,22.11 30.515,22.11 29.343,23.28" id="Fill-476" fill="#FFFFFF"></path>
        </g>
    </g>
</svg>