<?xml version="1.0" encoding="UTF-8" standalone="no"?>
<svg width="64px" height="64px" viewBox="0 0 64 64" version="1.1" xmlns="http://www.w3.org/2000/svg" xmlns:xlink="http://www.w3.org/1999/xlink">
    <!-- Generator: Sketch 41.2 (35397) - http://www.bohemiancoding.com/sketch -->
    <title>Group 43</title>
    <desc>Created with Sketch.</desc>
    <defs></defs>
    <g id="Page-1" stroke="none" stroke-width="1" fill="none" fill-rule="evenodd">
        <g id="Group-43">
            <path d="M64,32 C64,49.67 49.673,64 32,64 C14.327,64 0,49.67 0,32 C0,14.33 14.327,0 32,0 C49.673,0 64,14.33 64,32" id="Fill-187" fill="#DEDFCB"></path>
            <path d="M18,52 L16,52 C14.895,52 14,51.1 14,50 L14,47.66 L14,48 C14,49.1 14.895,50 16,50 L18,50 C19.104,50 20,49.1 20,48 L20,50 C20,51.1 19.104,52 18,52" id="Fill-188" fill="#B3B3A5"></path>
            <path d="M48,52 L46,52 C44.895,52 44,51.1 44,50 L44,48 C44,49.1 44.895,50 46,50 L48,50 C49.105,50 50,49.1 50,48 L50,50 C50,51.1 49.105,52 48,52" id="Fill-189" fill="#B3B3A5"></path>
            <path d="M20,48 C20,49.1 19.104,50 18,50 L16,50 C14.895,50 14,49.1 14,48 L14,37 C14,35.9 14.895,35 16,35 L18,35 C19.104,35 20,35.9 20,37 L20,48" id="Fill-190" fill="#4C5665"></path>
            <path d="M50,48 C50,49.1 49.105,50 48,50 L46,50 C44.895,50 44,49.1 44,48 L44,37 C44,35.9 44.895,35 46,35 L48,35 C49.105,35 50,35.9 50,37 L50,48" id="Fill-191" fill="#4C5665"></path>
            <path d="M49.991,31.34 C49.855,31.29 49.719,31.25 49.579,31.21 C49.697,30.91 49.791,30.61 49.861,30.29 L50,31 C50,31.11 49.997,31.23 49.991,31.34 M14.01,31.34 C14.003,31.23 14,31.11 14,31 L14.039,30.61 L14.121,30.2 C14.191,30.55 14.292,30.89 14.421,31.21 C14.282,31.25 14.145,31.29 14.01,31.34" id="Fill-192" fill="#B3B3A5"></path>
            <path d="M18.247,29.96 C18.114,29.72 18.03,29.46 18.007,29.16 L19.948,19.46 C20.159,18.69 20.512,17.98 20.879,17.57 C21.066,17.35 21.246,17.22 21.415,17.13 C21.586,17.05 21.75,17 22,17 L42,17 C42.25,17 42.413,17.05 42.585,17.13 C42.835,17.26 43.124,17.51 43.399,17.94 C43.663,18.35 43.894,18.89 44.052,19.46 L45.993,29.16 C45.97,29.46 45.886,29.72 45.753,29.96 L44.053,21.46 C43.833,20.67 43.222,19 42,19 L22,19 C20.778,19 20.167,20.67 19.947,21.46 L18.247,29.96" id="Fill-193" fill="#B3B3A5"></path>
            <path d="M48,29 L46,29 C45.999,29.56 45.779,30.05 45.414,30.41 C45.046,30.78 44.559,31 44,31 L20,31 C19.441,31 18.954,30.78 18.586,30.41 C18.221,30.05 18.001,29.56 18,29 L16,29 L17.961,29.39 L19.961,19.39 L18,19 L19.931,19.52 C20.139,18.73 20.502,17.99 20.879,17.57 C21.066,17.35 21.246,17.22 21.415,17.13 C21.586,17.05 21.75,17 22,17 L42,17 C42.25,17 42.413,17.05 42.585,17.13 C42.835,17.26 43.124,17.51 43.399,17.94 C43.672,18.36 43.911,18.93 44.069,19.52 L46,19 L44.039,19.39 L46.039,29.39 L48,29 L46,29 L48,29 L49.961,28.61 L47.948,18.54 L47.931,18.48 C47.599,17.27 47.067,16.01 46.131,14.93 C45.662,14.4 45.081,13.91 44.377,13.56 C43.676,13.2 42.854,13 42,13 L22,13 C21.145,13 20.324,13.2 19.622,13.56 C18.564,14.09 17.795,14.91 17.24,15.77 C16.682,16.64 16.316,17.57 16.069,18.48 L16.052,18.54 L14,28.8 L14,29 C14.001,32.31 16.685,35 20,35 L44,35 C47.314,35 49.999,32.31 50,29 L50,28.8 L49.961,28.61 L48,29" id="Fill-194" fill="#B95756"></path>
            <polygon id="Fill-195" fill="#B3B3A5" points="20 44 44 44 44 37 20 37"></polygon>
            <path d="M20,44 L16,44 C14.897,44 14,43.1 14,42 L14,37 C14,36.04 14.675,35.24 15.573,35.05 C16.671,36.25 18.249,37 20,37 L20,44" id="Fill-196" fill="#414A55"></path>
            <path d="M48,44 L44,44 L44,37 C45.751,37 47.329,36.25 48.427,35.05 C49.325,35.24 50,36.04 50,37 L50,42 C50,43.1 49.103,44 48,44" id="Fill-197" fill="#414A55"></path>
            <path d="M44,37 L20,37 C20,35.9 19.104,35 18,35 L46,35 C44.895,35 44,35.9 44,37" id="Fill-198" fill="#949388"></path>
            <path d="M20,37 C18.249,37 16.671,36.25 15.573,35.05 C15.711,35.02 15.854,35 16,35 L18,35 C19.104,35 20,35.9 20,37" id="Fill-199" fill="#3A4048"></path>
            <path d="M44,37 L44,37 C44,35.9 44.895,35 46,35 L48,35 C48.147,35 48.289,35.02 48.427,35.05 C47.329,36.25 45.751,37 44,37" id="Fill-200" fill="#3A4048"></path>
            <path d="M20,48 L44,48 L44,44 L20,44 L20,48 Z M14,47.66 C11.672,46.83 10,44.61 10,42 L10,37 C10,34.39 11.676,32.16 14.01,31.34 C14.089,32.76 14.668,34.06 15.573,35.05 C14.674,35.24 14,36.04 14,37 L14,47.66 L14,47.66 Z M50,47.66 L50,37 C50,36.04 49.326,35.24 48.427,35.05 C49.332,34.06 49.911,32.76 49.991,31.34 C52.323,32.16 54,34.39 54,37 L54,42 C54,44.61 52.328,46.83 50,47.66 L50,47.66 Z" id="Fill-201" fill="#B3B3A5"></path>
            <path d="M20,48 L16,48 C15.299,48 14.626,47.88 14,47.66 L14,37 C14,36.04 14.674,35.24 15.573,35.05 C14.675,35.24 14,36.04 14,37 L14,42 C14,43.1 14.897,44 16,44 L20,44 L20,48" id="Fill-202" fill="#414A55"></path>
            <path d="M48,48 L44,48 L44,44 L48,44 C49.103,44 50,43.1 50,42 L50,47.66 C49.374,47.88 48.701,48 48,48 M50,37 C50,36.04 49.325,35.24 48.427,35.05 C49.326,35.24 50,36.04 50,37" id="Fill-203" fill="#414A55"></path>
            <path d="M48.427,35.05 C48.29,35.02 48.147,35 48,35 L16,35 C15.854,35 15.711,35.02 15.573,35.05 C14.668,34.06 14.089,32.76 14.01,31.34 C14.145,31.29 14.282,31.25 14.421,31.21 C15.301,33.43 17.466,35 20,35 L44,35 C46.534,35 48.699,33.43 49.579,31.21 C49.719,31.25 49.855,31.29 49.991,31.34 C49.911,32.76 49.332,34.06 48.427,35.05" id="Fill-204" fill="#949388"></path>
            <path d="M15.573,35.05 L15.573,35.05 C15.711,35.02 15.854,35 16,35 L18,35 L16,35 C15.854,35 15.711,35.02 15.573,35.05" id="Fill-205" fill="#3A4048"></path>
            <path d="M48.427,35.05 C48.289,35.02 48.147,35 48,35 L46,35 L48,35 C48.147,35 48.29,35.02 48.427,35.05" id="Fill-206" fill="#3A4048"></path>
            <path d="M44,35 L20,35 C17.466,35 15.301,33.43 14.421,31.21 C14.924,31.07 15.454,31 16,31 L48,31 C48.546,31 49.076,31.07 49.579,31.21 C48.699,33.43 46.534,35 44,35" id="Fill-207" fill="#974D4C"></path>
            <path d="M52,40 C52,42.21 50.209,44 48,44 L16,44 C13.791,44 12,42.21 12,40 L12,35 C12,32.79 13.791,31 16,31 L48,31 C50.209,31 52,32.79 52,35 L52,40" id="Fill-208" fill="#B95756"></path>
            <path d="M52,40 L50,40 C49.999,40.56 49.779,41.05 49.414,41.41 C49.046,41.78 48.559,42 48,42 L16,42 C15.441,42 14.954,41.78 14.586,41.41 C14.221,41.05 14.001,40.56 14,40 L14,35 C14.001,34.44 14.221,33.95 14.586,33.59 C14.954,33.22 15.441,33 16,33 L48,33 C48.559,33 49.046,33.22 49.414,33.59 C49.779,33.95 49.999,34.44 50,35 L50,40 L54,40 L54,35 C53.999,31.69 51.314,29 48,29 L16,29 C12.685,29 10.001,31.69 10,35 L10,40 C10.001,43.31 12.685,46 16,46 L48,46 C51.314,46 53.999,43.31 54,40 L52,40" id="Fill-209" fill="#B95756"></path>
            <path d="M21,38 C21,40.21 19.209,42 17,42 C14.791,42 13,40.21 13,38 C13,35.79 14.791,34 17,34 C19.209,34 21,35.79 21,38" id="Fill-210" fill="#F1CC84"></path>
            <path d="M21,38 L20,38 C19.997,39.66 18.656,41 17,41 C15.344,41 14.003,39.66 14,38 C14.003,36.34 15.344,35 17,35 C18.656,35 19.997,36.34 20,38 L22,38 C21.999,35.24 19.762,33 17,33 C14.238,33 12.001,35.24 12,38 C12.001,40.76 14.238,43 17,43 C19.762,43 21.999,40.76 22,38 L21,38" id="Fill-211" fill="#B95756"></path>
            <path d="M51,38 C51,40.21 49.209,42 47,42 C44.791,42 43,40.21 43,38 C43,35.79 44.791,34 47,34 C49.209,34 51,35.79 51,38" id="Fill-212" fill="#F1CC84"></path>
            <path d="M51,38 L50,38 C49.997,39.66 48.656,41 47,41 C45.344,41 44.003,39.66 44,38 C44.003,36.34 45.344,35 47,35 C48.656,35 49.997,36.34 50,38 L52,38 C51.999,35.24 49.762,33 47,33 C44.238,33 42.001,35.24 42,38 C42.001,40.76 44.238,43 47,43 C49.762,43 51.999,40.76 52,38 L51,38" id="Fill-213" fill="#B95756"></path>
        </g>
    </g>
</svg>