<?xml version="1.0" encoding="UTF-8" standalone="no"?>
<svg width="64px" height="65px" viewBox="0 0 64 65" version="1.1" xmlns="http://www.w3.org/2000/svg" xmlns:xlink="http://www.w3.org/1999/xlink">
    <!-- Generator: Sketch 41.2 (35397) - http://www.bohemiancoding.com/sketch -->
    <title>Group 27</title>
    <desc>Created with Sketch.</desc>
    <defs></defs>
    <g id="Page-1" stroke="none" stroke-width="1" fill="none" fill-rule="evenodd">
        <g id="Group-27">
            <path d="M64,32.76 C64,50.43 49.673,64.76 32,64.76 C14.327,64.76 0,50.43 0,32.76 C0,15.08 14.327,0.76 32,0.76 C49.673,0.76 64,15.08 64,32.76" id="Fill-271" fill="#73BBA2"></path>
            <path d="M32,56 C24.82,56 19,50.18 19,43 C19,36.5 23.77,31.11 30,30.15 L30,34.22 C25.997,35.14 23,38.72 23,43 C23,47.96 27.037,52 32,52 C36.962,52 41,47.96 41,43 C41,38.72 38.003,35.14 34,34.22 L34,30.15 C40.23,31.11 45,36.5 45,43 C45,50.18 39.18,56 32,56" id="Fill-272" fill="#629986"></path>
            <path d="M28.002,47.67 C27.355,47.67 26.721,47.35 26.336,46.78 C25.723,45.86 25.972,44.62 26.891,44 L30.173,41.81 C30.485,42.51 31.185,43 32,43 C33.104,43 34,42.1 34,41 L34,39.26 L34.891,38.67 C35.231,38.44 35.617,38.33 35.998,38.33 C36.644,38.33 37.279,38.65 37.664,39.22 C38.277,40.14 38.029,41.38 37.109,42 L29.109,47.33 C28.769,47.56 28.383,47.67 28.002,47.67" id="Fill-273" fill="#629986"></path>
            <path d="M32,28 C24.82,28 19,33.82 19,41 C19,48.18 24.82,54 32,54 C39.18,54 45,48.18 45,41 C45,33.82 39.18,28 32,28 Z M32,32 C36.963,32 41,36.04 41,41 C41,45.96 36.963,50 32,50 C27.037,50 23,45.96 23,41 C23,36.04 27.037,32 32,32 L32,32 Z" id="Fill-274" fill="#4C5665"></path>
            <path d="M34,41 L34,15.41 C34,14.3 33.104,13.41 32,13.41 C30.895,13.41 30,14.3 30,15.41 L30,41 C30,42.1 30.895,43 32,43 C33.104,43 34,42.1 34,41" id="Fill-275" fill="#DEDFCB"></path>
            <path d="M29.109,45.33 L37.109,40 C38.028,39.38 38.277,38.14 37.664,37.22 C37.051,36.3 35.81,36.06 34.891,36.67 L26.891,42 C25.972,42.62 25.723,43.86 26.336,44.78 C26.949,45.7 28.19,45.94 29.109,45.33" id="Fill-276" fill="#FFFFFF"></path>
            <path d="M30,18.43 C27.819,18.18 25.994,17.4 24.89,16.66 C23.972,16.05 23.723,14.81 24.336,13.89 C24.721,13.31 25.355,13 26.001,13 C26.379,13 26.761,13.11 27.1,13.33 C27.211,13.4 28.449,14.18 30.254,14.43 C30.092,14.72 30,15.05 30,15.41 L30,18.43 M34,18.21 L34,15.41 C34,14.95 33.846,14.53 33.587,14.19 C34.595,13.89 35.656,13.35 36.72,12.46 C37.093,12.15 37.547,12 37.999,12 C38.572,12 39.141,12.24 39.537,12.72 C40.243,13.57 40.129,14.83 39.28,15.54 C37.533,16.99 35.731,17.82 34,18.21" id="Fill-277" fill="#629986"></path>
            <path d="M31.37,18.5 C30.901,18.5 30.443,18.47 30,18.43 L30,15.41 C30,15.05 30.092,14.72 30.254,14.43 C30.608,14.48 30.985,14.51 31.379,14.51 C32.069,14.51 32.812,14.42 33.587,14.19 C33.846,14.53 34,14.95 34,15.41 L34,18.21 C33.098,18.41 32.215,18.5 31.37,18.5" id="Fill-278" fill="#B3B3A5"></path>
            <path d="M24.891,14.66 C24.98,14.72 25.662,15.17 26.796,15.62 C27.929,16.06 29.522,16.51 31.418,16.51 C33.782,16.53 36.627,15.76 39.28,13.54 C40.129,12.83 40.244,11.57 39.536,10.72 C38.829,9.87 37.568,9.76 36.72,10.46 C34.757,12.08 32.987,12.5 31.418,12.51 C30.168,12.52 29.052,12.21 28.262,11.9 C27.868,11.74 27.557,11.59 27.357,11.48 C27.256,11.42 27.183,11.38 27.141,11.36 L27.101,11.33 L27.099,11.33 L26.428,12.36 L27.109,11.34 L27.099,11.33 L26.428,12.36 L27.109,11.34 C26.19,10.72 24.948,10.97 24.336,11.89 C23.723,12.81 23.972,14.05 24.891,14.66" id="Fill-279" fill="#4C5665"></path>
        </g>
    </g>
</svg>