<?xml version="1.0" encoding="UTF-8" standalone="no"?>
<svg width="64px" height="64px" viewBox="0 0 64 64" version="1.1" xmlns="http://www.w3.org/2000/svg" xmlns:xlink="http://www.w3.org/1999/xlink">
    <!-- Generator: Sketch 41.2 (35397) - http://www.bohemiancoding.com/sketch -->
    <title>Group</title>
    <desc>Created with Sketch.</desc>
    <defs></defs>
    <g id="Page-1" stroke="none" stroke-width="1" fill="none" fill-rule="evenodd">
        <g id="Group">
            <path d="M64,32 C64,49.67 49.673,64 32,64 C14.327,64 0,49.67 0,32 C0,14.33 14.327,0 32,0 C49.673,0 64,14.33 64,32" id="Fill-309" fill="#73BBA2"></path>
            <path d="M49.973,35 L37.122,35 L35.341,33.22 L35.56,33 L49.973,33 C49.991,33.33 50,33.66 50,34 C50,34.34 49.991,34.67 49.973,35 M26.878,35 L14.027,35 C14.009,34.67 14,34.34 14,34 C14,33.66 14.009,33.33 14.027,33 L28.319,33 L28.598,33.28 L26.878,35" id="Fill-310" fill="#629986"></path>
            <path d="M43.311,47.99 L33.5,38.18 L33.5,35.62 L44.661,46.78 C44.232,47.21 43.781,47.61 43.311,47.99 M28.598,33.28 L28.319,33 L28.878,33 L28.598,33.28 M27.879,30 L25.318,30 L18.007,22.69 C18.388,22.22 18.792,21.77 19.218,21.34 L27.879,30" id="Fill-311" fill="#629986"></path>
            <path d="M20.622,47.94 C20.176,47.57 19.747,47.19 19.339,46.78 L30.5,35.62 L30.5,38.06 L20.622,47.94 M35.341,33.22 L35.122,33 L35.56,33 L35.341,33.22 M38.561,30 L36.121,30 L44.782,21.34 C45.188,21.75 45.574,22.18 45.938,22.62 L38.561,30 M48.762,19.75 C48.371,19.29 47.96,18.85 47.533,18.42 C47.659,18.11 47.676,17.76 47.584,17.44 C47.939,17.46 48.289,17.61 48.561,17.88 C49.069,18.39 49.136,19.17 48.762,19.75" id="Fill-312" fill="#629986"></path>
            <path d="M30.5,12 L30.5,52 C30.5,52.83 31.172,53.5 32,53.5 C32.828,53.5 33.5,52.83 33.5,52 L33.5,12 C33.5,11.17 32.828,10.5 32,10.5 C31.172,10.5 30.5,11.17 30.5,12" id="Fill-313" fill="#FFFFFF"></path>
            <path d="M52,30 L12,30 C11.172,30 10.5,30.67 10.5,31.5 C10.5,32.33 11.172,33 12,33 L52,33 C52.829,33 53.5,32.33 53.5,31.5 C53.5,30.67 52.829,30 52,30" id="Fill-314" fill="#FFFFFF"></path>
            <path d="M47.203,45.08 L18.919,16.8 C18.333,16.21 17.383,16.21 16.797,16.8 C16.211,17.38 16.211,18.33 16.797,18.92 L45.081,47.2 C45.667,47.79 46.617,47.79 47.203,47.2 C47.789,46.62 47.789,45.67 47.203,45.08" id="Fill-315" fill="#FFFFFF"></path>
            <path d="M18.919,47.2 L47.203,18.92 C47.789,18.33 47.789,17.38 47.203,16.8 C46.617,16.21 45.667,16.21 45.081,16.8 L16.797,45.08 C16.211,45.67 16.211,46.62 16.797,47.2 C17.383,47.79 18.333,47.79 18.919,47.2" id="Fill-316" fill="#FFFFFF"></path>
            <path d="M32,35 C31.739,35 31.49,34.95 31.262,34.86 L32,34.12 L32.738,34.86 C32.51,34.95 32.261,35 32,35" id="Fill-317" fill="#CFCEC8"></path>
            <path d="M32.738,34.86 L32,34.12 L33.859,32.26 C33.95,32.49 34,32.74 34,33 C34,33.84 33.478,34.57 32.738,34.86" id="Fill-318" fill="#CFCEC8"></path>
            <path d="M31.262,34.86 C30.523,34.57 30,33.84 30,33 C30,31.9 30.895,31 32,31 C32.844,31 33.566,31.52 33.859,32.26 L32,34.12 L31.262,34.86" id="Fill-319" fill="#CFCEC8"></path>
            <path d="M34,32 C34,33.1 33.105,34 32,34 C30.895,34 30,33.1 30,32 C30,30.9 30.895,30 32,30 C33.105,30 34,30.9 34,32" id="Fill-320" fill="#73BBA2"></path>
            <path d="M32,56 C19.85,56 10,46.15 10,34 C10,27.91 12.472,22.4 16.467,18.42 C16.54,18.6 16.65,18.77 16.797,18.92 L17.121,19.24 C17.036,19.3 16.954,19.36 16.879,19.44 C16.293,20.02 16.293,20.97 16.879,21.56 L18.007,22.69 C16.307,24.79 15.068,27.28 14.448,30 L12,30 C11.172,30 10.5,30.67 10.5,31.5 C10.5,32.33 11.172,33 12,33 L12.11,33 C12.039,33.16 12,33.32 12,33.5 C12,34.33 12.866,35 13.936,35 L14.027,35 C14.221,38.53 15.438,41.79 17.384,44.49 L16.797,45.08 C16.211,45.67 16.211,46.62 16.797,47.2 C16.983,47.39 17.206,47.52 17.442,47.58 C17.461,47.94 17.607,48.29 17.879,48.56 C18.172,48.85 18.556,49 18.939,49 C19.323,49 19.707,48.85 20,48.56 L20.622,47.94 C23.362,50.18 26.772,51.63 30.5,51.94 L30.5,52 C30.5,52.83 31.172,53.5 32,53.5 C32.828,53.5 33.5,52.83 33.5,52 L33.5,51.94 C37.198,51.63 40.583,50.2 43.311,47.99 L43.439,48.12 C43.732,48.41 44.116,48.56 44.5,48.56 C44.884,48.56 45.268,48.41 45.561,48.12 C45.708,47.97 45.819,47.8 45.892,47.62 C45.975,47.63 46.058,47.64 46.142,47.64 C46.526,47.64 46.91,47.5 47.203,47.2 C47.789,46.62 47.789,45.67 47.203,45.08 L46.616,44.49 C48.562,41.79 49.778,38.53 49.973,35 L50.064,35 C51.134,35 52,34.33 52,33.5 C52,33.32 51.961,33.16 51.89,33 L52,33 C52.829,33 53.5,32.33 53.5,31.5 C53.5,30.67 52.829,30 52,30 L49.552,30 C48.926,27.25 47.667,24.74 45.938,22.62 L48.561,20 C48.638,19.92 48.705,19.84 48.762,19.75 C52.029,23.59 54,28.56 54,34 C54,46.15 44.15,56 32,56" id="Fill-321" fill="#629986"></path>
            <path d="M50.064,35 L49.973,35 C49.991,34.67 50,34.34 50,34 C50,33.66 49.991,33.33 49.973,33 L51.89,33 C51.961,33.16 52,33.32 52,33.5 C52,34.33 51.134,35 50.064,35 M14.027,35 L13.936,35 C12.866,35 12,34.33 12,33.5 C12,33.32 12.039,33.16 12.11,33 L14.027,33 C14.009,33.33 14,33.66 14,34 C14,34.34 14.009,34.67 14.027,35" id="Fill-322" fill="#568071"></path>
            <path d="M44.5,48.56 C44.116,48.56 43.732,48.41 43.439,48.12 L43.311,47.99 C43.781,47.61 44.232,47.21 44.661,46.78 L45.081,47.2 C45.31,47.43 45.595,47.57 45.892,47.62 C45.819,47.8 45.708,47.97 45.561,48.12 C45.268,48.41 44.884,48.56 44.5,48.56 M18.007,22.69 L16.879,21.56 C16.293,20.97 16.293,20.02 16.879,19.44 C16.954,19.36 17.036,19.3 17.121,19.24 L19.218,21.34 C18.792,21.77 18.388,22.22 18.007,22.69" id="Fill-323" fill="#568071"></path>
            <path d="M18.939,49 C18.556,49 18.172,48.85 17.879,48.56 C17.607,48.29 17.461,47.94 17.442,47.58 C17.577,47.62 17.718,47.64 17.858,47.64 C18.242,47.64 18.626,47.5 18.919,47.2 L19.339,46.78 C19.747,47.19 20.176,47.57 20.622,47.94 L20,48.56 C19.707,48.85 19.323,49 18.939,49 M45.938,22.62 C45.574,22.18 45.188,21.75 44.782,21.34 L47.203,18.92 C47.35,18.77 47.46,18.6 47.533,18.42 C47.96,18.85 48.371,19.29 48.762,19.75 C48.705,19.84 48.638,19.92 48.561,20 L45.938,22.62" id="Fill-324" fill="#568071"></path>
            <path d="M42.495,19.38 C39.92,17.53 36.838,16.34 33.5,16.06 L33.5,12.05 C37.964,12.35 42.062,13.98 45.402,16.55 C45.287,16.62 45.179,16.7 45.081,16.8 L42.495,19.38 M21.505,19.38 L18.919,16.8 C18.821,16.7 18.712,16.62 18.598,16.55 C21.938,13.98 26.036,12.35 30.5,12.05 L30.5,16.06 C27.163,16.34 24.08,17.53 21.505,19.38" id="Fill-325" fill="#629986"></path>
            <path d="M32,53.5 C31.172,53.5 30.5,52.83 30.5,52 L30.5,51.94 C30.995,51.98 31.495,52 32,52 C32.505,52 33.005,51.98 33.5,51.94 L33.5,52 C33.5,52.83 32.828,53.5 32,53.5 M33.5,16.06 C33.005,16.02 32.505,16 32,16 C31.495,16 30.995,16.02 30.5,16.06 L30.5,12.05 C30.996,12.02 31.495,12 32,12 C32.504,12 33.004,12.02 33.5,12.05 L33.5,16.06" id="Fill-326" fill="#CFCEC8"></path>
            <path d="M52,33 L49.973,33 C49.916,31.98 49.774,30.97 49.552,30 L52,30 C52.829,30 53.5,30.67 53.5,31.5 C53.5,32.33 52.829,33 52,33 M14.027,33 L12,33 C11.172,33 10.5,32.33 10.5,31.5 C10.5,30.67 11.172,30 12,30 L14.448,30 C14.226,30.97 14.084,31.98 14.027,33" id="Fill-327" fill="#CFCEC8"></path>
            <path d="M46.142,47.64 C46.058,47.64 45.975,47.63 45.892,47.62 C45.595,47.57 45.31,47.43 45.081,47.2 L44.661,46.78 C45.375,46.08 46.028,45.31 46.616,44.49 L47.203,45.08 C47.789,45.67 47.789,46.62 47.203,47.2 C46.91,47.5 46.526,47.64 46.142,47.64 M19.218,21.34 L17.121,19.24 L16.797,18.92 C16.65,18.77 16.54,18.6 16.467,18.42 C17.136,17.75 17.848,17.13 18.598,16.55 C18.712,16.62 18.821,16.7 18.919,16.8 L21.505,19.38 C20.689,19.97 19.924,20.63 19.218,21.34" id="Fill-328" fill="#CFCEC8"></path>
            <path d="M17.858,47.64 C17.718,47.64 17.577,47.62 17.442,47.58 C17.206,47.52 16.983,47.39 16.797,47.2 C16.211,46.62 16.211,45.67 16.797,45.08 L17.384,44.49 C17.972,45.31 18.626,46.08 19.339,46.78 L18.919,47.2 C18.626,47.5 18.242,47.64 17.858,47.64 M44.782,21.34 C44.076,20.63 43.311,19.97 42.495,19.38 L45.081,16.8 C45.179,16.7 45.287,16.62 45.402,16.55 C46.152,17.13 46.864,17.75 47.533,18.42 C47.46,18.6 47.35,18.77 47.203,18.92 L44.782,21.34" id="Fill-329" fill="#CFCEC8"></path>
            <path d="M32,10 C19.85,10 10,19.85 10,32 C10,44.15 19.85,54 32,54 C44.15,54 54,44.15 54,32 C54,19.85 44.15,10 32,10 Z M32,14 C41.925,14 50,22.07 50,32 C50,41.93 41.925,50 32,50 C22.075,50 14,41.93 14,32 C14,22.07 22.075,14 32,14 L32,14 Z" id="Fill-330" fill="#4C5665"></path>
        </g>
    </g>
</svg>