<?xml version="1.0" encoding="UTF-8" standalone="no"?>
<svg width="64px" height="64px" viewBox="0 0 64 64" version="1.1" xmlns="http://www.w3.org/2000/svg" xmlns:xlink="http://www.w3.org/1999/xlink">
    <!-- Generator: Sketch 41.2 (35397) - http://www.bohemiancoding.com/sketch -->
    <title>Group 7</title>
    <desc>Created with Sketch.</desc>
    <defs></defs>
    <g id="Page-1" stroke="none" stroke-width="1" fill="none" fill-rule="evenodd">
        <g id="Group-7">
            <path d="M64,32 C64,49.67 49.673,64 32,64 C14.327,64 0,49.67 0,32 C0,14.33 14.327,0 32,0 C49.673,0 64,14.33 64,32" id="Fill-229" fill="#73BBA2"></path>
            <path d="M22.335,46.28 C21.79,46.28 21.228,46.25 20.65,46.17 C17.962,45.8 14.505,44.91 10.128,43.09 L12,40.63 L22.245,40.63 C22.245,40.63 25.462,37.95 29.321,34.71 L33.167,35.3 L40.5,29.07 L35.992,29.07 C38.905,26.59 41.333,24.48 42.083,23.73 C43.642,22.18 47.1,21 50.04,21 C50.733,21 51.396,21.07 52,21.21 C53.063,21.45 53.486,22.37 50.485,25.37 L31.017,43.15 C31.017,43.15 27.464,46.28 22.335,46.28" id="Fill-230" fill="#629986"></path>
            <path d="M29.321,34.71 L15.75,32.63 L18.344,29.07 L35.992,29.07 C33.872,30.88 31.495,32.88 29.321,34.71" id="Fill-231" fill="#629986"></path>
            <path d="M33.167,35.3 L29.321,34.71 C31.495,32.88 33.872,30.88 35.992,29.07 L40.5,29.07 L33.167,35.3" id="Fill-232" fill="#568071"></path>
            <path d="M50.486,23.37 L31.017,41.15 C31.017,41.15 26.67,44.98 20.65,44.17 C17.962,43.8 14.505,42.91 10.128,41.09 L12,38.63 L22.245,38.63 C22.245,38.63 39.819,24 42.083,21.73 C44.01,19.81 48.833,18.47 52,19.21 C53.063,19.45 53.486,20.37 50.486,23.37" id="Fill-233" fill="#FFFFFF"></path>
            <polyline id="Fill-234" fill="#FFFFFF" points="33.167 33.3 15.75 30.63 18 26.63 41 26.63 33.167 33.3"></polyline>
        </g>
    </g>
</svg>