<?xml version="1.0" encoding="UTF-8" standalone="no"?>
<svg width="64px" height="64px" viewBox="0 0 64 64" version="1.1" xmlns="http://www.w3.org/2000/svg" xmlns:xlink="http://www.w3.org/1999/xlink">
    <!-- Generator: Sketch 41.2 (35397) - http://www.bohemiancoding.com/sketch -->
    <title>Group 31</title>
    <desc>Created with Sketch.</desc>
    <defs></defs>
    <g id="Page-1" stroke="none" stroke-width="1" fill="none" fill-rule="evenodd">
        <g id="Group-31">
            <path d="M64,32 C64,49.67 49.673,64 32,64 C14.327,64 0,49.67 0,32 C0,14.33 14.327,0 32,0 C49.673,0 64,14.33 64,32" id="Fill-147" fill="#4C5665"></path>
            <path d="M21.5,57.5 C20.672,57.5 20,56.83 20,56 L20,16 C20,15.17 20.672,14.5 21.5,14.5 C22.329,14.5 23,15.17 23,16 L23,56 C23,56.83 22.329,57.5 21.5,57.5" id="Fill-148" fill="#414A55"></path>
            <path d="M26,45.66 L26,18.34 L29.588,19.06 L35.588,20.26 L37.775,20.7 L41.589,21.46 L44,21.94 L49.589,23.06 C50.991,23.34 52,24.57 52,26 L52,38 C52,39.43 50.991,40.66 49.589,40.94 L44,42.06 L41.589,42.54 L38,43.26 L35.588,43.74 L29.588,44.94 L26,45.66" id="Fill-149" fill="#414A55"></path>
            <path d="M23,54 L23,14 C23,13.17 22.328,12.5 21.5,12.5 C20.672,12.5 20,13.17 20,14 L20,54 C20,54.83 20.672,55.5 21.5,55.5 C22.328,55.5 23,54.83 23,54" id="Fill-150" fill="#DEDFCB"></path>
            <polyline id="Fill-151" fill="#D5925C" points="27.5 18.17 36.5 19.97 36.5 40.03 27.5 41.83 27.5 18.17"></polyline>
            <path d="M26,16.34 L26,43.66 L29.588,42.94 L35.588,41.74 L38,41.26 L38,18.74 L35.588,18.26 L29.588,17.06 L26,16.34 Z M29,20 L35,21.2 L35,38.8 L29,40 L29,20 L29,20 Z" id="Fill-152" fill="#D5925C"></path>
            <path d="M43,38.7 C42.656,38.7 42.319,38.58 42.049,38.36 C41.701,38.08 41.5,37.65 41.5,37.2 L41.5,22.8 C41.5,22.35 41.701,21.92 42.049,21.64 C42.319,21.42 42.656,21.3 43,21.3 C43.098,21.3 43.196,21.31 43.294,21.33 L49.294,22.53 C49.995,22.67 50.5,23.29 50.5,24 L50.5,36 C50.5,36.71 49.995,37.33 49.294,37.47 L43.294,38.67 C43.196,38.69 43.098,38.7 43,38.7" id="Fill-153" fill="#D5925C"></path>
            <path d="M43,19.8 C42.312,19.8 41.639,20.04 41.098,20.48 C40.403,21.05 40,21.9 40,22.8 L40,37.2 C40,38.1 40.403,38.95 41.098,39.52 C41.639,39.96 42.313,40.2 43,40.2 C43.196,40.2 43.393,40.18 43.588,40.14 L49.588,38.94 C50.991,38.66 52,37.43 52,36 L52,24 C52,22.57 50.991,21.34 49.588,21.06 L43.588,19.86 C43.393,19.82 43.196,19.8 43,19.8 Z M43,22.8 L49,24 L49,36 L43,37.2 L43,22.8 L43,22.8 Z" id="Fill-154" fill="#D5925C"></path>
            <polyline id="Fill-155" fill="#FFFFFF" points="35.5 19.77 42.5 21.17 42.5 38.83 35.5 40.23 35.5 19.77"></polyline>
            <path d="M34,17.94 L34,42.06 L37.588,41.34 L41.588,40.54 L44,40.06 L44,19.94 L41.588,19.46 L37.588,18.66 L34,17.94 Z M37,21.6 L41,22.4 L41,37.6 L37,38.4 L37,21.6 L37,21.6 Z" id="Fill-156" fill="#FFFFFF"></path>
        </g>
    </g>
</svg>