<?xml version="1.0" encoding="UTF-8"?>
<svg width="90px" height="90px" viewBox="0 0 90 90" version="1.1" xmlns="http://www.w3.org/2000/svg" xmlns:xlink="http://www.w3.org/1999/xlink">
    <!-- Generator: Sketch 43.2 (39069) - http://www.bohemiancoding.com/sketch -->
    <title>Group 2</title>
    <desc>Created with Sketch.</desc>
    <defs>
        <circle id="path-1" cx="45" cy="45" r="45"></circle>
    </defs>
    <g id="Symbols" stroke="none" stroke-width="1" fill="none" fill-rule="evenodd">
        <g id="First-screen-header-1" transform="translate(-1018.000000, -16.000000)">
            <g id="Bitmap-Copy" transform="translate(1018.000000, 16.000000)">
                <g id="Group-2">
                    <g id="Group-8">
                        <mask id="mask-2" fill="white">
                            <use xlink:href="#path-1"></use>
                        </mask>
                        <use id="Mask" fill="#F0F0F0" xlink:href="#path-1"></use>
                        <g opacity="0.245160914" mask="url(#mask-2)" id="Combined-Shape-+-Combined-Shape-Mask">
                            <g transform="translate(16.000000, 21.000000)">
                                <g>
                                    <path d="M1.27268339,62 C0.570162161,62 0,61.42711 0,60.7212276 L0,58.1636829 C0,50.7570332 5.88743338,45.3759591 13.9995173,45.3759591 L17.1379546,45.3759591 L20.7854652,39.9053708 C21.1774517,39.3196931 21.9690608,39.1611253 22.5519498,39.5498721 C23.1348387,39.9411765 23.2926515,40.7391304 22.900665,41.3222506 L18.8738947,47.3580563 C18.6371756,47.713555 18.2400984,47.9258312 17.8150222,47.9258312 L13.996972,47.9258312 C7.25429535,47.9258312 2.54282142,52.1355499 2.54282142,58.1560102 L2.54282142,60.713555 C2.54536679,61.42711 1.97520463,62 1.27268339,62 L1.27268339,62 Z M54.725386,62 C54.0254101,62 53.4527026,61.42711 53.4527026,60.7212276 L53.4527026,58.1636829 C53.4527026,52.140665 48.8303165,47.9335038 42.2072721,47.9335038 L38.3892219,47.9335038 C37.9692364,47.9335038 37.5797953,47.7263427 37.3405308,47.3785166 L33.2094005,41.342711 C32.8123233,40.7595908 32.9574092,39.9641944 33.5377528,39.5677749 C34.1206418,39.1713555 34.9097055,39.314578 35.3067827,39.9002558 L39.0611987,45.3836317 L42.2072721,45.3836317 C50.3244468,45.3836317 55.9980694,50.6445013 55.9980694,58.1713555 L55.9980694,60.7289003 C55.9980694,61.42711 55.4253618,62 54.725386,62 L54.725386,62 Z" id="Combined-Shape" fill="#939598"></path>
                                    <path d="M27.9990347,44.0971867 C20.5207471,44.0971867 14.6333137,36.0537084 14.0478793,28.6675192 C11.3905164,28.2736573 10.1814672,26.5882353 10.1814672,24.915601 L10.1814672,19.8005115 C10.1814672,18.202046 11.7214141,17.0485934 12.7268339,16.4654731 L12.7268339,12.1278772 C12.7268339,7.5370844 14.2311457,3.28644501 25.0336824,3.17902813 C28.6761022,0.560102302 32.1810723,0 34.5126283,0 C39.0204729,0 42.8894304,2.05370844 44.3759246,5.23017903 C45.4755231,7.59846547 45.0835366,10.1892583 43.2712354,12.5754476 L43.2712354,16.4654731 C44.2766553,17.0485934 45.8166022,18.202046 45.8166022,19.8005115 L45.8166022,24.915601 C45.8166022,26.5831202 44.607553,28.2736573 41.9476447,28.6675192 C41.3647557,36.056266 35.4773223,44.0971867 27.9990347,44.0971867 Z M34.5126283,2.55754476 C32.4992432,2.55754476 29.4218947,3.06393862 26.2172779,5.4859335 C25.9983764,5.64705882 25.7311129,5.74168798 25.4536679,5.74168798 C15.2722007,5.74168798 15.2722007,9.28644501 15.2722007,12.1355499 L15.2722007,17.2506394 C15.2722007,17.7519182 14.9769382,18.2097187 14.5213175,18.4168798 C13.615167,18.826087 12.7751959,19.5370844 12.7242886,19.8158568 L12.7242886,24.9207161 C12.7242886,25.8644501 14.0962413,26.1994885 15.2696554,26.1994885 C15.9721766,26.1994885 16.5423388,26.7749361 16.5423388,27.4782609 C16.5423388,33.8491049 21.6508899,41.544757 27.9964893,41.544757 C34.3420887,41.544757 39.4506399,33.8491049 39.4506399,27.4782609 C39.4506399,26.7749361 40.020802,26.1994885 40.7233233,26.1994885 C41.8967374,26.1994885 43.2686901,25.8644501 43.2686901,24.9207161 L43.2686901,19.8056266 C43.2152373,19.5038363 42.2912692,18.7826087 41.4767518,18.4143223 C41.0185858,18.2097187 40.7233233,17.7519182 40.7233233,17.2480818 L40.7233233,12.1329923 C40.7233233,11.8337596 40.8276833,11.5473146 41.0185858,11.314578 C42.4338097,9.6112532 42.7927065,7.88235294 42.0672769,6.32480818 C41.0211312,4.06649616 37.9819632,2.55754476 34.5126283,2.55754476 L34.5126283,2.55754476 Z" id="Combined-Shape" fill="#939598"></path>
                                </g>
                            </g>
                        </g>
                    </g>
                    <polygon id="Shape" fill="#494949" transform="translate(45.000000, 45.000000) rotate(45.000000) translate(-45.000000, -45.000000) " points="52 39.4 50.6 38 45 43.6 39.4 38 38 39.4 43.6 45 38 50.6 39.4 52 45 46.4 50.6 52 52 50.6 46.4 45"></polygon>
                </g>
            </g>
        </g>
    </g>
</svg>