<?xml version="1.0" encoding="UTF-8"?>
<svg width="32px" height="45px" viewBox="0 0 32 45" version="1.1" xmlns="http://www.w3.org/2000/svg" xmlns:xlink="http://www.w3.org/1999/xlink">
    <!-- Generator: Sketch 43.2 (39069) - http://www.bohemiancoding.com/sketch -->
    <title>Page 1</title>
    <desc>Created with Sketch.</desc>
    <defs></defs>
    <g id="Jobs" stroke="none" stroke-width="1" fill="none" fill-rule="evenodd">
        <g id="Blank-Screen---Home---Desktop" transform="translate(-950.000000, -385.000000)">
            <g id="Page-1" transform="translate(950.000000, 385.000000)">
                <path d="M28.7344018,10.8694937 L21.247192,10.8694937 C21.8824152,11.9608861 22.0918795,13.2675949 21.8237879,14.6341139 L21.7941897,14.7656962 L17.7984308,30.6233544 L17.7984308,42.0641772 C17.7984308,42.7562658 17.6732076,43.4113291 17.4506518,44.0088608 C17.9054397,44.4007595 18.4774821,44.6474051 19.0722924,44.6474051 C20.3888437,44.6474051 21.624,43.4848101 21.624,42.0641772 L21.624,30.9685443 L22.8984308,30.9674051 L22.8984308,42.0641772 C22.8984308,43.4848101 23.8136987,44.6474051 25.1296808,44.6474051 C26.4456629,44.6474051 27.3609308,43.4848101 27.3609308,42.0641772 L27.3609308,30.3106329 L31.4335312,14.1493671 C31.7983862,12.289557 30.6377946,10.8694937 28.7344018,10.8694937" id="Fill-1" fill="#A8417F"></path>
                <path d="M22.1086138,8.48198734 C24.4645179,8.48198734 26.3741719,6.58344304 26.3741719,4.24002532 C26.3741719,1.89774684 24.4645179,-0.000227848101 22.1086138,-0.000227848101 C19.753279,-0.000227848101 17.8447634,1.89774684 17.8447634,4.24002532 C17.8447634,6.58344304 19.753279,8.48198734 22.1086138,8.48198734" id="Fill-3" fill="#A8417F"></path>
                <path d="M16.621731,10.8694937 L2.92857254,10.8694937 C1.01834933,10.8694937 -0.332353795,12.206962 0.0723448661,14.0542405 L4.41132924,30.3106329 L4.41132924,42.0641772 C4.41132924,43.4848101 5.6453471,44.6474051 6.96019085,44.6474051 C8.27617299,44.6474051 9.51076004,43.4848101 9.51076004,42.0641772 L9.51076004,30.9685443 L10.78576,30.9674051 L10.78576,42.0641772 C10.78576,43.4848101 11.7010279,44.6474051 13.01701,44.6474051 C14.3329922,44.6474051 15.24826,43.4848101 15.24826,42.0641772 L15.24826,30.3106329 L19.3202913,14.1493671 C19.6862846,12.289557 18.5256931,10.8694937 16.621731,10.8694937" id="Fill-5" fill="#6DA3D7"></path>
                <path d="M9.99651228,8.48198734 C12.3524163,8.48198734 14.2620703,6.58344304 14.2620703,4.24002532 C14.2620703,1.89774684 12.3524163,-0.000227848101 9.99651228,-0.000227848101 C7.64060826,-0.000227848101 5.73209263,1.89774684 5.73209263,4.24002532 C5.73209263,6.58344304 7.64060826,8.48198734 9.99651228,8.48198734" id="Fill-7" fill="#6DA3D7"></path>
            </g>
        </g>
    </g>
</svg>