<?xml version="1.0" encoding="UTF-8" standalone="no"?>
<svg width="13px" height="13px" viewBox="0 0 16 16" version="1.1" xmlns="http://www.w3.org/2000/svg" xmlns:xlink="http://www.w3.org/1999/xlink">
    <!-- Generator: Sketch 41.2 (35397) - http://www.bohemiancoding.com/sketch -->
    <title>Shape</title>
    <desc>Created with Sketch.</desc>
    <defs></defs>
    <g id="Header" stroke="none" stroke-width="1" fill="none" fill-rule="evenodd">
        <g id="CREATE-A-JOB-2---DESKTOP-1280-" transform="translate(-573.000000, -2093.000000)" fill="#939598">
            <g id="Group-19" transform="translate(573.000000, 2093.000000)">
                <path d="M0,16 L0.958666667,11.25 L4.75066667,15.0426667 L0,16 Z M5.69333333,14.0993333 L16,3.79266667 L12.2073333,0 L1.90133333,10.3066667 L5.69333333,14.0993333 Z" id="Shape"></path>
            </g>
        </g>
    </g>
</svg>