<?xml version="1.0" encoding="UTF-8" standalone="no"?>
<svg width="20px" height="18px" viewBox="0 0 20 18" version="1.1" xmlns="http://www.w3.org/2000/svg" xmlns:xlink="http://www.w3.org/1999/xlink">
    <!-- Generator: Sketch 41.2 (35397) - http://www.bohemiancoding.com/sketch -->
    <title>Shape</title>
    <desc>Created with Sketch.</desc>
    <defs></defs>
    <g id="Symbols" stroke="none" stroke-width="1" fill="none" fill-rule="evenodd">
        <g id="card-/-job-card" transform="translate(-248.000000, -222.000000)" fill="#FFFFFF">
            <g id="thumb-down-copy-9" transform="translate(248.000000, 222.000000)">
                <path d="M12.6,0 L4.5,0 C3.78,0 3.15,0.45 2.88,1.08 L0.18,7.47 C0.09,7.65 0,7.83 0,8.1 L0,9.81 L0,9.9 C0,10.89 0.81,11.7 1.8,11.7 L7.47,11.7 L6.57,15.84 L6.57,16.11 C6.57,16.47 6.75,16.83 6.93,17.1 L7.92,18 L13.86,12.06 C14.22,11.7 14.4,11.25 14.4,10.8 L14.4,1.8 C14.4,0.81 13.59,0 12.6,0 L12.6,0 Z M16.2,0 L16.2,10.8 L19.8,10.8 L19.8,0 L16.2,0 L16.2,0 Z" id="Shape"></path>
            </g>
        </g>
    </g>
</svg>