<?xml version="1.0" encoding="UTF-8" standalone="no"?>
<svg width="19px" height="20px" viewBox="0 0 19 20" version="1.1" xmlns="http://www.w3.org/2000/svg" xmlns:xlink="http://www.w3.org/1999/xlink">
    <!-- Generator: Sketch 41.2 (35397) - http://www.bohemiancoding.com/sketch -->
    <title>Shape</title>
    <desc>Created with Sketch.</desc>
    <defs></defs>
    <g id="Home" stroke="none" stroke-width="1" fill="none" fill-rule="evenodd">
        <g id="HOME-CLICKS-2---DESKTOP-1280" transform="translate(-899.000000, -1197.000000)" fill="#FFFFFF">
            <g id="Group-Copy" transform="translate(657.000000, 994.000000)">
                <path d="M254.6,203.97 L246.5,203.97 C245.78,203.97 245.15,204.4185 244.88,205.0464 L242.18,211.4151 C242.09,211.5945 242,211.7739 242,212.043 L242,213.7473 L242,213.837 C242,214.8237 242.81,215.631 243.8,215.631 L249.47,215.631 L248.57,219.7572 L248.57,220.0263 C248.57,220.3851 248.75,220.7439 248.93,221.013 L249.92,221.91 L255.86,215.9898 C256.22,215.631 256.4,215.1825 256.4,214.734 L256.4,205.764 C256.4,204.7773 255.59,203.97 254.6,203.97 L254.6,203.97 Z M258.2,203.97 L258.2,214.734 L261.8,214.734 L261.8,203.97 L258.2,203.97 L258.2,203.97 Z" id="Shape" transform="translate(251.900000, 212.940000) rotate(90.000000) translate(-251.900000, -212.940000) "></path>
            </g>
        </g>
    </g>
</svg>