<?xml version="1.0" encoding="UTF-8" standalone="no"?>
<svg width="41px" height="49px" viewBox="0 0 41 49" version="1.1" xmlns="http://www.w3.org/2000/svg" xmlns:xlink="http://www.w3.org/1999/xlink">
    <!-- Generator: Sketch 41.2 (35397) - http://www.bohemiancoding.com/sketch -->
    <title>Group 57</title>
    <desc>Created with Sketch.</desc>
    <defs>
        <polygon id="path-1" points="30.6930281 0.0275181159 0 0.0275181159 0 38.7665061 30.6930281 38.7665061"></polygon>
    </defs>
    <g id="Home" stroke="none" stroke-width="1" fill="none" fill-rule="evenodd">
        <g id="HOME---DESKTOP-1280" transform="translate(-684.000000, -190.000000)">
            <g id="Group-57" transform="translate(684.000000, 190.000000)">
                <g id="Page-1">
                    <path d="M34.3759855,9.27973007 C34.2321812,7.91358877 33.2042464,6.74184964 31.7892826,6.1169221 C31.7981594,6.1781721 31.8114746,6.23853442 31.8185761,6.30155978 C32.8749167,16.2586793 32.8731413,26.6365598 31.8185761,36.5963424 C31.6179601,38.4924293 29.7227609,39.9863967 27.4529601,40.2242953 C19.3759493,41.0729185 16.1456775,41.0303098 7.03451812,40.2242953 C6.40337681,40.1692591 5.80330435,40.0077011 5.26093116,39.7680272 C5.56451812,41.5735707 7.39491667,43.0098388 9.59192754,43.2033533 C18.7048623,44.0084801 21.932471,44.0519764 30.0103696,43.2033533 C32.2801703,42.964567 34.1744819,41.4714873 34.3759855,39.5754004 C35.429663,29.6147301 35.4314384,19.2377373 34.3759855,9.27973007" id="Fill-1" fill="#AEAEAE"></path>
                    <g id="Group-5" transform="translate(0.000000, 0.149929)">
                        <mask id="mask-2" fill="white">
                            <use xlink:href="#path-1"></use>
                        </mask>
                        <g id="Clip-4"></g>
                        <path d="M25.0917283,10.3147663 C24.1188297,10.3147663 23.2435761,9.89311775 22.6887754,9.15900543 C22.1268732,8.4115779 21.9626522,7.42270109 22.2431594,6.44625181 L23.9599348,0.483697464 C16.8664746,-0.130577899 13.8172899,-0.164309783 5.1410942,0.623063406 C2.86863043,0.829005435 0.980532609,2.35049094 0.780804348,4.24302717 C-0.261333333,14.1957083 -0.259557971,24.5655996 0.780804348,34.5209438 C0.980532609,36.4143678 2.86863043,37.9465054 5.1410942,38.1462337 C14.2469275,38.9504728 17.4754239,38.9957446 25.5479964,38.1462337 C27.8151341,37.9083351 29.7103333,36.4152554 29.9100616,34.5209438 C30.7728877,26.3720308 30.9184674,17.949712 30.3672174,9.7022663 L25.5169275,10.2890236 C25.3704601,10.3067772 25.2284312,10.3147663 25.0917283,10.3147663 Z M26.206567,14.7575217 L18.2902264,14.7575217 C17.857038,14.7575217 17.506404,14.4068877 17.506404,13.9736993 C17.506404,13.5422862 17.857038,13.1916522 18.2902264,13.1916522 L26.206567,13.1916522 C26.6379801,13.1916522 26.9886141,13.5422862 26.9886141,13.9736993 C26.9886141,14.4068877 26.6379801,14.7575217 26.206567,14.7575217 Z M26.206567,18.5787228 L18.2902264,18.5787228 C17.857038,18.5787228 17.506404,18.2289764 17.506404,17.7966757 C17.506404,17.364375 17.857038,17.0137409 18.2902264,17.0137409 L26.206567,17.0137409 C26.6379801,17.0137409 26.9886141,17.364375 26.9886141,17.7966757 C26.9886141,18.2289764 26.6379801,18.5787228 26.206567,18.5787228 Z M26.206567,22.3999239 L18.2902264,22.3999239 C17.857038,22.3999239 17.506404,22.0492899 17.506404,21.6196522 C17.506404,21.1855761 17.857038,20.8358297 18.2902264,20.8358297 L26.206567,20.8358297 C26.6379801,20.8358297 26.9886141,21.1855761 26.9886141,21.6196522 C26.9886141,22.0492899 26.6379801,22.3999239 26.206567,22.3999239 Z M26.1302264,26.254058 L5.17917572,26.254058 C4.74421196,26.254058 4.39446558,25.9051993 4.39446558,25.4737862 C4.39446558,25.0397101 4.74421196,24.6917391 5.17917572,24.6917391 L26.1302264,24.6917391 C26.5634149,24.6917391 26.9140489,25.0397101 26.9140489,25.4737862 C26.9140489,25.9051993 26.5634149,26.254058 26.1302264,26.254058 Z M26.1302264,30.0769457 L5.17917572,30.0769457 C4.74421196,30.0769457 4.39446558,29.7271993 4.39446558,29.2948986 C4.39446558,28.8634855 4.74421196,28.5128514 5.17917572,28.5128514 L26.1302264,28.5128514 C26.5634149,28.5128514 26.9140489,28.8634855 26.9140489,29.2948986 C26.9140489,29.7271993 26.5634149,30.0769457 26.1302264,30.0769457 Z M26.1302264,33.8955725 L5.17917572,33.8955725 C4.74421196,33.8955725 4.39446558,33.5476014 4.39446558,33.1126377 C4.39446558,32.6812246 4.74421196,32.3314783 5.17917572,32.3314783 L26.1302264,32.3314783 C26.5634149,32.3314783 26.9140489,32.6812246 26.9140489,33.1126377 C26.9140489,33.5476014 26.5634149,33.8955725 26.1302264,33.8955725 Z M14.7482011,20.4424982 C14.6958279,21.0328062 14.3008098,21.5228062 13.8081467,21.5742917 C11.2232192,21.8485851 8.53265761,21.8485851 5.94595471,21.5742917 C5.45506703,21.5228062 5.06892572,21.0319185 5.004125,20.4424982 C4.78398007,18.3475707 4.79640761,17.5078243 5.004125,15.1430417 C5.05827355,14.5536214 5.45506703,14.0645091 5.94595471,14.0121359 C8.53265761,13.7413931 11.2232192,13.7413931 13.8081467,14.0121359 C14.3008098,14.0645091 14.6958279,14.5536214 14.7482011,15.1430417 C14.968346,17.5575344 14.9426033,18.2934221 14.7482011,20.4424982 Z" id="Combined-Shape" fill="#AEAEAE" mask="url(#mask-2)"></path>
                    </g>
                    <path d="M25.9273913,1.24461775 L24.2230435,7.16633877 C24.0188768,7.87914674 24.4050181,8.4037663 25.0920833,8.4037663 C25.1488949,8.4037663 25.2074819,8.40110326 25.2687319,8.39400181 L30.5699638,7.75220833 C29.4869928,5.27202717 27.1790217,2.5947808 25.9273913,1.24461775" id="Fill-6" fill="#A24684"></path>
                </g>
                <g id="Group-14" transform="translate(18.000000, 26.000000)">
                    <ellipse id="Oval-2" fill="#FFFFFF" cx="11.7536232" cy="11.5652174" rx="11" ry="11"></ellipse>
                    <g id="cancel-copy-3" transform="translate(2.594203, 2.405797)" fill="#A8407F">
                        <path d="M9,0 C4.05,0 0,4.05 0,9 C0,13.95 4.05,18 9,18 C13.95,18 18,13.95 18,9 C18,4.05 13.95,0 9,0 L9,0 Z M8.12845591,12.7774667 C7.29856461,13.508741 6.17523968,13.3323707 5.61725559,12.3798045 L3.74218806,9.17877045 C3.45382639,8.68961535 3.61780769,8.06102036 4.10975159,7.77210093 C4.59667565,7.49154789 5.22527063,7.65050936 5.5136323,8.14133774 L6.63205687,10.0503463 C6.91077049,10.526075 7.46755107,10.620024 7.88584772,10.2512055 L12.6914396,6.01404292 C13.1164523,5.64257508 13.7667999,5.68273376 14.1438454,6.106631 C14.5186598,6.53275928 14.4773856,7.18087584 14.0512573,7.55847904 L8.12845591,12.7774667 Z" id="Shape"></path>
                    </g>
                </g>
            </g>
        </g>
    </g>
</svg>