<?xml version="1.0" encoding="UTF-8" standalone="no"?>
<svg width="478px" height="600px" viewBox="0 0 478 600" version="1.1" xmlns="http://www.w3.org/2000/svg" xmlns:xlink="http://www.w3.org/1999/xlink">
    <!-- Generator: Sketch 41.2 (35397) - http://www.bohemiancoding.com/sketch -->
    <title>Fill 1</title>
    <desc>Created with Sketch.</desc>
    <defs></defs>
    <g id="Global" stroke="none" stroke-width="1" fill="none" fill-rule="evenodd">
        <g id="SIGNUP-DESKTOP" transform="translate(-400.000000, -95.000000)" fill="#FFFFFF">
            <path d="M808.27153,687.610202 C695.162289,697.461321 582.367232,697.465211 469.257992,687.610202 C436.900598,684.170282 408.922877,651.509522 406.323573,614.930482 C397.892142,468.254579 397.892142,321.747852 406.323573,175.071949 C408.922877,138.492909 436.898881,105.828259 469.257992,102.392229 C582.365515,92.5372201 695.164006,92.5352755 808.27153,102.390285 C840.616906,105.834093 868.62553,138.487075 871.204232,175.071949 C879.654547,321.743963 879.644246,468.258468 871.204232,614.930482 C868.622096,651.513411 840.618623,684.168338 808.27153,687.610202 Z" id="Fill-1"></path>
        </g>
    </g>
</svg>