<?xml version="1.0" encoding="UTF-8"?>
<svg width="50px" height="50px" viewBox="0 0 50 50" version="1.1" xmlns="http://www.w3.org/2000/svg" xmlns:xlink="http://www.w3.org/1999/xlink">
    <!-- Generator: Sketch 43.2 (39069) - http://www.bohemiancoding.com/sketch -->
    <title>Page 1</title>
    <desc>Created with Sketch.</desc>
    <defs></defs>
    <g id="Jobs" stroke="none" stroke-width="1" fill="none" fill-rule="evenodd">
        <g id="Blank-Screen---Profile-My-Referrals---Desktop" transform="translate(-480.000000, -379.000000)">
            <g id="Group-3" transform="translate(362.000000, 340.000000)">
                <g id="Group-5-Copy">
                    <g id="Page-1" transform="translate(118.000000, 39.000000)">
                        <path d="M24.3391781,25.3812329 C22.4809589,24.8613699 20.1343836,24.3791781 20.1343836,21.7278082 C20.1343836,19.3552055 22.0117808,17.7976712 24.3391781,17.5565753 L24.3391781,17.5189041 L24.3391781,16.9819178 C24.3391781,16.4812329 24.3391781,16.1106849 24.8658904,16.1106849 C25.3932877,16.1106849 25.3932877,16.4812329 25.3932877,16.9819178 L25.3932877,17.5565753 C26.5665753,17.5942466 28.8152055,18.0387671 28.8152055,19.3736986 C28.8152055,20.0963014 28.3069863,20.7456164 27.5049315,20.7456164 C26.8206849,20.7456164 26.2734247,20.3380822 25.3932877,20.2456164 L25.3932877,22.7113699 C27.2905479,23.229863 29.8323288,23.8791781 29.8323288,26.8634247 C29.8323288,29.3291781 27.8371233,30.9236986 25.3932877,31.1086301 L25.3932877,31.1641096 L25.3932877,31.7024658 C25.3932877,32.1291781 25.3932877,32.5743836 24.8658904,32.5743836 C24.3391781,32.5743836 24.3391781,32.1291781 24.3391781,31.7024658 L24.3391781,31.1278082 C22.7542466,31.0908219 20.0754795,30.6826027 20.0754795,29.0880822 C20.0754795,28.3647945 20.5857534,27.7716438 21.3857534,27.7716438 C22.2268493,27.7716438 23.2049315,28.3647945 24.3391781,28.4771233 L24.3391781,25.3812329 Z M24.3391781,20.2641096 C23.7515068,20.4120548 23.3015068,20.8010959 23.3015068,21.3949315 C23.3015068,21.8764384 23.7124658,22.1545205 24.3391781,22.3764384 L24.3391781,20.2641096 Z M25.3932877,28.4024658 C26.2145205,28.2175342 26.6645205,27.6236986 26.6645205,26.9010959 C26.6645205,26.2887671 26.1371233,25.9373973 25.3932877,25.6956164 L25.3932877,28.4024658 Z" id="Fill-1" fill="#A8417F"></path>
                        <path d="M15.1407534,41.4664384 L16.7633562,35.4143836 C17.1441781,33.9952055 16.2928082,33.1445205 14.8702055,33.5239726 L8.81952055,35.1452055 C7.39828767,35.5273973 7.0859589,36.6890411 8.12705479,37.730137 L9.27842466,38.8821918 L7.30171233,40.8609589 C6.71541096,41.4479452 6.71541096,42.3972603 7.30171233,42.9828767 C7.88732877,43.5705479 8.8380137,43.5691781 9.42431507,42.9828767 L11.4017123,41.0061644 L12.5558219,42.159589 C13.5955479,43.1986301 14.7592466,42.8883562 15.1407534,41.4664384" id="Fill-3" fill="#6DA3D7"></path>
                        <path d="M34.8197945,9.14691781 L33.1965068,15.1982877 C32.8163699,16.6195205 33.6663699,17.4695205 35.0876027,17.0900685 L41.1410274,15.4681507 C42.5636301,15.0873288 42.875274,13.925 41.8341781,12.8839041 L40.6807534,11.7297945 L42.6581507,9.75239726 C43.2444521,9.16609589 43.2444521,8.21678082 42.6581507,7.63047945 C42.0711644,7.04417808 41.1204795,7.04417808 40.5355479,7.63047945 L38.5581507,9.60856164 L37.4040411,8.45376712 C36.365,7.41472603 35.1992466,7.72568493 34.8197945,9.14691781" id="Fill-5" fill="#6DA3D7"></path>
                        <path d="M8.7669863,14.8530822 L14.8190411,16.4763699 C16.2389041,16.8571918 17.089589,16.0078767 16.7087671,14.585274 L15.0882192,8.53253425 C14.7087671,7.11130137 13.5450685,6.79965753 12.5039726,7.84075342 L11.3512329,8.99349315 L9.37383562,7.01541096 C8.78616438,6.42979452 7.83616438,6.43047945 7.25054795,7.01541096 C6.66493151,7.60171233 6.66424658,8.55239726 7.25054795,9.1380137 L9.22794521,11.1160959 L8.07383562,12.2702055 C7.03479452,13.3106164 7.34643836,14.4743151 8.7669863,14.8530822" id="Fill-7" fill="#6DA3D7"></path>
                        <path d="M41.0223288,34.4686301 L34.970274,32.8460274 C33.5483562,32.4645205 32.6990411,33.3138356 33.0784932,34.7378082 L34.7010959,40.789863 C35.079863,42.2110959 36.2435616,42.5241096 37.2853425,41.4823288 L38.4380822,40.329589 L40.4161644,42.3069863 C41.0017808,42.8926027 41.9531507,42.8926027 42.5387671,42.3056164 C43.1236986,41.7206849 43.1236986,40.7706849 42.5394521,40.1850685 L40.5620548,38.2063014 L41.7141096,37.0528767 C42.7538356,36.0138356 42.4421918,34.8487671 41.0223288,34.4686301" id="Fill-9" fill="#6DA3D7"></path>
                        <path d="M29.9416438,43.3834247 L26.810137,37.9567123 C26.0745205,36.6841096 24.869726,36.6841096 24.1334247,37.9567123 L21.0005479,43.3834247 C20.2656164,44.6580822 20.8663014,45.7019178 22.3389041,45.7019178 L23.9683562,45.7019178 L23.9683562,48.4984932 C23.9683562,49.3286301 24.6423288,49.999863 25.470411,49.999863 C26.299863,49.999863 26.970411,49.3286301 26.970411,48.4991781 L26.9690411,45.7019178 L28.6026027,45.7019178 C30.0738356,45.7019178 30.6758904,44.6580822 29.9416438,43.3834247" id="Fill-11" fill="#6DA3D7"></path>
                        <path d="M21.0021233,6.61520548 L24.1315753,12.0419178 C24.8692466,13.3145205 26.0719863,13.3145205 26.8089726,12.0419178 L29.9418493,6.61520548 C30.6774658,5.34054795 30.0767808,4.29739726 28.6041781,4.29808219 L26.9719863,4.29808219 L26.9719863,1.49945205 C26.9719863,0.672739726 26.3014384,-0.000547945206 25.4719863,0.000136986301 C24.6425342,0.000821917808 23.9699315,0.672739726 23.9726712,1.50082192 L23.9726712,4.29808219 L22.3391096,4.29808219 C20.8685616,4.29808219 20.2658219,5.34191781 21.0021233,6.61520548" id="Fill-13" fill="#6DA3D7"></path>
                        <path d="M6.61520548,29.0721233 L12.0419178,25.9413014 C13.3158904,25.205 13.3158904,24.0029452 12.0419178,23.2673288 L6.61520548,20.1330822 C5.34191781,19.3974658 4.29808219,19.9995205 4.29876712,21.4707534 L4.29808219,23.1015753 L1.49945205,23.1015753 C0.671369863,23.1015753 0.000136986302,23.774863 0.000136986302,24.6029452 C0.000136986302,25.4310274 0.671369863,26.105 1.50082192,26.1036301 L4.29808219,26.1036301 L4.29808219,27.7344521 C4.29808219,29.205 5.34191781,29.8084247 6.61520548,29.0721233" id="Fill-15" fill="#6DA3D7"></path>
                        <path d="M43.2938356,20.1358904 L37.8650685,23.2667123 C36.5917808,24.0023288 36.5917808,25.2043836 37.8650685,25.9413699 L43.2938356,29.0749315 C44.5671233,29.8119178 45.609589,29.2091781 45.6109589,27.7358904 L45.609589,26.1064384 L48.4068493,26.1064384 C49.2356164,26.1064384 49.9082192,25.4331507 49.9082192,24.6050685 C49.9068493,23.7756164 49.2356164,23.1036986 48.4068493,23.1036986 L45.6109589,23.1043836 L45.609589,21.4728767 C45.6109589,20.0023288 44.5657534,19.400274 43.2938356,20.1358904" id="Fill-17" fill="#6DA3D7"></path>
                    </g>
                </g>
            </g>
        </g>
    </g>
</svg>