<?xml version="1.0" encoding="UTF-8"?>
<svg width="47px" height="29px" viewBox="0 0 47 29" version="1.1" xmlns="http://www.w3.org/2000/svg" xmlns:xlink="http://www.w3.org/1999/xlink">
    <!-- Generator: Sketch 43.2 (39069) - http://www.bohemiancoding.com/sketch -->
    <title>Page 1</title>
    <desc>Created with Sketch.</desc>
    <defs></defs>
    <g id="Jobs" stroke="none" stroke-width="1" fill="none" fill-rule="evenodd">
        <g id="Blank-Screen---Jobs-All-Jobs---Desktop" transform="translate(-374.000000, -335.000000)">
            <g id="Group-7" transform="translate(362.000000, 315.000000)">
                <g id="Page-1" transform="translate(12.000000, 20.000000)">
                    <path d="M26.8264838,0 L22.7045838,0 L22.7045838,6.38 L26.8264838,6.38 C27.6754213,6.38 28.5795838,5.57902 28.5795838,4.74034 L28.5795838,1.69012 C28.5795838,0.85086 27.6754213,0 26.8264838,0" id="Fill-1" fill="#6DA3D7"></path>
                    <path d="M20.9423187,22.62 L15.7558687,22.62 L14.5203562,22.62 C9.92081875,22.62 6.17903125,19.04082 6.17903125,14.5 C6.17903125,9.95918 9.92081875,6.38 14.5203562,6.38 L15.7558687,6.38 L20.9423187,6.38 L20.9423187,0 L15.7558687,0 L14.5203562,0 C6.51390625,0 0.000293749999,6.59576 0.000293749999,14.5 C0.000293749999,22.40424 6.51390625,29 14.5203562,29 L15.7558687,29 L20.9423187,29 L20.9423187,22.62 Z" id="Fill-3" fill="#6DA3D7"></path>
                    <path d="M26.8264838,22.62 L22.7045838,22.62 L22.7045838,29 L26.8264838,29 C27.6754213,29 28.5795838,28.14856 28.5795838,27.31046 L28.5795838,24.25966 C28.5795838,23.42156 27.6754213,22.62 26.8264838,22.62" id="Fill-5" fill="#6DA3D7"></path>
                    <path d="M44.729195,6.902812 L35.8550075,6.870332 C34.6189075,6.865112 33.7376575,7.836612 33.999095,9.025612 L36.804995,19.554352 L36.804995,27.119292 C36.804995,28.033952 37.7150325,28.782732 38.567495,28.782732 C39.4199575,28.782732 40.329995,28.033952 40.329995,27.119292 L40.329995,19.720232 L40.917495,19.720232 L40.917495,27.119292 C40.917495,28.033952 41.5337825,28.782732 42.386245,28.782732 C43.2387075,28.782732 43.854995,28.033952 43.854995,27.119292 L43.854995,19.481272 L46.4758325,9.086512 C46.7120075,7.889392 45.962945,6.908032 44.729195,6.902812" id="Fill-7" fill="#A8417F"></path>
                    <path d="M43.2001675,2.782782 C43.2001675,1.275362 41.9628925,0.054462 40.434805,0.054462 C38.9078925,0.054462 37.6706175,1.275362 37.6706175,2.782782 C37.6706175,4.291362 38.9078925,5.512262 40.434805,5.512262 C41.9628925,5.512262 43.2001675,4.291362 43.2001675,2.782782" id="Fill-9" fill="#A8417F"></path>
                    <path d="M34.5046975,4.382306 C35.18326,4.382306 35.736685,3.837106 35.736685,3.164886 C35.736685,2.495566 35.18326,1.949786 34.5046975,1.949786 C33.82496,1.949786 33.271535,2.495566 33.271535,3.164886 C33.271535,3.837106 33.82496,4.382306 34.5046975,4.382306" id="Fill-11" fill="#6DA3D7"></path>
                    <path d="M30.99462,1.949554 C30.31547,1.949554 29.7626325,2.495334 29.7626325,3.166394 C29.7626325,3.836874 30.31547,4.381494 30.99462,4.381494 C31.6743575,4.381494 32.2277825,3.836874 32.2277825,3.166394 C32.2277825,2.495334 31.6743575,1.949554 30.99462,1.949554" id="Fill-13" fill="#6DA3D7"></path>
                    <path d="M34.5046975,24.59055 C33.82496,24.59055 33.271535,25.13575 33.271535,25.80681 C33.271535,26.47729 33.82496,27.02191 34.5046975,27.02191 C35.18326,27.02191 35.736685,26.47729 35.736685,25.80681 C35.736685,25.13575 35.18326,24.59055 34.5046975,24.59055" id="Fill-15" fill="#6DA3D7"></path>
                    <path d="M30.99462,24.59055 C30.31547,24.59055 29.7626325,25.13575 29.7626325,25.80681 C29.7626325,26.47729 30.31547,27.02191 30.99462,27.02191 C31.6743575,27.02191 32.2277825,26.47729 32.2277825,25.80681 C32.2277825,25.13575 31.6743575,24.59055 30.99462,24.59055" id="Fill-17" fill="#6DA3D7"></path>
                </g>
            </g>
        </g>
    </g>
</svg>