<?xml version="1.0" encoding="UTF-8"?>
<svg width="34px" height="27px" viewBox="0 0 34 27" version="1.1" xmlns="http://www.w3.org/2000/svg" xmlns:xlink="http://www.w3.org/1999/xlink">
    <!-- Generator: Sketch 43.1 (39012) - http://www.bohemiancoding.com/sketch -->
    <title>Page 1</title>
    <desc>Created with Sketch.</desc>
    <defs>
        <polygon id="path-1" points="0.000399642176 27 33.2511504 27 33.2511504 0.5906 0.000399642176 0.5906 0.000399642176 27"></polygon>
        <polygon id="path-3" points="0 27.4097 33.252 27.4097 33.252 0.9997 0 0.9997"></polygon>
    </defs>
    <g id="Profile" stroke="none" stroke-width="1" fill="none" fill-rule="evenodd">
        <g id="Page-1" transform="translate(0.000000, -1.000000)">
            <g id="Group-3" transform="translate(0.000000, 0.409700)">
                <mask id="mask-2" fill="white">
                    <use xlink:href="#path-1"></use>
                </mask>
                <g id="Clip-2"></g>
                <path d="M32.8574,23.8296 C32.7064,25.2766 31.5264,26.4536 30.0824,26.6066 C22.4434,27.1316 10.8094,27.1316 3.1694,26.6066 C1.7234,26.4536 0.5454,25.2766 0.3934,23.8296 C-0.1316,16.1926 -0.1296,11.3996 0.3934,3.7606 C0.5454,2.3136 1.7234,1.1376 3.1694,0.9836 C10.8094,0.4596 22.4434,0.4596 30.0824,0.9836 C31.5284,1.1376 32.7064,2.3136 32.8574,3.7606 C33.3814,11.3976 33.3834,16.1926 32.8574,23.8296" id="Fill-1" fill="#6DA4D8" mask="url(#mask-2)"></path>
            </g>
            <path d="M9.5273,20.5298 C9.1503,20.6098 8.8503,20.6408 8.6003,20.6408 C7.8133,20.6408 7.3903,20.2798 7.3903,19.5708 C7.3903,18.6748 8.0503,18.4238 9.5273,18.3608 L9.5273,20.5298 Z M15.1713,11.1298 L12.2603,11.4598 L12.2603,12.3718 L13.2093,12.5458 L13.2093,20.6208 L11.4923,20.6098 L11.4923,16.4748 C11.4923,14.9348 10.7693,14.2588 8.8353,14.2588 C7.9713,14.2588 6.9983,14.5268 5.9273,15.0908 L5.9273,16.3338 L7.8133,16.3338 L8.1623,15.4218 C8.3503,15.3888 8.4733,15.3748 8.5693,15.3748 C9.3873,15.3748 9.5273,15.8448 9.5273,16.7268 L9.5273,17.3238 C9.2143,17.3078 8.9303,17.2928 8.6493,17.2928 C6.4283,17.2928 5.3763,18.0318 5.3763,19.6808 C5.3763,21.1608 6.2893,22.0878 7.5933,22.0878 C8.2673,22.0878 8.9623,21.8508 9.5273,21.3808 L9.5273,22.0878 L12.2603,21.8988 L16.1153,21.8988 L16.1153,20.9858 L15.1713,20.7038 L15.1713,11.1298 Z" id="Fill-4" fill="#FFFFFF"></path>
            <path d="M20.9873,15.6104 L20.9873,14.4314 L18.8323,14.4314 L18.8323,12.6874 L17.8743,12.6874 L17.2633,13.9744 L15.9253,14.6664 L15.9253,15.6104 L16.8683,15.6104 L16.8683,19.6814 C16.8683,21.3474 17.2633,22.0874 18.7223,22.0874 C19.4483,22.0874 20.1833,21.8994 20.9873,21.5534 L20.9873,20.4044 C20.5593,20.4674 20.2483,20.4984 20.0613,20.4984 C18.9573,20.4984 18.8323,19.9964 18.8323,19.0364 L18.8323,15.6104 L20.9873,15.6104 Z" id="Fill-6" fill="#FFFFFF"></path>
            <path d="M21.6953,12.7027 C23.9053,12.8547 27.2683,12.8547 29.4753,12.7027 C29.8953,12.6577 30.2363,12.3187 30.2793,11.8997 C30.3263,11.2177 30.3573,9.5957 30.3753,9.0217 L20.7973,9.0217 C20.8143,9.5957 20.8453,11.2177 20.8923,11.8997 C20.9363,12.3187 21.2773,12.6577 21.6953,12.7027" id="Fill-8" fill="#3C5DAA"></path>
            <path d="M21.2168,9.4297 C21.2178,9.4827 21.2198,9.5377 21.2208,9.5957 C21.2378,10.3007 21.2648,11.3667 21.2998,11.8717 C21.3218,12.0837 21.5118,12.2727 21.7388,12.2967 C22.7828,12.3677 24.1548,12.4087 25.5868,12.4087 C27.0178,12.4087 28.3898,12.3677 29.4478,12.2957 C29.6598,12.2727 29.8498,12.0837 29.8728,11.8577 C29.9068,11.3617 29.9348,10.2877 29.9518,9.5767 C29.9528,9.5257 29.9538,9.4767 29.9558,9.4297 L21.2168,9.4297 Z M25.5868,13.2247 C24.1368,13.2247 22.7448,13.1837 21.6668,13.1097 C21.0408,13.0427 20.5508,12.5527 20.4878,11.9417 C20.4488,11.4047 20.4238,10.3707 20.4048,9.6167 C20.3988,9.3787 20.3938,9.1747 20.3898,9.0337 L20.3758,8.6137 L30.7958,8.6137 L30.7828,9.0337 C30.7788,9.1707 30.7738,9.3677 30.7678,9.5967 C30.7488,10.3577 30.7228,11.3997 30.6868,11.9277 C30.6218,12.5527 30.1318,13.0427 29.5198,13.1087 C28.4278,13.1837 27.0358,13.2247 25.5868,13.2247 L25.5868,13.2247 Z" id="Fill-10" fill="#6DA4D8"></path>
            <path d="M30.2793,6.0972 C30.2353,5.6792 29.8953,5.3382 29.4763,5.2942 C27.2673,5.1422 23.9053,5.1422 21.6953,5.2942 C21.2763,5.3382 20.9363,5.6792 20.8923,6.0972 C20.8173,7.2092 20.7793,8.1162 20.7803,9.0212 C20.7813,9.3592 22.1413,10.0452 22.1413,10.0452 L29.0263,10.0452 C29.0263,10.0452 30.3913,9.2982 30.3903,8.9302 C30.3903,8.0552 30.3533,7.1732 30.2793,6.0972" id="Fill-12" fill="#3C5DAA"></path>
            <path d="M22.2402,9.6368 L28.9212,9.6368 C29.4052,9.3628 29.8712,9.0278 29.9822,8.8738 C29.9802,8.0538 29.9462,7.2028 29.8722,6.1248 C29.8492,5.9128 29.6602,5.7238 29.4332,5.6998 C28.3892,5.6288 27.0172,5.5888 25.5862,5.5888 C24.1552,5.5888 22.7832,5.6288 21.7232,5.7008 C21.5112,5.7238 21.3222,5.9128 21.2992,6.1398 C21.2232,7.2388 21.1892,8.1128 21.1882,8.9478 C21.3142,9.0938 21.7712,9.3928 22.2402,9.6368 L22.2402,9.6368 Z M29.1312,10.4528 L22.0452,10.4528 L21.9582,10.4088 C20.3742,9.6108 20.3732,9.1828 20.3722,9.0228 C20.3712,8.1448 20.4062,7.2348 20.4852,6.0698 C20.5512,5.4438 21.0412,4.9528 21.6522,4.8878 C22.7452,4.8128 24.1362,4.7718 25.5862,4.7718 C27.0362,4.7718 28.4272,4.8128 29.5042,4.8868 C30.1312,4.9528 30.6212,5.4438 30.6852,6.0548 C30.7632,7.1918 30.7992,8.0738 30.7992,8.9298 C30.8002,9.0798 30.8012,9.5398 29.2222,10.4028 L29.1312,10.4528 Z" id="Fill-14" fill="#6DA4D8"></path>
            <mask id="mask-4" fill="white">
                <use xlink:href="#path-3"></use>
            </mask>
            <g id="Clip-17"></g>
            <polygon id="Fill-16" fill="#6DA4D8" mask="url(#mask-4)" points="24.317 11.1317 27.228 11.1317 27.228 10.0007 24.317 10.0007"></polygon>
            <path d="M27.2432,5.3326 C27.1652,5.3326 27.0872,5.3086 27.0172,5.2596 C27.0122,5.2556 26.3462,4.7846 25.7372,4.7846 C25.1212,4.7846 24.4372,5.2396 24.4302,5.2446 C24.2542,5.3636 24.0142,5.3156 23.8942,5.1396 C23.7752,4.9626 23.8212,4.7236 23.9982,4.6036 C24.0332,4.5806 24.8822,4.0126 25.7372,4.0126 C26.5972,4.0126 27.4342,4.6076 27.4702,4.6326 C27.6422,4.7576 27.6812,4.9996 27.5572,5.1716 C27.4812,5.2766 27.3632,5.3326 27.2432,5.3326" id="Fill-18" fill="#3C5DAA" mask="url(#mask-4)"></path>
        </g>
    </g>
</svg>