<?xml version="1.0" encoding="UTF-8" standalone="no"?>
<svg width="6px" height="11px" viewBox="0 0 8 16" version="1.1" xmlns="http://www.w3.org/2000/svg" xmlns:xlink="http://www.w3.org/1999/xlink">
    <!-- Generator: Sketch 41.2 (35397) - http://www.bohemiancoding.com/sketch -->
    <title>Shape</title>
    <desc>Created with Sketch.</desc>
    <defs></defs>
    <g id="Symbols" stroke="none" stroke-width="1" fill="none" fill-rule="evenodd">
        <path d="M8,3.28571429 L6.45714286,3.28571429 C5.84228571,3.28571429 5.71428571,3.5277619 5.71428571,4.13780952 L5.71428571,5.47619048 L8,5.47619048 L7.76114286,7.66666667 L5.71428571,7.66666667 L5.71428571,15.3333333 L2.28571429,15.3333333 L2.28571429,7.66666667 L0,7.66666667 L0,5.47619048 L2.28571429,5.47619048 L2.28571429,2.94838095 C2.28571429,1.01090476 3.34971429,0 5.74742857,0 L8,0 L8,3.28571429 L8,3.28571429 Z" id="Shape" fill="#939598"></path>
    </g>
</svg>