<?xml version="1.0" encoding="UTF-8" standalone="no"?>
<svg width="64px" height="64px" viewBox="0 0 64 64" version="1.1" xmlns="http://www.w3.org/2000/svg" xmlns:xlink="http://www.w3.org/1999/xlink">
    <!-- Generator: Sketch 41.2 (35397) - http://www.bohemiancoding.com/sketch -->
    <title>Group 3</title>
    <desc>Created with Sketch.</desc>
    <defs></defs>
    <g id="Page-1" stroke="none" stroke-width="1" fill="none" fill-rule="evenodd">
        <g id="Group-3">
            <path d="M64,32 C64,49.67 49.673,64 32,64 C14.327,64 0,49.67 0,32 C0,14.33 14.327,0 32,0 C49.673,0 64,14.33 64,32" id="Fill-235" fill="#4C5665"></path>
            <path d="M48,23 C48,24.1 47.105,25 46,25 C44.895,25 44,24.1 44,23 C44,21.9 44.895,21 46,21 C47.105,21 48,21.9 48,23" id="Fill-236" fill="#B95756"></path>
            <path d="M58,33 C58,34.1 57.105,35 56,35 C54.895,35 54,34.1 54,33 C54,31.9 54.895,31 56,31 C57.105,31 58,31.9 58,33" id="Fill-237" fill="#B95756"></path>
            <path d="M46,39 L46,43 L14,43 C11.791,43 10,41.21 10,39 L10,24 C10,21.79 11.791,20 14,20 L44,20 C46.209,20 46,21.79 46,24 L46,39" id="Fill-238" fill="#F1CC84"></path>
            <path d="M55.997,39 C55.997,39 56.247,43 51.997,43 L43.997,43 L43.997,39 L43.997,34 L43.997,30 L53,30 C55,30 55.997,30.79 55.997,33 L55.997,39" id="Fill-239" fill="#F1CC84"></path>
            <polygon id="Fill-240" fill="#D5925C" points="15 30 33 30 33 24 15 24"></polygon>
            <polygon id="Fill-241" fill="#D5925C" points="37 30 42 30 42 24 37 24"></polygon>
            <polygon id="Fill-242" fill="#D5925C" points="14 30 19 30 19 24 14 24"></polygon>
            <path d="M23,43 C23,45.21 21.209,47 19,47 C16.791,47 15,45.21 15,43 C15,40.79 16.791,39 19,39 C21.209,39 23,40.79 23,43" id="Fill-243" fill="#DEDFCB"></path>
            <path d="M23,43 L22,43 C21.997,44.66 20.656,46 19,46 C17.344,46 16.003,44.66 16,43 C16.003,41.34 17.344,40 19,40 C20.656,40 21.997,41.34 22,43 L24,43 C23.999,40.24 21.762,38 19,38 C16.238,38 14.001,40.24 14,43 C14.001,45.76 16.238,48 19,48 C21.762,48 23.999,45.76 24,43 L23,43" id="Fill-244" fill="#4C5665"></path>
            <path d="M51,43 C51,45.21 49.209,47 47,47 C44.791,47 43,45.21 43,43 C43,40.79 44.791,39 47,39 C49.209,39 51,40.79 51,43" id="Fill-245" fill="#DEDFCB"></path>
            <path d="M51,43 L50,43 C49.997,44.66 48.656,46 47,46 C45.344,46 44.003,44.66 44,43 C44.003,41.34 45.344,40 47,40 C48.656,40 49.997,41.34 50,43 L52,43 C51.999,40.24 49.762,38 47,38 C44.238,38 42.001,40.24 42,43 C42.001,45.76 44.238,48 47,48 C49.762,48 51.999,45.76 52,43 L51,43" id="Fill-246" fill="#4C5665"></path>
        </g>
    </g>
</svg>