<?xml version="1.0" encoding="UTF-8" standalone="no"?>
<svg width="64px" height="64px" viewBox="0 0 64 64" version="1.1" xmlns="http://www.w3.org/2000/svg" xmlns:xlink="http://www.w3.org/1999/xlink">
    <!-- Generator: Sketch 41.2 (35397) - http://www.bohemiancoding.com/sketch -->
    <title>Group 41</title>
    <desc>Created with Sketch.</desc>
    <defs></defs>
    <g id="Page-1" stroke="none" stroke-width="1" fill="none" fill-rule="evenodd">
        <g id="Group-41">
            <g id="Group-11">
                <path d="M64,32 C64,49.67 49.673,64 32,64 C14.327,64 0,49.67 0,32 C0,14.33 14.327,0 32,0 C49.673,0 64,14.33 64,32" id="Fill-157" fill="#76ACC5"></path>
                <path d="M24.083,52.5 C17.436,52.5 13.324,48.2 11.903,46.42 L51.929,46.42 C51.043,47.57 48.619,49.81 42.903,50.51 C42.803,50.53 32.679,52.5 24.083,52.5" id="Fill-158" fill="#638DA1"></path>
                <path d="M24.083,53.5 C15.164,53.5 10.68,46.48 10.493,46.18 C10.396,46.03 10.392,45.83 10.48,45.67 C10.567,45.51 10.735,45.42 10.917,45.42 L52.833,45.42 C53,45.42 53.155,45.5 53.248,45.64 C53.341,45.78 53.358,45.95 53.296,46.11 C53.223,46.28 51.423,50.47 43.061,51.5 C42.994,51.51 32.775,53.5 24.083,53.5 M11.903,46.42 C13.324,48.2 17.436,52.5 24.083,52.5 C32.679,52.5 42.803,50.53 42.903,50.51 C48.619,49.81 51.043,47.57 51.929,46.42 L11.903,46.42" id="Fill-159" fill="#638DA1"></path>
                <path d="M49,42.5 L14,42.5 C13.757,42.5 13.55,42.33 13.508,42.09 C13.466,41.85 13.602,41.61 13.829,41.53 C22.734,38.3 28.462,18.07 28.518,17.87 C28.58,17.64 28.785,17.5 29.008,17.5 L29.067,17.5 C29.315,17.54 29.5,17.75 29.5,18 L29.5,39.22 C31.277,33.86 34.33,21.27 27.599,12.3 C27.477,12.14 27.467,11.91 27.573,11.74 C27.664,11.59 27.825,11.5 27.997,11.5 C28.026,11.5 28.055,11.5 28.085,11.51 C28.299,11.54 49.5,15.5 49.5,42 C49.5,42.28 49.276,42.5 49,42.5" id="Fill-160" fill="#638DA1"></path>
                <path d="M43,49 C43,49 32.828,51 24.083,51 C15.339,51 10.917,43.92 10.917,43.92 L52.833,43.92 C52.833,43.92 51.167,48 43,49" id="Fill-161" fill="#FFFFFF"></path>
                <path d="M43,49 L42.904,48.51 C42.902,48.51 42.275,48.63 41.189,48.82 C37.934,49.38 30.587,50.5 24.083,50.5 C19.85,50.5 16.674,48.79 14.535,47.07 C13.467,46.21 12.663,45.35 12.129,44.7 C11.862,44.38 11.662,44.12 11.531,43.93 C11.465,43.84 11.416,43.77 11.385,43.72 L11.35,43.67 L11.341,43.65 L10.917,43.92 L10.917,44.42 L52.833,44.42 L52.833,43.92 L52.37,43.73 L52.375,43.73 L52.37,43.73 L52.375,43.73 L52.37,43.73 C52.344,43.79 51.916,44.74 50.537,45.79 C49.158,46.85 46.821,48.03 42.939,48.5 L42.904,48.51 L43,49 L43.061,49.5 C47.221,48.99 49.777,47.68 51.291,46.47 C52.806,45.27 53.271,44.17 53.296,44.11 C53.359,43.95 53.342,43.78 53.248,43.64 C53.155,43.5 53.001,43.42 52.833,43.42 L10.917,43.42 C10.735,43.42 10.568,43.52 10.479,43.67 C10.391,43.83 10.396,44.03 10.493,44.18 C10.513,44.21 11.646,46.03 13.907,47.85 C16.165,49.67 19.572,51.5 24.083,51.5 C32.898,51.5 43.08,49.49 43.096,49.49 L43,49 L43.061,49.5 L43,49" id="Fill-162" fill="#FFFFFF"></path>
                <path d="M29,16 C29,16 23.25,36.64 14,40 L29,40 L29,16" id="Fill-163" fill="#F1CC84"></path>
                <path d="M29,16 L28.518,15.87 C28.518,15.87 28.431,16.18 28.257,16.75 C27.649,18.73 25.994,23.75 23.498,28.62 C22.25,31.05 20.791,33.44 19.161,35.39 C17.531,37.34 15.73,38.84 13.829,39.53 C13.601,39.61 13.465,39.85 13.508,40.09 C13.55,40.33 13.757,40.5 14,40.5 L29,40.5 C29.134,40.5 29.259,40.45 29.354,40.35 C29.448,40.26 29.5,40.13 29.5,40 L29.5,16 C29.5,15.75 29.316,15.54 29.068,15.5 C28.82,15.47 28.586,15.62 28.518,15.87 L29,16 L28.5,16 L28.5,39.5 L14,39.5 L14,40 L14.171,40.47 C16.623,39.58 18.77,37.59 20.643,35.14 C26.248,27.79 29.469,16.16 29.482,16.13 L29,16 L28.5,16 L29,16" id="Fill-164" fill="#F1CC84"></path>
                <path d="M29,40 C29,40 37,22 28,10 C28,10 49,13.62 49,40 L29,40" id="Fill-247" fill="#B95756"></path>
                <path d="M29,40 L29.457,40.2 C29.469,40.17 32.773,32.75 32.777,24.17 C32.777,19.35 31.725,14.13 28.4,9.7 L28,10 L27.915,10.49 L27.966,10.5 C28.532,10.61 33.689,11.7 38.67,15.89 C43.649,20.09 48.492,27.35 48.5,40 L49,40 L49,39.5 L29,39.5 L29,40 L29.457,40.2 L29,40 L29,40.5 L49,40.5 C49.134,40.5 49.259,40.45 49.354,40.35 C49.448,40.26 49.5,40.13 49.5,40 C49.508,26.68 44.167,18.99 38.812,14.72 C33.46,10.44 28.134,9.52 28.085,9.51 C27.883,9.47 27.681,9.56 27.573,9.74 C27.466,9.91 27.477,10.14 27.6,10.3 C30.755,14.51 31.776,19.49 31.777,24.17 C31.777,28.34 30.968,32.25 30.157,35.12 C29.752,36.56 29.347,37.73 29.044,38.54 C28.892,38.95 28.766,39.26 28.678,39.48 C28.591,39.69 28.543,39.8 28.543,39.8 C28.474,39.95 28.489,40.13 28.581,40.27 C28.673,40.41 28.831,40.5 29,40.5 L29,40" id="Fill-248" fill="#B95756"></path>
            </g>
        </g>
    </g>
</svg>