<?xml version="1.0" encoding="UTF-8" standalone="no"?>
<svg width="64px" height="64px" viewBox="0 0 64 64" version="1.1" xmlns="http://www.w3.org/2000/svg" xmlns:xlink="http://www.w3.org/1999/xlink">
    <!-- Generator: Sketch 41.2 (35397) - http://www.bohemiancoding.com/sketch -->
    <title>Group 21</title>
    <desc>Created with Sketch.</desc>
    <defs></defs>
    <g id="Page-1" stroke="none" stroke-width="1" fill="none" fill-rule="evenodd">
        <g id="Group-21">
            <path d="M64,32 C64,49.67 49.673,64 32,64 C14.327,64 0,49.67 0,32 C0,14.33 14.327,0 32,0 C49.673,0 64,14.33 64,32" id="Fill-487" fill="#73BBA2"></path>
            <path d="M17,48 C12.029,48 8,43.97 8,39 C8,38.66 8.019,38.33 8.055,38 C8.552,42.5 12.367,46 17,46 C20.919,46 24.253,43.5 25.488,40 L25.945,40 C25.448,44.5 21.633,48 17,48 M11.083,38 C11.028,37.67 11,37.34 11,37 C11,33.69 13.692,31 17,31 C19.607,31 21.832,32.67 22.657,35 L21.468,35 C20.369,33.77 18.773,33 17,33 C14.032,33 11.561,35.17 11.083,38" id="Fill-488" fill="#629986"></path>
            <path d="M47,48 C42.03,48 38,43.97 38,39 C38,38.66 38.019,38.33 38.055,38 C38.553,42.5 42.368,46 47,46 C51.633,46 55.448,42.5 55.945,38 C55.981,38.33 56,38.66 56,39 C56,43.97 51.971,48 47,48 M52.916,38 C52.439,35.17 49.968,33 47,33 C46.503,33 46.019,33.06 45.557,33.18 L44.642,31.48 C45.366,31.17 46.163,31 47,31 C50.308,31 53,33.69 53,37 C53,37.34 52.971,37.67 52.916,38 M41.083,38 C41.029,37.67 41,37.34 41,37 C41,35.63 41.463,34.36 42.241,33.35 L42.919,34.6 C41.971,35.49 41.308,36.67 41.083,38" id="Fill-489" fill="#629986"></path>
            <path d="M17,28 C12.029,28 8,32.03 8,37 C8,41.97 12.029,46 17,46 C21.97,46 26,41.97 26,37 C26,32.03 21.97,28 17,28 M17,31 C20.308,31 23,33.69 23,37 C23,40.31 20.308,43 17,43 C13.692,43 11,40.31 11,37 C11,33.69 13.692,31 17,31" id="Fill-490" fill="#4C5665"></path>
            <path d="M47,28 C42.03,28 38,32.03 38,37 C38,41.97 42.03,46 47,46 C51.971,46 56,41.97 56,37 C56,32.03 51.971,28 47,28 M47,31 C50.308,31 53,33.69 53,37 C53,40.31 50.308,43 47,43 C43.691,43 41,40.31 41,37 C41,33.69 43.691,31 47,31" id="Fill-491" fill="#4C5665"></path>
            <path d="M33,40 L25.945,40 C25.981,39.67 26,39.34 26,39 C26,38.66 25.981,38.33 25.945,38 L33,38 C33.327,38 33.638,37.9 33.9,37.7 L35.9,36.2 C35.98,36.14 36.053,36.07 36.118,36 C36.147,36.03 36.174,36.07 36.2,36.1 C36.697,36.76 36.563,37.7 35.9,38.2 L33.9,39.7 C33.64,39.89 33.325,40 33,40" id="Fill-492" fill="#629986"></path>
            <path d="M25.945,40 L25.488,40 C25.713,39.36 25.868,38.69 25.945,38 C25.981,38.33 26,38.66 26,39 C26,39.34 25.981,39.67 25.945,40" id="Fill-493" fill="#568071"></path>
            <path d="M22.195,40 L18,40 C17.171,40 16.5,39.33 16.5,38.5 C16.5,38.12 16.644,37.77 16.882,37.5 C17.156,37.81 17.556,38 18,38 L22.917,38 C22.796,38.72 22.547,39.39 22.195,40" id="Fill-494" fill="#629986"></path>
            <path id="Fill-495" fill="#568071"></path>
            <path d="M25.488,40 L22.195,40 C22.547,39.39 22.796,38.72 22.917,38 L25.945,38 C25.868,38.69 25.713,39.36 25.488,40" id="Fill-496" fill="#414A55"></path>
            <path d="M18,38 L33,38 C33.327,38 33.638,37.9 33.9,37.7 L35.9,36.2 C36.563,35.7 36.697,34.76 36.2,34.1 C35.703,33.44 34.763,33.3 34.1,33.8 L32.5,35 L18,35 C17.171,35 16.5,35.67 16.5,36.5 C16.5,37.33 17.171,38 18,38" id="Fill-497" fill="#FFFFFF"></path>
            <path d="M41.68,21.86 L42.68,23.71 C43.074,24.44 43.984,24.71 44.713,24.32 C45.442,23.93 45.713,23.02 45.32,22.29 L44.32,20.44 C43.926,19.71 43.015,19.44 42.287,19.83 C41.558,20.22 41.286,21.13 41.68,21.86" id="Fill-498" fill="#F1CC84"></path>
            <path d="M54.999,32.39 C54.905,32.39 54.81,32.38 54.717,32.37 C53.143,29.75 50.276,28 47,28 C45.646,28 44.362,28.3 43.21,28.83 L42.451,27.43 C42.498,27.42 42.545,27.4 42.591,27.38 L42.593,27.38 C42.717,27.32 44.544,26.61 46.928,26.61 L46.949,26.61 C49.089,26.61 51.622,27.14 54.04,29.15 C54.32,29.39 54.661,29.5 54.999,29.5 C55.182,29.5 55.365,29.47 55.538,29.4 C55.679,29.51 55.82,29.62 55.96,29.74 C56.597,30.27 56.683,31.22 56.152,31.85 C55.855,32.21 55.429,32.39 54.999,32.39" id="Fill-499" fill="#629986"></path>
            <path d="M54.717,32.37 C54.476,32.32 54.242,32.21 54.04,32.05 C51.639,30.04 49.043,29.5 46.932,29.5 C45.656,29.5 44.556,29.7 43.783,29.89 L43.21,28.83 C44.362,28.3 45.646,28 47,28 C50.276,28 53.143,29.75 54.717,32.37" id="Fill-500" fill="#414A55"></path>
            <path d="M32.5,35 L28.306,35 C27.222,34.5 26.124,33.79 25.013,32.9 C23.522,29.99 20.493,28 17,28 C14.477,28 12.197,29.04 10.563,30.71 C10.137,30.92 9.898,31.09 9.892,31.1 C9.625,31.29 9.314,31.39 9.005,31.39 C8.545,31.39 8.091,31.18 7.798,30.78 C7.308,30.12 7.44,29.19 8.1,28.69 C8.123,28.68 8.265,28.57 8.513,28.42 C8.67,28.47 8.835,28.5 9.001,28.5 C9.311,28.5 9.624,28.4 9.892,28.21 L9.963,28.16 C10.313,27.92 11.879,27 13.976,27 L14,27 L21.882,27 L21.885,27 C22.334,27.5 22.776,27.96 23.211,28.39 L21.427,28.39 C25.384,33.02 28.934,34.29 31.641,34.29 C32.446,34.29 33.176,34.18 33.82,34.01 L32.5,35 M36.485,34.79 C36.45,34.54 36.356,34.31 36.2,34.1 C35.95,33.77 35.589,33.57 35.207,33.51 C36.356,32.99 37,32.39 37,32.39 C37,32.12 36.958,31.87 36.877,31.63 C37.474,31.2 37.863,30.8 38.056,30.57 C38.379,31.18 38.5,31.8 38.5,32.39 C38.5,32.72 38.391,33.04 38.189,33.31 C38.146,33.36 37.567,34.1 36.485,34.79 M34.514,29.57 C32.874,28.9 30.547,28.54 27.918,28.43 C27.35,28.04 26.746,27.57 26.108,27 C28.972,27 31.574,27.28 33.296,27.83 C34.168,28.11 34.795,28.45 35.115,28.75 C35.224,28.85 35.3,28.94 35.355,29.02 C35.222,29.13 35.062,29.25 34.877,29.37 C34.764,29.44 34.643,29.5 34.514,29.57" id="Fill-501" fill="#629986"></path>
            <path d="M25.013,32.9 C23.981,32.07 22.937,31.06 21.885,29.9 L21.882,29.89 L14,29.89 C12.487,29.89 11.269,30.36 10.563,30.71 C12.197,29.04 14.477,28 17,28 C20.493,28 23.522,29.99 25.013,32.9" id="Fill-502" fill="#414A55"></path>
            <path d="M32.382,35.97 C31.052,35.97 29.691,35.65 28.306,35 L32.5,35 L33.82,34.01 C34.34,33.87 34.804,33.7 35.207,33.51 C35.589,33.57 35.95,33.77 36.2,34.1 C36.356,34.31 36.45,34.54 36.485,34.79 C35.573,35.36 34.304,35.9 32.697,35.96 C32.592,35.97 32.487,35.97 32.382,35.97" id="Fill-503" fill="#CFCEC8"></path>
            <path d="M31.641,34.29 C28.934,34.29 25.384,33.02 21.427,28.39 L23.211,28.39 C24.753,29.91 26.206,30.99 27.577,31.74 C29.327,32.69 30.954,33.08 32.378,33.08 L32.388,33.08 L32.397,33.08 C34.251,33.08 35.703,32.43 36.658,31.79 C36.734,31.73 36.807,31.68 36.877,31.63 C36.958,31.87 37,32.12 37,32.39 C37,32.39 36.356,32.99 35.207,33.51 C35.138,33.5 35.069,33.5 34.999,33.5 C34.686,33.5 34.37,33.6 34.1,33.8 L33.82,34.01 C33.176,34.18 32.446,34.29 31.641,34.29 M32.388,30.08 C31.496,30.07 30.39,29.85 29.007,29.1 C28.661,28.91 28.298,28.69 27.918,28.43 C30.547,28.54 32.874,28.9 34.514,29.57 C33.966,29.85 33.266,30.08 32.388,30.08" id="Fill-504" fill="#568071"></path>
            <path d="M33.82,34.01 L34.1,33.8 C34.37,33.6 34.686,33.5 34.999,33.5 C35.069,33.5 35.138,33.5 35.207,33.51 C34.804,33.7 34.34,33.87 33.82,34.01" id="Fill-505" fill="#A9A8A4"></path>
            <path d="M42.591,27.38 L42.593,27.38 C42.718,27.32 44.554,26.6 46.949,26.61 C49.089,26.61 51.622,27.14 54.04,29.15 C54.676,29.68 55.622,29.6 56.152,28.96 C56.683,28.32 56.597,27.38 55.96,26.85 C52.924,24.31 49.589,23.6 46.949,23.61 C43.77,23.61 41.524,24.58 41.409,24.62 C40.648,24.95 40.295,25.83 40.621,26.59 C40.947,27.35 41.829,27.71 42.591,27.38" id="Fill-506" fill="#B95756"></path>
            <path d="M26,25.5 L21.427,25.5 C30.22,35.78 37,29.5 37,29.5 C37,26.57 32,25.5 26,25.5" id="Fill-507" fill="#D5925C"></path>
            <path d="M9.9,28.2 L9.383,27.51 L9.892,28.21 L9.9,28.2 L9.383,27.51 L9.892,28.21 L9.963,28.16 C10.314,27.92 11.891,26.99 14,27 L26,27 C28.906,27 31.553,27.27 33.296,27.83 C34.168,28.11 34.795,28.45 35.115,28.75 C35.278,28.9 35.368,29.03 35.421,29.14 C35.473,29.25 35.498,29.35 35.5,29.5 L37,29.5 L35.811,28.59 L36.201,28.89 L35.82,28.57 L35.811,28.59 L36.201,28.89 L35.82,28.57 C35.801,28.6 35.463,29 34.877,29.37 C34.285,29.73 33.473,30.07 32.388,30.08 C31.496,30.07 30.39,29.85 29.007,29.1 C27.628,28.35 25.985,27.07 24.115,25 C23.56,24.38 22.612,24.33 21.996,24.89 C21.38,25.44 21.331,26.39 21.885,27 C23.928,29.27 25.819,30.78 27.577,31.74 C29.331,32.69 30.962,33.08 32.388,33.08 C34.247,33.08 35.702,32.43 36.658,31.79 C37.62,31.14 38.118,30.5 38.189,30.41 C38.392,30.15 38.5,29.83 38.5,29.5 C38.502,28.92 38.37,28.35 38.126,27.84 C37.694,26.94 36.969,26.3 36.151,25.81 C34.914,25.09 33.401,24.67 31.68,24.39 C29.959,24.12 28.028,24 26,24 L14,24 C12.248,24 10.8,24.44 9.784,24.87 C8.767,25.31 8.172,25.75 8.1,25.8 C7.437,26.3 7.303,27.24 7.8,27.9 C8.297,28.56 9.237,28.7 9.9,28.2" id="Fill-508" fill="#B95756"></path>
            <path d="M47.002,40.5 C46.468,40.5 45.952,40.22 45.681,39.71 L42.919,34.6 C43.652,33.92 44.555,33.42 45.557,33.18 L48.32,38.29 C48.713,39.02 48.442,39.93 47.713,40.32 C47.486,40.44 47.242,40.5 47.002,40.5 M40.726,30.55 L36.106,22 L32,22 C31.172,22 30.5,21.33 30.5,20.5 C30.5,19.67 31.172,19 32,19 L37,19 C37.551,19 38.058,19.3 38.319,19.79 L41.05,24.84 C40.545,25.25 40.351,25.96 40.621,26.59 C40.806,27.02 41.169,27.32 41.587,27.44 C41.492,27.48 41.432,27.5 41.409,27.51 C40.648,27.84 40.295,28.72 40.621,29.48 C40.741,29.76 40.935,29.99 41.171,30.14 C41.018,30.27 40.87,30.41 40.726,30.55" id="Fill-509" fill="#629986"></path>
            <path d="M42.919,34.6 L42.241,33.35 C42.864,32.54 43.69,31.89 44.642,31.48 L45.557,33.18 C44.555,33.42 43.652,33.92 42.919,34.6" id="Fill-510" fill="#568071"></path>
            <path d="M42.241,33.35 L40.726,30.55 C40.87,30.41 41.018,30.27 41.171,30.14 C41.416,30.3 41.705,30.39 42.001,30.39 C42.199,30.39 42.399,30.35 42.591,30.27 C42.607,30.26 43.047,30.08 43.783,29.89 L44.642,31.48 C43.69,31.89 42.864,32.54 42.241,33.35" id="Fill-511" fill="#414A55"></path>
            <path d="M41.171,30.14 C40.935,29.99 40.741,29.76 40.621,29.48 C40.295,28.72 40.648,27.84 41.409,27.51 C41.432,27.5 41.492,27.48 41.587,27.44 C41.72,27.48 41.86,27.5 42.001,27.5 C42.151,27.5 42.302,27.48 42.451,27.43 L43.21,28.83 C42.47,29.18 41.785,29.62 41.171,30.14" id="Fill-512" fill="#568071"></path>
            <path d="M42.001,30.39 C41.705,30.39 41.416,30.3 41.171,30.14 C41.785,29.62 42.47,29.18 43.21,28.83 L43.783,29.89 C43.047,30.08 42.607,30.26 42.591,30.27 C42.399,30.35 42.199,30.39 42.001,30.39" id="Fill-513" fill="#3A4048"></path>
            <path d="M42.001,27.5 C41.86,27.5 41.72,27.48 41.587,27.44 C41.169,27.32 40.806,27.02 40.621,26.59 C40.351,25.96 40.545,25.25 41.05,24.84 L42.451,27.43 C42.302,27.48 42.151,27.5 42.001,27.5" id="Fill-514" fill="#974D4C"></path>
            <path d="M32,20 L36.106,20 L45.68,37.71 C46.074,38.44 46.984,38.71 47.713,38.32 C48.442,37.93 48.714,37.02 48.32,36.29 L38.32,17.79 C38.058,17.3 37.55,17 37,17 L32,17 C31.172,17 30.5,17.67 30.5,18.5 C30.5,19.33 31.172,20 32,20" id="Fill-515" fill="#FFFFFF"></path>
        </g>
    </g>
</svg>